Board x0
 Quad/Chan :        q14c0              q14c1              q14c2              q14c3      
      Link :         056                057                058                059       
Frame 0000 : 0v00000000000000f2 0v00000000000000f6 0v00000000000000ea 0v00000000000000c2
Frame 0001 : 0v00000000000000f2 0v00000000000000f6 0v00000000000000ea 0v00000000000000c2
Frame 0002 : 0v00000000000000f2 0v00000000000000f6 0v00000000000000ea 0v00000000000000c2
Frame 0003 : 0v00000000000000f2 0v00000000000000f6 0v00000000000000ea 0v00000000000000c2
Frame 0004 : 0v00000000000000f2 0v00000000000000f6 0v00000000000000ea 0v00000000000000c2
Frame 0005 : 0v00000000000000f2 0v00000000000000f6 0v00000000000000ea 0v00000000000000c2
Frame 0006 : 0v00000000000000f2 0v00000000000000f6 0v00000000000000ea 0v00000000000000c2
Frame 0007 : 0v00000000000000f2 0v00000000000000f6 0v00000000000000ea 0v00000000000000c2
Frame 0008 : 0v00000000000000f2 0v00000000000000f6 0v00000000000000ea 0v00000000000000c2
Frame 0009 : 0v00000000000000f2 0v00000000000000f6 0v00000000000000ea 0v00000000000000c2
Frame 0010 : 0v00000000000000f2 0v00000000000000f6 0v00000000000000ea 0v00000000000000c2
Frame 0011 : 0v00000000000000f2 0v00000000000000f6 0v00000000000000ea 0v00000000000000c2
Frame 0012 : 0v00000000000000f2 0v00000000000000f6 0v00000000000000ea 0v00000000000000c2
Frame 0013 : 0v00000000000000f2 0v00000000000000f6 0v00000000000000ea 0v00000000000000c2
Frame 0014 : 0v00000000000000f2 0v00000000000000f6 0v00000000000000ea 0v00000000000000c2
Frame 0015 : 0v00000000000000f2 0v00000000000000f6 0v00000000000000ea 0v00000000000000c2
Frame 0016 : 0v00000000000000f2 0v00000000000000f6 0v00000000000000ea 0v00000000000000c2
Frame 0017 : 0v00000000000000f2 0v00000000000000f6 0v00000000000000ea 0v00000000000000c2
Frame 0018 : 0v00000000000000f2 0v00000000000000f6 0v00000000000000ea 0v00000000000000c2
Frame 0019 : 0v00000000000000f2 0v00000000000000f6 0v00000000000000ea 0v00000000000000c2
Frame 0020 : 0v00000000000000f2 0v00000000000000f6 0v00000000000000ea 0v00000000000000c2
Frame 0021 : 0v00000000000000f2 0v00000000000000f6 0v00000000000000ea 0v00000000000000c2
Frame 0022 : 0v00000000000000f2 0v00000000000000f6 0v00000000000000ea 0v00000000000000c2
Frame 0023 : 0v00000000000000f2 0v00000000000000f6 0v00000000000000ea 0v00000000000000c2
Frame 0024 : 0v00000000000000f2 0v00000000000000f6 0v00000000000000ea 0v00000000000000c2
Frame 0025 : 0v00000000000000f2 0v00000000000000f6 0v00000000000000ea 0v00000000000000c2
Frame 0026 : 0v00000000000000f2 0v00000000000000f6 0v00000000000000ea 1v00000000000000fe
Frame 0027 : 0v00000000000000f2 0v00000000000000f6 1v00000000000000ff 1v00000000000000fe
Frame 0028 : 0v00000000000000f2 1v00000000000000ff 1v00000000000000ff 1v0000000000000000
Frame 0029 : 0v00000000000000f2 0v00000000000000ff 1v0000000000000000 1v0000000000000059
Frame 0030 : 1v00000000000000ff 1v00000000000000ff 1v0000000000000081 1v0000000000000000
Frame 0031 : 1v00000000000000ff 1v0000000000000000 1v0000000000000000 1v0000000000000000
Frame 0032 : 1v0000000000000000 1v0000000000000091 1v0000000000000001 1v0000000000000000
Frame 0033 : 1v0000000000000070 1v0000000000000000 1v0000000000000000 1v0000000000000000
Frame 0034 : 1v0000000000000000 1v0000000000000000 1v0000000000000000 1v00000000000000fe
Frame 0035 : 1v0000000000000000 1v0000000000000000 1v00000000000000ff 1v0000000000000000
Frame 0036 : 1v0000000000000000 1v0000000000000000 1v0000000000000000 1v0000000000000000
Frame 0037 : 1v0000000000000000 1v00000000000000ff 1v0000000000000000 1v0000000000000000
Frame 0038 : 1v00000000000000ff 1v0000000000000000 1v0000000000000000 1v0000000000000000
Frame 0039 : 1v0000000000000000 1v0000000000000000 1v0000000000000000 1v00000000000000fe
Frame 0040 : 1v0000000000000000 1v0000000000000000 1v00000000000000ff 1v0000000000000004
Frame 0041 : 1v0000000000000000 1v0000000000000000 1v0000000000000002 1v0000000000000000
Frame 0042 : 1v0000000000000000 1v00000000000000ff 1v0000000000000000 1v00000000000000fa
Frame 0043 : 1v00000000000000ff 1v0000000000000002 1v00000000000000fd 1v0000000000000015
Frame 0044 : 1v0000000000000003 1v0000000000000000 1v0000000000000012 1v0000000000000000
Frame 0045 : 1v0000000000000000 1v00000000000000fe 1v0000000000000000 1v0000000000000000
Frame 0046 : 1v00000000000000fe 1v000000000000000a 1v0000000000000000 1v0000000000000000
Frame 0047 : 1v0000000000000015 1v0000000000000000 1v0000000000000000 1v0000000000000000
Frame 0048 : 1v0000000000000000 1v0000000000000000 1v0000000000000000 1v0000000000000000
Frame 0049 : 1v0000000000000000 1v0000000000000000 1v0000000000000000 1v0000000000000000
Frame 0050 : 1v0000000000000000 1v0000000000000000 1v0000000000000000 1v0000000000000001
Frame 0051 : 1v0000000000000000 1v0000000000000000 1v0000000000000001 1v0000000000000002
Frame 0052 : 1v0000000000000000 1v0000000000000000 1v0000000000000002 1v0000000000000000
Frame 0053 : 1v0000000000000000 1v0000000000000000 1v0000000000000000 1v00000000000000fe
Frame 0054 : 1v0000000000000000 1v0000000000000002 1v00000000000000ff 1v0000000000000001
Frame 0055 : 1v0000000000000001 1v0000000000000000 1v0000000000000000 1v0000000000000000
Frame 0056 : 1v0000000000000000 1v00000000000000ff 1v0000000000000000 1v0000000000000000
Frame 0057 : 1v00000000000000ff 1v0000000000000000 1v0000000000000000 1v0000000000000000
Frame 0058 : 1v0000000000000000 1v0000000000000000 1v0000000000000001 1v0000000000000000
Frame 0059 : 1v0000000000000000 1v0000000000000000 1v0000000000000000 1v0000000000000000
Frame 0060 : 1v0000000000000000 1v0000000000000001 1v0000000000000000 1v0000000000000000
Frame 0061 : 1v0000000000000000 1v0000000000000000 1v0000000000000000 1v0000000000000015
Frame 0062 : 1v0000000000000000 1v0000000000000000 1v0000000000000023 1v0000000000000000
Frame 0063 : 1v0000000000000000 1v0000000000000000 1v0000000000000000 1v00000000000000d2
Frame 0064 : 1v0000000000000000 1v0000000000000027 1v00000000000000d6 1v0000000000000020
Frame 0065 : 1v000000000000001e 1v0000000000000000 1v000000000000001f 1v0000000000000000
Frame 0066 : 1v0000000000000000 1v00000000000000dd 1v0000000000000000 1v0000000000000000
Frame 0067 : 1v00000000000000dd 1v0000000000000027 1v0000000000000000 1v0000000000000000
Frame 0068 : 1v0000000000000015 1v0000000000000000 1v0000000000000000 1v0000000000000002
Frame 0069 : 1v0000000000000000 1v0000000000000000 1v0000000000000005 1v0000000000000000
Frame 0070 : 1v0000000000000000 1v0000000000000000 1v0000000000000000 1v0000000000000000
Frame 0071 : 1v0000000000000000 1v0000000000000002 1v0000000000000000 1v0000000000000000
Frame 0072 : 1v0000000000000001 1v0000000000000000 1v0000000000000000 1v0000000000000000
Frame 0073 : 1v0000000000000000 1v0000000000000000 1v0000000000000000 1v0000000000000000
Frame 0074 : 1v0000000000000000 1v0000000000000000 1v0000000000000000 1v000000000000000e
Frame 0075 : 1v0000000000000000 1v0000000000000000 1v000000000000002d 1v0000000000000000
Frame 0076 : 1v0000000000000000 1v0000000000000000 1v0000000000000000 1v0000000000000000
Frame 0077 : 1v0000000000000000 1v0000000000000017 1v0000000000000000 1v0000000000000000
Frame 0078 : 1v0000000000000033 1v0000000000000000 1v0000000000000000 1v00000000000000fe
Frame 0079 : 1v0000000000000000 1v0000000000000000 1v00000000000000ff 1v0000000000000001
Frame 0080 : 1v0000000000000000 1v0000000000000000 1v0000000000000000 1v00000000000000fe
Frame 0081 : 1v0000000000000000 1v00000000000000ff 1v00000000000000fe 1v0000000000000000
Frame 0082 : 1v00000000000000ff 1v0000000000000000 1v0000000000000000 1v0000000000000000
Frame 0083 : 1v0000000000000001 1v00000000000000fe 1v0000000000000000 1v0000000000000000
Frame 0084 : 1v00000000000000ff 1v0000000000000000 1v0000000000000000 1v0000000000000000
Frame 0085 : 1v0000000000000000 1v0000000000000000 1v0000000000000000 1v0000000000000005
Frame 0086 : 1v0000000000000000 1v0000000000000000 1v0000000000000003 1v0000000000000000
Frame 0087 : 1v0000000000000000 1v0000000000000000 1v0000000000000000 1v0000000000000000
Frame 0088 : 1v0000000000000000 1v0000000000000004 1v0000000000000000 1v0000000000000000
Frame 0089 : 1v0000000000000008 1v0000000000000000 1v0000000000000000 1v00000000000000fe
Frame 0090 : 1v0000000000000000 1v0000000000000000 1v00000000000000ff 1v0000000000000000
Frame 0091 : 1v0000000000000000 1v0000000000000000 1v0000000000000000 1v0000000000000000
Frame 0092 : 1v0000000000000000 1v00000000000000fe 1v0000000000000001 1v0000000000000000
Frame 0093 : 1v00000000000000fd 1v0000000000000000 1v0000000000000000 1v0000000000000000
Frame 0094 : 1v0000000000000000 1v0000000000000000 1v0000000000000000 1v0000000000000000
Frame 0095 : 1v0000000000000000 1v0000000000000000 1v0000000000000000 1v0000000000000052
Frame 0096 : 1v0000000000000000 1v0000000000000000 1v000000000000004e 1v00000000000000fe
Frame 0097 : 1v0000000000000000 1v0000000000000001 1v00000000000000ff 1v0000000000000000
Frame 0098 : 1v0000000000000000 1v000000000000008b 1v0000000000000000 1v0000000000000000
Frame 0099 : 1v0000000000000060 1v00000000000000ff 1v0000000000000000 1v0000000000000000
Frame 0100 : 1v00000000000000ff 1v0000000000000000 1v0000000000000000 1v0000000000000000
Frame 0101 : 1v0000000000000000 1v0000000000000000 1v0000000000000000 1v0000000000000000
Frame 0102 : 1v0000000000000000 1v0000000000000000 1v0000000000000000 1v0000000000000000
Frame 0103 : 1v0000000000000000 1v0000000000000000 1v0000000000000000 1v00000000000000fe
Frame 0104 : 1v0000000000000000 1v0000000000000000 1v00000000000000ff 1v0000000000000000
Frame 0105 : 1v0000000000000000 1v0000000000000000 1v0000000000000000 1v0000000000000000
Frame 0106 : 1v0000000000000000 1v00000000000000ff 1v0000000000000000 1v0000000000000000
Frame 0107 : 1v00000000000000ff 1v0000000000000000 1v0000000000000000 1v00000000000000fe
Frame 0108 : 1v0000000000000000 1v0000000000000000 1v00000000000000ff 1v0000000000000000
Frame 0109 : 1v0000000000000000 1v0000000000000000 1v0000000000000000 1v0000000000000000
Frame 0110 : 1v0000000000000000 1v00000000000000ff 1v0000000000000000 1v0000000000000000
Frame 0111 : 1v00000000000000ff 1v0000000000000000 1v0000000000000000 1v0000000000000002
Frame 0112 : 1v0000000000000000 1v0000000000000000 1v0000000000000002 1v0000000000000000
Frame 0113 : 1v0000000000000000 1v0000000000000000 1v0000000000000000 1v0000000000000000
Frame 0114 : 1v0000000000000000 1v0000000000000004 1v0000000000000000 1v00000000000000fe
Frame 0115 : 1v0000000000000001 1v0000000000000000 1v00000000000000ff 1v0000000000000000
Frame 0116 : 1v0000000000000000 1v0000000000000000 1v0000000000000000 1v0000000000000000
Frame 0117 : 1v0000000000000000 1v00000000000000ff 1v0000000000000000 1v0000000000000000
Frame 0118 : 1v00000000000000ff 1v0000000000000000 1v0000000000000000 1v0000000000000000
Frame 0119 : 1v0000000000000000 1v0000000000000000 1v0000000000000000 1v0000000000000000
Frame 0120 : 1v0000000000000000 1v0000000000000000 1v0000000000000000 1v0000000000000003
Frame 0121 : 1v0000000000000000 1v0000000000000000 1v0000000000000002 1v0000000000000000
Frame 0122 : 1v0000000000000000 1v0000000000000000 1v0000000000000000 1v0000000000000000
Frame 0123 : 1v0000000000000000 1v0000000000000001 1v0000000000000000 1v0000000000000000
Frame 0124 : 1v0000000000000001 1v0000000000000000 1v0000000000000000 1v00000000000000f8
Frame 0125 : 1v0000000000000000 1v0000000000000001 1v00000000000000fa 1v0000000000000003
Frame 0126 : 1v0000000000000000 1v0000000000000000 1v0000000000000006 1v0000000000000000
Frame 0127 : 1v0000000000000000 1v00000000000000fe 1v0000000000000000 1v0000000000000000
Frame 0128 : 1v00000000000000fd 1v0000000000000006 1v0000000000000000 1v00000000000000fe
Frame 0129 : 1v0000000000000009 1v0000000000000000 1v00000000000000f2 1v0000000000000000
Frame 0130 : 1v0000000000000000 1v0000000000000000 1v0000000000000000 1v0000000000000000
Frame 0131 : 1v0000000000000000 1v00000000000000f2 1v0000000000000000 1v0000000000000000
Frame 0132 : 1v00000000000000ee 1v0000000000000000 1v0000000000000000 1v00000000000000f0
Frame 0133 : 1v0000000000000000 1v0000000000000000 1v00000000000000f7 1v0000000000000000
Frame 0134 : 1v0000000000000000 1v0000000000000000 1v0000000000000000 1v00000000000000fe
Frame 0135 : 1v0000000000000000 1v00000000000000fd 1v00000000000000ff 1v0000000000000000
Frame 0136 : 1v00000000000000fb 1v0000000000000000 1v0000000000000000 1v0000000000000000
Frame 0137 : 1v0000000000000000 1v00000000000000fe 1v0000000000000000 1v0000000000000000
Frame 0138 : 1v00000000000000ff 1v0000000000000000 1v0000000000000000 1v0000000000000000
Frame 0139 : 1v0000000000000000 1v0000000000000000 1v0000000000000000 1v0000000000000003
Frame 0140 : 1v0000000000000000 1v0000000000000000 1v0000000000000004 1v0000000000000000
Frame 0141 : 1v0000000000000000 1v0000000000000000 1v0000000000000000 1v0000000000000001
Frame 0142 : 1v0000000000000000 1v0000000000000005 1v0000000000000003 1v0000000000000000
Frame 0143 : 1v0000000000000001 1v0000000000000000 1v0000000000000000 1v0000000000000000
Frame 0144 : 1v0000000000000000 1v0000000000000001 1v0000000000000000 1v0000000000000000
Frame 0145 : 1v0000000000000001 1v0000000000000000 1v0000000000000000 1v0000000000000000
Frame 0146 : 1v0000000000000000 1v0000000000000000 1v0000000000000000 1v00000000000000fd
Frame 0147 : 1v0000000000000000 1v0000000000000000 1v00000000000000fc 1v0000000000000000
Frame 0148 : 1v0000000000000000 1v0000000000000000 1v0000000000000000 1v0000000000000000
Frame 0149 : 1v0000000000000000 1v00000000000000fe 1v0000000000000000 1v0000000000000000
Frame 0150 : 1v00000000000000f9 1v0000000000000000 1v0000000000000000 1v0000000000000000
Frame 0151 : 1v0000000000000000 1v0000000000000000 1v0000000000000000 1v0000000000000002
Frame 0152 : 1v0000000000000000 1v0000000000000000 1v0000000000000001 1v0000000000000000
Frame 0153 : 1v0000000000000000 1v0000000000000000 1v0000000000000000 1v0000000000000000
Frame 0154 : 1v0000000000000000 1v0000000000000001 1v0000000000000000 1v0000000000000000
Frame 0155 : 1v0000000000000004 1v0000000000000000 1v0000000000000000 1v0000000000000000
Frame 0156 : 1v0000000000000000 1v0000000000000000 1v0000000000000000 1v0000000000000000
Frame 0157 : 1v0000000000000000 1v0000000000000000 1v0000000000000000 1v0000000000000000
Frame 0158 : 1v0000000000000000 1v0000000000000000 1v0000000000000000 1v0000000000000000
Frame 0159 : 1v0000000000000000 1v0000000000000000 1v0000000000000000 1v0000000000000000
Frame 0160 : 1v0000000000000000 1v0000000000000000 1v0000000000000000 1v0000000000000000
Frame 0161 : 1v0000000000000000 1v0000000000000000 1v0000000000000000 1v0000000000000000
Frame 0162 : 1v0000000000000000 1v0000000000000000 1v0000000000000000 1v00000000000000fe
Frame 0163 : 1v0000000000000000 1v0000000000000000 1v00000000000000ff 1v00000000000000fe
Frame 0164 : 1v0000000000000000 1v0000000000000000 1v00000000000000ff 1v0000000000000000
Frame 0165 : 1v0000000000000000 1v00000000000000ff 1v0000000000000000 1v0000000000000000
Frame 0166 : 1v00000000000000ff 1v00000000000000ff 1v0000000000000000 1v0000000000000000
Frame 0167 : 1v00000000000000ff 1v0000000000000000 1v0000000000000000 1v0000000000000000
Frame 0168 : 1v0000000000000000 1v0000000000000000 1v0000000000000000 1v0000000000000003
Frame 0169 : 1v0000000000000000 1v0000000000000000 1v0000000000000002 1v0000000000000015
Frame 0170 : 1v0000000000000000 1v0000000000000000 1v000000000000000a 1v00000000000000fe
Frame 0171 : 1v0000000000000000 1v0000000000000001 1v00000000000000ff 1v0000000000000000
Frame 0172 : 1v0000000000000001 1v0000000000000006 1v0000000000000000 1v0000000000000000
Frame 0173 : 1v0000000000000013 1v00000000000000ff 1v0000000000000000 1v00000000000000fd
Frame 0174 : 1v00000000000000ff 1v0000000000000000 1v00000000000000fe 1v0000000000000000
Frame 0175 : 1v0000000000000000 1v0000000000000000 1v0000000000000000 1v0000000000000000
Frame 0176 : 1v0000000000000000 1v00000000000000fe 1v0000000000000000 1v0000000000000000
Frame 0177 : 1v00000000000000fe 1v0000000000000000 1v0000000000000000 1v00000000000000fc
Frame 0178 : 1v0000000000000000 1v0000000000000000 1v00000000000000f7 1v00000000000000fe
Frame 0179 : 1v0000000000000000 1v0000000000000000 1v00000000000000ff 1v0000000000000001
Frame 0180 : 1v0000000000000000 1v00000000000000fc 1v0000000000000000 1v0000000000000000
Frame 0181 : 1v00000000000000fa 1v00000000000000fe 1v0000000000000000 1v00000000000000f8
Frame 0182 : 1v00000000000000fe 1v0000000000000000 1v00000000000000f1 1v0000000000000000
Frame 0183 : 1v0000000000000000 1v0000000000000000 1v0000000000000000 1v0000000000000000
Frame 0184 : 1v0000000000000000 1v00000000000000f2 1v0000000000000000 1v0000000000000000
Frame 0185 : 1v00000000000000ad 1v0000000000000000 1v0000000000000000 1v0000000000000000
Frame 0186 : 1v0000000000000000 1v0000000000000000 1v0000000000000000 1v0000000000000000
Frame 0187 : 1v0000000000000000 1v0000000000000000 1v0000000000000000 1v0000000000000000
Frame 0188 : 1v0000000000000000 1v0000000000000000 1v0000000000000000 1v00000000000000fe
Frame 0189 : 1v0000000000000000 1v0000000000000000 1v00000000000000ff 1v0000000000000000
Frame 0190 : 1v0000000000000000 1v0000000000000000 1v0000000000000000 1v0000000000000000
Frame 0191 : 1v0000000000000000 1v00000000000000ff 1v0000000000000000 1v000000000000000e
Frame 0192 : 1v00000000000000ff 1v0000000000000000 1v0000000000000012 1v0000000000000000
Frame 0193 : 1v0000000000000000 1v0000000000000000 1v0000000000000000 1v0000000000000000
Frame 0194 : 1v0000000000000000 1v000000000000000a 1v0000000000000000 1v0000000000000000
Frame 0195 : 1v0000000000000013 1v0000000000000000 1v0000000000000000 1v00000000000000ad
Frame 0196 : 1v0000000000000000 1v0000000000000000 1v00000000000000e6 1v0000000000000000
Frame 0197 : 1v0000000000000000 1v0000000000000000 1v0000000000000000 1v00000000000000fe
Frame 0198 : 1v0000000000000000 1v00000000000000e3 1v00000000000000ff 1v00000000000000fe
Frame 0199 : 1v00000000000000d5 1v0000000000000000 1v00000000000000ff 1v00000000000000fc
Frame 0200 : 1v0000000000000000 1v00000000000000ff 1v00000000000000ff 1v0000000000000000
Frame 0201 : 1v00000000000000ff 1v00000000000000ff 1v0000000000000000 1v0000000000000003
Frame 0202 : 1v00000000000000ff 1v00000000000000fe 1v000000000000000b 1v0000000000000000
Frame 0203 : 1v00000000000000ff 1v0000000000000000 1v0000000000000000 1v00000000000000fe
Frame 0204 : 1v0000000000000000 1v000000000000000b 1v00000000000000ff 1v0000000000000000
Frame 0205 : 1v0000000000000015 1v0000000000000000 1v0000000000000000 1v0000000000000001
Frame 0206 : 1v0000000000000000 1v00000000000000ff 1v0000000000000000 1v0000000000000000
Frame 0207 : 1v00000000000000ff 1v0000000000000000 1v0000000000000000 1v00000000000000fe
Frame 0208 : 1v0000000000000000 1v0000000000000000 1v00000000000000ff 1v0000000000000000
Frame 0209 : 1v0000000000000000 1v0000000000000000 1v0000000000000000 1v0000000000000000
Frame 0210 : 1v0000000000000000 1v00000000000000ff 1v0000000000000000 1v0000000000000000
Frame 0211 : 1v00000000000000ff 1v0000000000000000 1v0000000000000000 1v0000000000000000
Frame 0212 : 1v0000000000000000 1v0000000000000000 1v0000000000000000 1v00000000000000fc
Frame 0213 : 1v0000000000000000 1v0000000000000000 1v00000000000000ff 1v0000000000000000
Frame 0214 : 1v0000000000000000 1v0000000000000000 1v0000000000000000 1v0000000000000000
Frame 0215 : 1v0000000000000000 1v00000000000000ff 1v0000000000000000 1v0000000000000000
Frame 0216 : 1v00000000000000ff 1v0000000000000000 1v0000000000000000 1v0000000000000000
Frame 0217 : 1v0000000000000000 1v0000000000000000 1v0000000000000000 1v0000000000000000
Frame 0218 : 1v0000000000000000 1v0000000000000000 1v0000000000000000 1v00000000000000fe
Frame 0219 : 1v0000000000000000 1v0000000000000000 1v00000000000000ff 1v0000000000000000
Frame 0220 : 1v0000000000000000 1v0000000000000000 1v0000000000000000 1v0000000000000000
Frame 0221 : 1v0000000000000000 1v00000000000000ff 1v0000000000000000 1v0000000000000000
Frame 0222 : 1v00000000000000ff 1v0000000000000000 1v0000000000000000 1v0000000000000001
Frame 0223 : 1v0000000000000000 1v0000000000000000 1v0000000000000000 1v00000000000000fe
Frame 0224 : 1v0000000000000000 1v0000000000000000 1v00000000000000ff 1v00000000000000fe
Frame 0225 : 1v0000000000000000 1v0000000000000000 1v00000000000000ff 1v0000000000000000
Frame 0226 : 1v0000000000000000 1v00000000000000ff 1v0000000000000000 1v00000000000000c2
Frame 0227 : 1v00000000000000ff 1v00000000000000ff 1v00000000000000d2 1v0000000000000001
Frame 0228 : 1v00000000000000ff 1v0000000000000000 1v0000000000000001 1v0000000000000000
Frame 0229 : 1v0000000000000000 1v00000000000000ce 1v0000000000000000 1v00000000000000df
Frame 0230 : 1v00000000000000dd 1v0000000000000000 1v00000000000000f0 1v00000000000000e8
Frame 0231 : 1v0000000000000000 1v0000000000000000 1v00000000000000f7 1v0000000000000066
Frame 0232 : 1v0000000000000000 1v00000000000000ed 1v0000000000000074 1v0000000000000000
Frame 0233 : 1v00000000000000f2 1v00000000000000fa 1v0000000000000000 1v0000000000000000
Frame 0234 : 1v00000000000000fb 1v000000000000003e 1v0000000000000000 1v0000000000000000
Frame 0235 : 1v000000000000001e 1v0000000000000000 1v0000000000000000 1v0000000000000000
Frame 0236 : 1v0000000000000000 1v0000000000000001 1v0000000000000000 1v0000000000000006
Frame 0237 : 1v0000000000000000 1v0000000000000000 1v0000000000000008 1v0000000000000000
Frame 0238 : 1v0000000000000000 1v0000000000000000 1v0000000000000000 1v0000000000000002
Frame 0239 : 1v0000000000000000 1v0000000000000008 1v0000000000000000 1v000000000000000c
Frame 0240 : 1v0000000000000013 1v0000000000000000 1v000000000000000a 1v0000000000000000
Frame 0241 : 1v0000000000000000 1v0000000000000000 1v0000000000000000 1v0000000000000000
Frame 0242 : 1v0000000000000000 1v000000000000000c 1v0000000000000000 1v0000000000000000
Frame 0243 : 1v0000000000000009 1v0000000000000000 1v0000000000000000 1v0000000000000080
Frame 0244 : 1v0000000000000000 1v0000000000000000 1v000000000000003d 1v0000000000000000
Frame 0245 : 1v0000000000000000 1v0000000000000000 1v0000000000000000 1v0000000000000000
Frame 0246 : 1v0000000000000000 1v000000000000004b 1v0000000000000000 1v0000000000000000
Frame 0247 : 1v0000000000000039 1v0000000000000000 1v0000000000000000 1v0000000000000000
Frame 0248 : 1v0000000000000000 1v0000000000000000 1v0000000000000000 1v0000000000000000
Frame 0249 : 1v0000000000000000 1v0000000000000000 1v0000000000000000 1v00000000000000fe
Frame 0250 : 1v0000000000000000 1v0000000000000000 1v00000000000000ff 1v0000000000000000
Frame 0251 : 1v0000000000000000 1v0000000000000000 1v0000000000000000 1v0000000000000000
Frame 0252 : 1v0000000000000000 1v00000000000000ff 1v0000000000000000 1v0000000000000000
Frame 0253 : 1v00000000000000ff 1v0000000000000000 1v0000000000000000 1v0000000000000000
Frame 0254 : 1v0000000000000000 1v0000000000000000 1v0000000000000000 1v00000000000000fe
Frame 0255 : 1v0000000000000000 1v0000000000000000 1v00000000000000ff 1v0000000000000000
Frame 0256 : 1v0000000000000000 1v0000000000000000 1v0000000000000000 1v00000000000000fe
Frame 0257 : 1v0000000000000000 1v00000000000000ff 1v00000000000000ff 1v0000000000000000
Frame 0258 : 1v00000000000000ff 1v0000000000000000 1v0000000000000000 1v0000000000000000
Frame 0259 : 1v0000000000000000 1v00000000000000ff 1v0000000000000000 1v0000000000000000
Frame 0260 : 1v00000000000000ff 1v0000000000000000 1v0000000000000000 1v0000000000000000
Frame 0261 : 1v0000000000000000 1v0000000000000000 1v0000000000000000 1v0000000000000000
Frame 0262 : 1v0000000000000000 1v0000000000000000 1v0000000000000000 1v0000000000000000
Frame 0263 : 1v0000000000000000 1v0000000000000000 1v0000000000000000 1v0000000000000003
Frame 0264 : 1v0000000000000000 1v0000000000000000 1v0000000000000008 1v0000000000000000
Frame 0265 : 1v0000000000000000 1v0000000000000000 1v0000000000000000 1v0000000000000000
Frame 0266 : 1v0000000000000000 1v0000000000000007 1v0000000000000000 1v0000000000000000
Frame 0267 : 1v0000000000000006 1v0000000000000000 1v0000000000000000 1v0000000000000000
Frame 0268 : 1v0000000000000000 1v0000000000000000 1v0000000000000000 1v0000000000000000
Frame 0269 : 1v0000000000000000 1v0000000000000000 1v0000000000000000 1v00000000000000fc
Frame 0270 : 1v0000000000000000 1v0000000000000000 1v00000000000000ff 1v0000000000000000
Frame 0271 : 1v0000000000000000 1v0000000000000000 1v0000000000000000 1v000000000000001d
Frame 0272 : 1v0000000000000000 1v00000000000000ff 1v000000000000001b 1v0000000000000000
Frame 0273 : 1v00000000000000ff 1v0000000000000000 1v0000000000000000 1v0000000000000000
Frame 0274 : 1v0000000000000000 1v000000000000001c 1v0000000000000000 1v0000000000000000
Frame 0275 : 1v0000000000000015 1v0000000000000000 1v0000000000000000 1v0000000000000000
Frame 0276 : 1v0000000000000000 1v0000000000000000 1v0000000000000000 1v0000000000000000
Frame 0277 : 1v0000000000000000 1v0000000000000000 1v0000000000000000 1v00000000000000fe
Frame 0278 : 1v0000000000000000 1v0000000000000000 1v00000000000000ff 1v0000000000000000
Frame 0279 : 1v0000000000000000 1v0000000000000000 1v0000000000000000 1v0000000000000000
Frame 0280 : 1v0000000000000000 1v00000000000000ff 1v0000000000000000 1v0000000000000000
Frame 0281 : 1v00000000000000ff 1v0000000000000000 1v0000000000000000 1v0000000000000007
Frame 0282 : 1v0000000000000000 1v0000000000000000 1v0000000000000002 1v0000000000000000
Frame 0283 : 1v0000000000000000 1v0000000000000000 1v0000000000000000 1v0000000000000000
Frame 0284 : 1v0000000000000000 1v0000000000000005 1v0000000000000000 1v0000000000000000
Frame 0285 : 1v0000000000000005 1v0000000000000000 1v0000000000000000 1v0000000000000000
Frame 0286 : 1v0000000000000000 1v0000000000000000 1v0000000000000000 1v0000000000000000
Frame 0287 : 1v0000000000000000 1v0000000000000000 1v0000000000000000 1v0000000000000000
Frame 0288 : 1v0000000000000000 1v0000000000000000 1v0000000000000000 1v0000000000000000
Frame 0289 : 1v0000000000000000 1v0000000000000000 1v0000000000000000 1v0000000000000015
Frame 0290 : 1v0000000000000000 1v0000000000000000 1v000000000000001e 1v0000000000000027
Frame 0291 : 1v0000000000000000 1v0000000000000000 1v0000000000000036 1v0000000000000000
Frame 0292 : 1v0000000000000000 1v000000000000001c 1v0000000000000000 1v0000000000000000
Frame 0293 : 1v0000000000000015 1v0000000000000072 1v0000000000000000 1v0000000000000000
Frame 0294 : 1v0000000000000060 1v0000000000000000 1v0000000000000000 1v0000000000000000
Frame 0295 : 1v0000000000000000 1v0000000000000000 1v0000000000000000 1v00000000000000fe
Frame 0296 : 1v0000000000000000 1v0000000000000000 1v00000000000000fe 1v0000000000000000
Frame 0297 : 1v0000000000000000 1v0000000000000000 1v0000000000000000 1v0000000000000000
Frame 0298 : 1v0000000000000000 1v00000000000000ff 1v0000000000000000 1v0000000000000000
Frame 0299 : 1v00000000000000ff 1v0000000000000000 1v0000000000000000 1v00000000000000fe
Frame 0300 : 1v0000000000000000 1v0000000000000000 1v00000000000000ff 1v0000000000000000
Frame 0301 : 1v0000000000000000 1v0000000000000000 1v0000000000000000 1v0000000000000000
Frame 0302 : 1v0000000000000000 1v00000000000000ff 1v0000000000000000 1v0000000000000001
Frame 0303 : 1v00000000000000ff 1v0000000000000000 1v0000000000000001 1v0000000000000000
Frame 0304 : 1v0000000000000000 1v0000000000000000 1v0000000000000000 1v0000000000000001
Frame 0305 : 1v0000000000000000 1v0000000000000000 1v0000000000000001 1v0000000000000000
Frame 0306 : 1v0000000000000000 1v0000000000000000 1v0000000000000000 1v0000000000000000
Frame 0307 : 1v0000000000000000 1v0000000000000001 1v0000000000000000 1v0000000000000000
Frame 0308 : 1v0000000000000000 1v0000000000000000 1v0000000000000000 1v0000000000000000
Frame 0309 : 1v0000000000000000 1v0000000000000000 1v0000000000000000 1v0000000000000001
Frame 0310 : 1v0000000000000000 1v0000000000000000 1v0000000000000002 1v0000000000000000
Frame 0311 : 1v0000000000000000 1v0000000000000000 1v0000000000000000 1v0000000000000000
Frame 0312 : 1v0000000000000000 1v0000000000000002 1v0000000000000000 1v0000000000000000
Frame 0313 : 1v0000000000000003 1v0000000000000000 1v0000000000000000 1v0000000000000000
Frame 0314 : 1v0000000000000000 1v0000000000000000 1v0000000000000000 1v0000000000000000
Frame 0315 : 1v0000000000000000 1v0000000000000000 1v0000000000000000 1v0000000000000000
Frame 0316 : 1v0000000000000000 1v0000000000000000 1v0000000000000000 1v0000000000000000
Frame 0317 : 1v0000000000000000 1v0000000000000000 1v0000000000000000 1v0000000000000000
Frame 0318 : 1v0000000000000000 1v0000000000000000 1v0000000000000000 1v0000000000000000
Frame 0319 : 1v0000000000000000 1v0000000000000000 1v0000000000000000 1v0000000000000000
Frame 0320 : 1v0000000000000000 1v0000000000000000 1v0000000000000000 1v0000000000000000
Frame 0321 : 1v0000000000000000 1v0000000000000000 1v0000000000000000 1v0000000000000000
Frame 0322 : 1v0000000000000000 1v0000000000000000 1v0000000000000000 1v0000000000000000
Frame 0323 : 1v0000000000000000 1v0000000000000000 1v0000000000000000 1v0000000000000000
Frame 0324 : 1v0000000000000000 1v0000000000000000 1v0000000000000000 1v0000000000000000
Frame 0325 : 1v0000000000000000 1v0000000000000000 1v0000000000000000 1v0000000000000000
Frame 0326 : 1v0000000000000000 1v0000000000000000 1v0000000000000000 1v0000000000000000
Frame 0327 : 1v0000000000000000 1v0000000000000000 1v0000000000000000 1v0000000000000000
Frame 0328 : 1v0000000000000000 1v0000000000000000 1v0000000000000000 1v0000000000000000
Frame 0329 : 1v0000000000000000 1v0000000000000000 1v0000000000000000 1v0000000000000000
Frame 0330 : 1v0000000000000000 1v0000000000000000 1v0000000000000000 1v0000000000000000
Frame 0331 : 1v0000000000000000 1v0000000000000000 1v0000000000000000 1v0000000000000000
Frame 0332 : 1v0000000000000000 1v0000000000000000 1v0000000000000000 1v0000000000000000
Frame 0333 : 1v0000000000000000 1v0000000000000000 1v0000000000000000 1v0000000000000000
Frame 0334 : 1v0000000000000000 1v0000000000000000 1v0000000000000000 1v00000000000000fe
Frame 0335 : 1v0000000000000000 1v0000000000000000 1v00000000000000ff 1v0000000000000000
Frame 0336 : 1v0000000000000000 1v0000000000000000 1v0000000000000000 1v0000000000000000
Frame 0337 : 1v0000000000000000 1v00000000000000fd 1v0000000000000000 1v0000000000000001
Frame 0338 : 1v00000000000000ff 1v0000000000000000 1v0000000000000000 1v0000000000000000
Frame 0339 : 1v0000000000000000 1v0000000000000000 1v0000000000000000 1v0000000000000000
Frame 0340 : 1v0000000000000000 1v0000000000000000 1v0000000000000000 1v0000000000000000
Frame 0341 : 1v0000000000000000 1v0000000000000000 1v0000000000000000 1v0000000000000000
Frame 0342 : 1v0000000000000000 1v0000000000000000 1v0000000000000000 1v0000000000000000
Frame 0343 : 1v0000000000000000 1v0000000000000000 1v0000000000000000 1v0000000000000000
Frame 0344 : 1v0000000000000000 1v0000000000000000 1v0000000000000000 1v0000000000000000
Frame 0345 : 1v0000000000000000 1v0000000000000000 1v0000000000000000 1v0000000000000000
Frame 0346 : 1v0000000000000000 1v0000000000000000 1v0000000000000000 1v0000000000000000
Frame 0347 : 1v0000000000000000 1v0000000000000000 1v0000000000000000 1v0000000000000000
Frame 0348 : 1v0000000000000000 1v0000000000000000 1v0000000000000000 1v0000000000000000
Frame 0349 : 1v0000000000000000 1v0000000000000000 1v0000000000000000 1v0000000000000000
Frame 0350 : 1v0000000000000000 1v0000000000000000 1v0000000000000000 1v0000000000000000
Frame 0351 : 1v0000000000000000 1v0000000000000000 1v0000000000000000 1v0000000000000000
Frame 0352 : 1v0000000000000000 1v0000000000000000 1v0000000000000000 1v0000000000000000
Frame 0353 : 1v0000000000000000 1v0000000000000000 1v0000000000000000 1v0000000000000000
Frame 0354 : 1v0000000000000000 1v0000000000000000 1v0000000000000000 1v00000000000000df
Frame 0355 : 1v0000000000000000 1v0000000000000000 1v00000000000000f4 1v00000000000000fe
Frame 0356 : 1v0000000000000000 1v0000000000000000 1v00000000000000ff 1v0000000000000001
Frame 0357 : 1v0000000000000000 1v00000000000000f0 1v0000000000000000 1v0000000000000000
Frame 0358 : 1v00000000000000ee 1v00000000000000ff 1v0000000000000000 1v0000000000000000
Frame 0359 : 1v00000000000000ff 1v0000000000000001 1v0000000000000000 1v0000000000000000
Frame 0360 : 1v0000000000000000 1v0000000000000000 1v0000000000000000 1v00000000000000fe
Frame 0361 : 1v0000000000000000 1v0000000000000000 1v00000000000000ff 1v0000000000000008
Frame 0362 : 1v0000000000000000 1v0000000000000000 1v0000000000000011 1v0000000000000000
Frame 0363 : 1v0000000000000000 1v00000000000000ff 1v0000000000000000 1v00000000000000fe
Frame 0364 : 1v00000000000000ff 1v0000000000000010 1v00000000000000ff 1v00000000000000fe
Frame 0365 : 1v0000000000000013 1v0000000000000000 1v00000000000000ff 1v0000000000000000
Frame 0366 : 1v0000000000000000 1v00000000000000ff 1v0000000000000000 1v0000000000000000
Frame 0367 : 1v00000000000000ff 1v00000000000000ff 1v0000000000000000 1v0000000000000000
Frame 0368 : 1v00000000000000ff 1v0000000000000000 1v0000000000000000 1v0000000000000000
Frame 0369 : 1v0000000000000000 1v0000000000000000 1v0000000000000000 1v0000000000000000
Frame 0370 : 1v0000000000000000 1v0000000000000000 1v0000000000000000 1v00000000000000fe
Frame 0371 : 1v0000000000000000 1v0000000000000000 1v00000000000000ff 1v0000000000000000
Frame 0372 : 1v0000000000000000 1v0000000000000000 1v0000000000000000 1v0000000000000000
Frame 0373 : 1v0000000000000000 1v00000000000000ff 1v0000000000000000 1v0000000000000013
Frame 0374 : 1v00000000000000fe 1v0000000000000000 1v0000000000000013 1v0000000000000000
Frame 0375 : 1v0000000000000000 1v0000000000000000 1v0000000000000000 1v0000000000000000
Frame 0376 : 1v0000000000000000 1v0000000000000006 1v0000000000000000 1v00000000000000fe
Frame 0377 : 1v0000000000000009 1v0000000000000000 1v00000000000000ff 1v0000000000000000
Frame 0378 : 1v0000000000000000 1v0000000000000000 1v0000000000000000 1v0000000000000000
Frame 0379 : 1v0000000000000000 1v00000000000000ff 1v0000000000000000 1v0000000000000000
Frame 0380 : 1v00000000000000ff 1v0000000000000000 1v0000000000000000 1v0000000000000000
Frame 0381 : 1v0000000000000000 1v0000000000000000 1v0000000000000000 1v00000000000000fe
Frame 0382 : 1v0000000000000000 1v0000000000000000 1v00000000000000ff 1v0000000000000000
Frame 0383 : 1v0000000000000000 1v0000000000000000 1v0000000000000000 1v0000000000000000
Frame 0384 : 1v0000000000000000 1v00000000000000fe 1v0000000000000000 1v0000000000000000
Frame 0385 : 1v00000000000000ff 1v0000000000000000 1v0000000000000000 1v00000000000000fa
Frame 0386 : 1v0000000000000000 1v0000000000000000 1v00000000000000fb 1v0000000000000008
Frame 0387 : 1v0000000000000000 1v0000000000000000 1v000000000000000e 1v00000000000000fe
Frame 0388 : 1v0000000000000000 1v00000000000000fa 1v00000000000000ef 1v0000000000000000
Frame 0389 : 1v00000000000000fa 1v000000000000000d 1v0000000000000000 1v0000000000000000
Frame 0390 : 1v0000000000000013 1v00000000000000f4 1v0000000000000000 1v00000000000000fe
Frame 0391 : 1v00000000000000f9 1v0000000000000000 1v00000000000000ff 1v0000000000000000
Frame 0392 : 1v0000000000000000 1v0000000000000000 1v0000000000000000 1v0000000000000000
Frame 0393 : 1v0000000000000000 1v00000000000000ff 1v0000000000000000 1v0000000000000000
Frame 0394 : 1v00000000000000ff 1v0000000000000000 1v0000000000000000 1v0000000000000000
Frame 0395 : 1v0000000000000000 1v0000000000000000 1v0000000000000000 1v0000000000000001
Frame 0396 : 1v0000000000000000 1v0000000000000000 1v0000000000000001 1v0000000000000000
Frame 0397 : 1v0000000000000000 1v0000000000000000 1v0000000000000000 1v0000000000000001
Frame 0398 : 1v0000000000000000 1v0000000000000003 1v0000000000000002 1v00000000000000fe
Frame 0399 : 1v0000000000000001 1v0000000000000000 1v00000000000000ff 1v0000000000000000
Frame 0400 : 1v0000000000000000 1v0000000000000004 1v0000000000000000 1v00000000000000f0
Frame 0401 : 1v0000000000000002 1v00000000000000ff 1v00000000000000f6 1v0000000000000000
Frame 0402 : 1v00000000000000ff 1v0000000000000000 1v0000000000000000 1v0000000000000000
Frame 0403 : 1v0000000000000000 1v00000000000000f8 1v0000000000000000 1v0000000000000000
Frame 0404 : 1v00000000000000f9 1v0000000000000000 1v0000000000000000 1v0000000000000000
Frame 0405 : 1v0000000000000000 1v0000000000000000 1v0000000000000000 1v0000000000000000
Frame 0406 : 1v0000000000000000 1v0000000000000000 1v0000000000000000 1v00000000000000fe
Frame 0407 : 1v0000000000000000 1v0000000000000000 1v00000000000000ff 1v0000000000000000
Frame 0408 : 1v0000000000000000 1v0000000000000000 1v0000000000000000 1v000000000000003d
Frame 0409 : 1v0000000000000000 1v00000000000000ff 1v0000000000000076 1v0000000000000008
Frame 0410 : 1v00000000000000ff 1v0000000000000000 1v0000000000000004 1v0000000000000000
Frame 0411 : 1v0000000000000000 1v000000000000007a 1v0000000000000000 1v0000000000000001
Frame 0412 : 1v00000000000000a6 1v0000000000000007 1v0000000000000000 1v0000000000000000
Frame 0413 : 1v0000000000000009 1v0000000000000000 1v0000000000000000 1v0000000000000000
Frame 0414 : 1v0000000000000000 1v0000000000000000 1v0000000000000000 1v0000000000000002
Frame 0415 : 1v0000000000000000 1v0000000000000000 1v0000000000000005 1v00000000000000fe
Frame 0416 : 1v0000000000000000 1v0000000000000000 1v00000000000000fd 1v0000000000000015
Frame 0417 : 1v0000000000000000 1v0000000000000005 1v000000000000000e 1v0000000000000000
Frame 0418 : 1v0000000000000008 1v00000000000000fe 1v0000000000000000 1v0000000000000000
Frame 0419 : 1v00000000000000fe 1v000000000000000a 1v0000000000000000 1v0000000000000000
Frame 0420 : 1v0000000000000013 1v0000000000000000 1v0000000000000000 1v0000000000000000
Frame 0421 : 1v0000000000000000 1v0000000000000000 1v0000000000000000 1v0000000000000001
Frame 0422 : 1v0000000000000000 1v0000000000000000 1v0000000000000001 1v0000000000000001
Frame 0423 : 1v0000000000000000 1v0000000000000000 1v0000000000000001 1v0000000000000000
Frame 0424 : 1v0000000000000000 1v0000000000000001 1v0000000000000000 1v0000000000000000
Frame 0425 : 1v0000000000000001 1v0000000000000001 1v0000000000000000 1v0000000000000000
Frame 0426 : 1v0000000000000001 1v0000000000000000 1v0000000000000000 1v0000000000000000
Frame 0427 : 1v0000000000000000 1v0000000000000000 1v0000000000000000 1v00000000000000fe
Frame 0428 : 1v0000000000000000 1v0000000000000000 1v00000000000000fe 1v0000000000000000
Frame 0429 : 1v0000000000000000 1v0000000000000000 1v0000000000000000 1v00000000000000fe
Frame 0430 : 1v0000000000000000 1v00000000000000fe 1v00000000000000fe 1v00000000000000fe
Frame 0431 : 1v00000000000000fe 1v0000000000000000 1v00000000000000fe 1v0000000000000000
Frame 0432 : 1v0000000000000000 1v00000000000000fe 1v0000000000000000 1v0000000000000000
Frame 0433 : 1v00000000000000fe 1v00000000000000fe 1v0000000000000000 1v0000000000000000
Frame 0434 : 1v00000000000000fa 1v0000000000000000 1v0000000000000000 1v0000000000000000
Frame 0435 : 1v0000000000000000 1v0000000000000000 1v0000000000000000 1v0000000000000000
Frame 0436 : 1v0000000000000000 1v0000000000000000 1v0000000000000000 1v0000000000000000
Frame 0437 : 1v0000000000000000 1v0000000000000000 1v0000000000000000 1v00000000000000fe
Frame 0438 : 1v0000000000000000 1v0000000000000000 1v00000000000000fe 1v0000000000000000
Frame 0439 : 1v0000000000000000 1v0000000000000000 1v0000000000000000 1v00000000000000fe
Frame 0440 : 1v0000000000000000 1v00000000000000ff 1v00000000000000ff 1v0000000000000000
Frame 0441 : 1v00000000000000ff 1v0000000000000000 1v0000000000000000 1v0000000000000000
Frame 0442 : 1v0000000000000000 1v00000000000000ff 1v0000000000000000 1v0000000000000000
Frame 0443 : 1v00000000000000ff 1v0000000000000000 1v0000000000000000 1v0000000000000000
Frame 0444 : 1v0000000000000000 1v0000000000000000 1v0000000000000000 1v0000000000000000
Frame 0445 : 1v0000000000000000 1v0000000000000000 1v0000000000000000 1v0000000000000000
Frame 0446 : 1v0000000000000000 1v0000000000000000 1v0000000000000000 1v00000000000000fe
Frame 0447 : 1v0000000000000000 1v0000000000000000 1v00000000000000ff 1v0000000000000000
Frame 0448 : 1v0000000000000000 1v0000000000000000 1v0000000000000000 1v0000000000000000
Frame 0449 : 1v0000000000000000 1v00000000000000ff 1v0000000000000000 1v0000000000000000
Frame 0450 : 1v00000000000000ff 1v0000000000000000 1v0000000000000000 1v0000000000000000
Frame 0451 : 1v0000000000000000 1v0000000000000000 1v0000000000000000 1v0000000000000000
Frame 0452 : 1v0000000000000000 1v0000000000000000 1v0000000000000000 1v0000000000000002
Frame 0453 : 1v0000000000000000 1v0000000000000000 1v0000000000000002 1v0000000000000000
Frame 0454 : 1v0000000000000000 1v0000000000000000 1v0000000000000000 1v0000000000000001
Frame 0455 : 1v0000000000000000 1v0000000000000000 1v0000000000000001 1v0000000000000000
Frame 0456 : 1v0000000000000000 1v0000000000000000 1v0000000000000000 1v0000000000000000
Frame 0457 : 1v0000000000000000 1v0000000000000001 1v0000000000000000 1v0000000000000000
Frame 0458 : 1v0000000000000000 1v0000000000000000 1v0000000000000000 1v00000000000000fd
Frame 0459 : 1v0000000000000000 1v0000000000000000 1v00000000000000fa 1v0000000000000000
Frame 0460 : 1v0000000000000000 1v0000000000000000 1v0000000000000000 1v0000000000000000
Frame 0461 : 1v0000000000000000 1v00000000000000fd 1v0000000000000000 1v0000000000000002
Frame 0462 : 1v00000000000000fd 1v0000000000000000 1v0000000000000004 1v0000000000000005
Frame 0463 : 1v0000000000000000 1v0000000000000000 1v0000000000000006 1v0000000000000002
Frame 0464 : 1v0000000000000000 1v0000000000000003 1v0000000000000003 1v00000000000000fe
Frame 0465 : 1v0000000000000006 1v0000000000000002 1v00000000000000ff 1v0000000000000000
Frame 0466 : 1v0000000000000001 1v0000000000000001 1v0000000000000000 1v0000000000000000
Frame 0467 : 1v0000000000000001 1v00000000000000fe 1v0000000000000000 1v0000000000000000
Frame 0468 : 1v00000000000000ff 1v0000000000000000 1v0000000000000000 1v0000000000000000
Frame 0469 : 1v0000000000000000 1v0000000000000000 1v0000000000000000 1v0000000000000001
Frame 0470 : 1v0000000000000000 1v0000000000000000 1v0000000000000000 1v0000000000000000
Frame 0471 : 1v0000000000000000 1v0000000000000000 1v0000000000000001 1v0000000000000000
Frame 0472 : 1v0000000000000000 1v0000000000000000 1v0000000000000000 1v0000000000000000
Frame 0473 : 1v0000000000000000 1v0000000000000001 1v0000000000000000 1v0000000000000000
Frame 0474 : 1v0000000000000001 1v0000000000000000 1v0000000000000000 1v0000000000000000
Frame 0475 : 1v0000000000000000 1v0000000000000000 1v0000000000000000 1v0000000000000000
Frame 0476 : 1v0000000000000000 1v0000000000000000 1v0000000000000000 1v0000000000000000
Frame 0477 : 1v0000000000000000 1v0000000000000000 1v0000000000000000 1v00000000000000fe
Frame 0478 : 1v0000000000000000 1v0000000000000000 1v00000000000000ff 1v0000000000000001
Frame 0479 : 1v0000000000000000 1v0000000000000000 1v0000000000000000 1v0000000000000000
Frame 0480 : 1v0000000000000000 1v00000000000000fe 1v0000000000000000 1v0000000000000000
Frame 0481 : 1v00000000000000fe 1v0000000000000000 1v0000000000000000 1v00000000000000fe
Frame 0482 : 1v0000000000000000 1v0000000000000000 1v00000000000000ff 1v0000000000000000
Frame 0483 : 1v0000000000000000 1v0000000000000000 1v0000000000000000 1v0000000000000000
Frame 0484 : 1v0000000000000000 1v00000000000000ff 1v0000000000000000 1v0000000000000000
Frame 0485 : 1v00000000000000ff 1v0000000000000000 1v0000000000000000 1v0000000000000000
Frame 0486 : 1v0000000000000000 1v0000000000000000 1v0000000000000000 1v0000000000000001
Frame 0487 : 1v0000000000000000 1v0000000000000000 1v0000000000000000 1v0000000000000000
Frame 0488 : 1v0000000000000000 1v0000000000000000 1v0000000000000000 1v0000000000000000
Frame 0489 : 1v0000000000000000 1v0000000000000000 1v0000000000000000 1v0000000000000000
Frame 0490 : 1v0000000000000000 1v0000000000000000 1v0000000000000000 1v0000000000000000
Frame 0491 : 1v0000000000000000 1v0000000000000000 1v0000000000000000 1v0000000000000000
Frame 0492 : 1v0000000000000000 1v0000000000000000 1v0000000000000000 1v0000000000000000
Frame 0493 : 1v0000000000000000 1v0000000000000000 1v0000000000000000 1v0000000000000000
Frame 0494 : 1v0000000000000000 1v0000000000000000 1v0000000000000000 1v00000000000000fe
Frame 0495 : 1v0000000000000000 1v0000000000000000 1v00000000000000ff 1v00000000000000fd
Frame 0496 : 1v0000000000000000 1v0000000000000000 1v00000000000000fc 1v0000000000000000
Frame 0497 : 1v0000000000000000 1v00000000000000ff 1v0000000000000000 1v0000000000000000
Frame 0498 : 1v00000000000000ff 1v00000000000000f9 1v0000000000000000 1v0000000000000015
Frame 0499 : 1v00000000000000fa 1v0000000000000000 1v0000000000000022 1v0000000000000000
Frame 0500 : 1v0000000000000000 1v0000000000000000 1v0000000000000000 1v00000000000000fe
Frame 0501 : 1v0000000000000000 1v0000000000000011 1v00000000000000fd 1v00000000000000fe
Frame 0502 : 1v0000000000000039 1v0000000000000000 1v00000000000000ff 1v0000000000000000
Frame 0503 : 1v0000000000000000 1v00000000000000fe 1v0000000000000000 1v0000000000000000
Frame 0504 : 1v00000000000000ff 1v00000000000000ff 1v0000000000000000 1v0000000000000000
Frame 0505 : 1v00000000000000fa 1v0000000000000000 1v0000000000000000 1v0000000000000000
Frame 0506 : 1v0000000000000000 1v0000000000000000 1v0000000000000000 1v0000000000000001
Frame 0507 : 1v0000000000000000 1v0000000000000000 1v0000000000000000 1v0000000000000000
Frame 0508 : 1v0000000000000000 1v0000000000000000 1v0000000000000000 1v0000000000000000
Frame 0509 : 1v0000000000000000 1v0000000000000000 1v0000000000000000 1v0000000000000002
Frame 0510 : 1v0000000000000001 1v0000000000000000 1v0000000000000001 1v00000000000000fe
Frame 0511 : 1v0000000000000000 1v0000000000000000 1v00000000000000ff 1v0000000000000000
Frame 0512 : 1v0000000000000000 1v0000000000000000 1v0000000000000000 1v0000000000000000
Frame 0513 : 1v0000000000000001 1v00000000000000ff 1v0000000000000000 1v00000000000000bf
Frame 0514 : 1v00000000000000ff 1v0000000000000000 1v00000000000000e6 1v0000000000000000
Frame 0515 : 1v0000000000000000 1v0000000000000000 1v0000000000000000 1v0000000000000000
Frame 0516 : 1v0000000000000000 1v00000000000000da 1v0000000000000000 1v0000000000000000
Frame 0517 : 1v00000000000000e4 1v0000000000000000 1v0000000000000000 1v0000000000000000
Frame 0518 : 1v0000000000000000 1v0000000000000000 1v0000000000000000 1v0000000000000000
Frame 0519 : 1v0000000000000000 1v0000000000000000 1v0000000000000000 1v00000000000000fe
Frame 0520 : 1v0000000000000000 1v0000000000000000 1v00000000000000ff 1v0000000000000005
Frame 0521 : 1v0000000000000000 1v0000000000000000 1v0000000000000001 1v0000000000000000
Frame 0522 : 1v0000000000000000 1v00000000000000fe 1v0000000000000000 1v0000000000000000
Frame 0523 : 1v00000000000000fe 1v0000000000000002 1v0000000000000000 1v0000000000000000
Frame 0524 : 1v0000000000000005 1v0000000000000000 1v0000000000000000 1v0000000000000000
Frame 0525 : 1v0000000000000000 1v0000000000000000 1v0000000000000000 1v0000000000000000
Frame 0526 : 1v0000000000000000 1v0000000000000000 1v0000000000000000 1v0000000000000000
Frame 0527 : 1v0000000000000000 1v0000000000000000 1v0000000000000000 1v0000000000000000
Frame 0528 : 1v0000000000000000 1v0000000000000000 1v0000000000000000 1v0000000000000000
Frame 0529 : 1v0000000000000000 1v0000000000000000 1v0000000000000000 1v0000000000000000
Frame 0530 : 1v0000000000000000 1v0000000000000000 1v0000000000000000 1v0000000000000000
Frame 0531 : 1v0000000000000000 1v0000000000000000 1v0000000000000000 1v0000000000000000
Frame 0532 : 1v0000000000000000 1v0000000000000000 1v0000000000000000 1v0000000000000000
Frame 0533 : 1v0000000000000000 1v0000000000000000 1v0000000000000000 1v00000000000000fe
Frame 0534 : 1v0000000000000000 1v0000000000000000 1v00000000000000ff 1v0000000000000000
Frame 0535 : 1v0000000000000000 1v0000000000000000 1v0000000000000000 1v0000000000000000
Frame 0536 : 1v0000000000000000 1v00000000000000fe 1v0000000000000000 1v0000000000000000
Frame 0537 : 1v00000000000000ff 1v0000000000000000 1v0000000000000000 1v0000000000000000
Frame 0538 : 1v0000000000000000 1v0000000000000000 1v0000000000000000 1v0000000000000000
Frame 0539 : 1v0000000000000000 1v0000000000000000 1v0000000000000000 1v0000000000000000
Frame 0540 : 1v0000000000000000 1v0000000000000000 1v0000000000000000 1v0000000000000000
Frame 0541 : 1v0000000000000000 1v0000000000000000 1v0000000000000000 1v00000000000000fe
Frame 0542 : 1v0000000000000000 1v0000000000000000 1v00000000000000fe 1v0000000000000000
Frame 0543 : 1v0000000000000000 1v0000000000000000 1v0000000000000000 1v00000000000000fd
Frame 0544 : 1v0000000000000000 1v00000000000000fe 1v00000000000000ff 1v0000000000000002
Frame 0545 : 1v00000000000000ff 1v0000000000000000 1v0000000000000002 1v0000000000000003
Frame 0546 : 1v0000000000000000 1v00000000000000ff 1v0000000000000005 1v0000000000000000
Frame 0547 : 1v00000000000000ff 1v0000000000000001 1v0000000000000000 1v0000000000000000
Frame 0548 : 1v0000000000000001 1v0000000000000007 1v0000000000000000 1v0000000000000000
Frame 0549 : 1v0000000000000004 1v0000000000000000 1v0000000000000000 1v00000000000000fe
Frame 0550 : 1v0000000000000000 1v0000000000000000 1v00000000000000ff 1v0000000000000000
Frame 0551 : 1v0000000000000000 1v0000000000000000 1v0000000000000000 1v00000000000000fe
Frame 0552 : 1v0000000000000000 1v00000000000000ff 1v00000000000000ff 1v0000000000000002
Frame 0553 : 1v00000000000000ff 1v0000000000000000 1v0000000000000001 1v0000000000000000
Frame 0554 : 1v0000000000000000 1v00000000000000ff 1v0000000000000000 1v0000000000000000
Frame 0555 : 1v00000000000000ff 1v0000000000000000 1v0000000000000000 1v0000000000000017
Frame 0556 : 1v0000000000000001 1v0000000000000000 1v0000000000000018 1v0000000000000001
Frame 0557 : 1v0000000000000000 1v0000000000000000 1v0000000000000001 1v0000000000000000
Frame 0558 : 1v0000000000000000 1v0000000000000023 1v0000000000000000 1v0000000000000002
Frame 0559 : 1v0000000000000060 1v0000000000000001 1v0000000000000002 1v0000000000000000
Frame 0560 : 1v0000000000000003 1v0000000000000000 1v0000000000000000 1v0000000000000001
Frame 0561 : 1v0000000000000000 1v0000000000000003 1v0000000000000000 1v0000000000000008
Frame 0562 : 1v0000000000000009 1v0000000000000000 1v000000000000000e 1v00000000000000fe
Frame 0563 : 1v0000000000000000 1v0000000000000000 1v00000000000000ff 1v0000000000000000
Frame 0564 : 1v0000000000000000 1v0000000000000007 1v0000000000000000 1v0000000000000000
Frame 0565 : 1v0000000000000009 1v00000000000000ff 1v0000000000000000 1v0000000000000000
Frame 0566 : 1v00000000000000ff 1v0000000000000000 1v0000000000000000 1v0000000000000000
Frame 0567 : 1v0000000000000000 1v0000000000000000 1v0000000000000000 1v0000000000000066
Frame 0568 : 1v0000000000000000 1v0000000000000000 1v000000000000000a 1v0000000000000000
Frame 0569 : 1v0000000000000000 1v0000000000000000 1v0000000000000000 1v0000000000000000
Frame 0570 : 1v0000000000000000 1v0000000000000005 1v0000000000000000 1v0000000000000000
Frame 0571 : 1v0000000000000009 1v0000000000000000 1v0000000000000000 1v0000000000000000
Frame 0572 : 1v0000000000000000 1v0000000000000000 1v0000000000000000 1v0000000000000000
Frame 0573 : 1v0000000000000000 1v0000000000000000 1v0000000000000000 1v00000000000000fd
Frame 0574 : 1v0000000000000000 1v0000000000000000 1v00000000000000fd 1v0000000000000000
Frame 0575 : 1v0000000000000000 1v0000000000000000 1v0000000000000000 1v0000000000000000
Frame 0576 : 1v0000000000000000 1v00000000000000fe 1v0000000000000000 1v00000000000000fe
Frame 0577 : 1v00000000000000ff 1v0000000000000000 1v00000000000000ff 1v0000000000000000
Frame 0578 : 1v0000000000000000 1v0000000000000000 1v0000000000000000 1v0000000000000001
Frame 0579 : 1v0000000000000000 1v00000000000000ff 1v0000000000000002 1v00000000000000fe
Frame 0580 : 1v00000000000000ff 1v0000000000000000 1v00000000000000ff 1v0000000000000000
Frame 0581 : 1v0000000000000000 1v0000000000000001 1v0000000000000000 1v0000000000000000
Frame 0582 : 1v0000000000000001 1v00000000000000ff 1v0000000000000000 1v0000000000000000
Frame 0583 : 1v00000000000000ff 1v0000000000000000 1v0000000000000000 1v00000000000000fe
Frame 0584 : 1v0000000000000000 1v0000000000000000 1v00000000000000ff 1v0000000000000000
Frame 0585 : 1v0000000000000000 1v0000000000000000 1v0000000000000000 1v0000000000000000
Frame 0586 : 1v0000000000000000 1v00000000000000ff 1v0000000000000000 1v0000000000000000
Frame 0587 : 1v00000000000000ff 1v0000000000000000 1v0000000000000000 1v0000000000000000
Frame 0588 : 1v0000000000000000 1v0000000000000000 1v0000000000000000 1v0000000000000000
Frame 0589 : 1v0000000000000000 1v0000000000000000 1v0000000000000000 1v0000000000000001
Frame 0590 : 1v0000000000000000 1v0000000000000000 1v0000000000000003 1v0000000000000000
Frame 0591 : 1v0000000000000000 1v0000000000000000 1v0000000000000000 1v0000000000000000
Frame 0592 : 1v0000000000000000 1v0000000000000001 1v0000000000000000 1v0000000000000000
Frame 0593 : 1v0000000000000000 1v0000000000000000 1v0000000000000000 1v0000000000000000
Frame 0594 : 1v0000000000000000 1v0000000000000000 1v0000000000000000 1v0000000000000000
Frame 0595 : 1v0000000000000000 1v0000000000000000 1v0000000000000000 1v0000000000000000
Frame 0596 : 1v0000000000000000 1v0000000000000000 1v0000000000000000 1v0000000000000004
Frame 0597 : 1v0000000000000000 1v0000000000000000 1v0000000000000005 1v0000000000000000
Frame 0598 : 1v0000000000000000 1v0000000000000000 1v0000000000000000 1v0000000000000000
Frame 0599 : 1v0000000000000000 1v0000000000000009 1v0000000000000000 1v00000000000000fe
Frame 0600 : 1v0000000000000003 1v0000000000000000 1v00000000000000ff 1v0000000000000000
Frame 0601 : 1v0000000000000000 1v0000000000000000 1v0000000000000000 1v0000000000000097
Frame 0602 : 1v0000000000000000 1v00000000000000ff 1v00000000000000b3 1v00000000000000fe
Frame 0603 : 1v00000000000000ff 1v0000000000000000 1v00000000000000ff 1v0000000000000000
Frame 0604 : 1v0000000000000000 1v00000000000000ad 1v0000000000000000 1v0000000000000000
Frame 0605 : 1v00000000000000d5 1v00000000000000ff 1v0000000000000000 1v00000000000000fd
Frame 0606 : 1v00000000000000ff 1v0000000000000000 1v00000000000000f6 1v0000000000000000
Frame 0607 : 1v0000000000000000 1v0000000000000000 1v0000000000000000 1v0000000000000000
Frame 0608 : 1v0000000000000000 1v00000000000000fc 1v0000000000000000 1v0000000000000000
Frame 0609 : 1v00000000000000fd 1v0000000000000000 1v0000000000000000 1v0000000000000000
Frame 0610 : 1v0000000000000000 1v0000000000000000 1v0000000000000000 1v0000000000000000
Frame 0611 : 1v0000000000000000 1v0000000000000000 1v0000000000000000 1v0000000000000022
Frame 0612 : 1v0000000000000000 1v0000000000000000 1v000000000000001d 1v00000000000000fe
Frame 0613 : 1v0000000000000000 1v0000000000000000 1v00000000000000ff 1v0000000000000000
Frame 0614 : 1v0000000000000000 1v0000000000000022 1v0000000000000000 1v0000000000000000
Frame 0615 : 1v0000000000000015 1v00000000000000ff 1v0000000000000000 1v0000000000000000
Frame 0616 : 1v00000000000000ff 1v0000000000000000 1v0000000000000000 1v0000000000000004
Frame 0617 : 1v0000000000000000 1v0000000000000000 1v0000000000000004 1v0000000000000000
Frame 0618 : 1v0000000000000000 1v0000000000000000 1v0000000000000000 1v0000000000000002
Frame 0619 : 1v0000000000000000 1v0000000000000003 1v0000000000000000 1v0000000000000000
Frame 0620 : 1v0000000000000002 1v0000000000000000 1v0000000000000000 1v0000000000000000
Frame 0621 : 1v0000000000000000 1v0000000000000001 1v0000000000000000 1v0000000000000000
Frame 0622 : 1v0000000000000001 1v0000000000000000 1v0000000000000000 1v0000000000000000
Frame 0623 : 1v0000000000000000 1v0000000000000000 1v0000000000000000 1v0000000000000000
Frame 0624 : 1v0000000000000000 1v0000000000000000 1v0000000000000000 1v0000000000000000
Frame 0625 : 1v0000000000000000 1v0000000000000000 1v0000000000000000 1v0000000000000000
Frame 0626 : 1v0000000000000000 1v0000000000000000 1v0000000000000000 1v0000000000000000
Frame 0627 : 1v0000000000000000 1v0000000000000000 1v0000000000000000 1v000000000000002e
Frame 0628 : 1v0000000000000000 1v0000000000000000 1v000000000000000d 1v0000000000000000
Frame 0629 : 1v0000000000000000 1v0000000000000000 1v0000000000000000 1v0000000000000000
Frame 0630 : 1v0000000000000000 1v000000000000000c 1v0000000000000000 1v0000000000000000
Frame 0631 : 1v0000000000000013 1v0000000000000000 1v0000000000000000 1v0000000000000000
Frame 0632 : 1v0000000000000000 1v0000000000000000 1v0000000000000000 1v0000000000000000
Frame 0633 : 1v0000000000000000 1v0000000000000000 1v0000000000000000 1v0000000000000000
Frame 0634 : 1v0000000000000000 1v0000000000000000 1v0000000000000000 1v00000000000000fc
Frame 0635 : 1v0000000000000000 1v0000000000000000 1v00000000000000fd 1v0000000000000000
Frame 0636 : 1v0000000000000000 1v0000000000000000 1v0000000000000000 1v0000000000000000
Frame 0637 : 1v0000000000000000 1v00000000000000fe 1v0000000000000000 1v0000000000000000
Frame 0638 : 1v00000000000000fd 1v0000000000000000 1v0000000000000000 1v0000000000000013
Frame 0639 : 1v0000000000000000 1v0000000000000000 1v0000000000000002 1v0000000000000000
Frame 0640 : 1v0000000000000000 1v0000000000000000 1v0000000000000000 1v0000000000000000
Frame 0641 : 1v0000000000000000 1v0000000000000002 1v0000000000000000 1v0000000000000000
Frame 0642 : 1v0000000000000008 1v0000000000000000 1v0000000000000000 1v0000000000000000
Frame 0643 : 1v0000000000000000 1v0000000000000000 1v0000000000000000 1v00000000000000fe
Frame 0644 : 1v0000000000000000 1v0000000000000000 1v00000000000000ff 1v0000000000000000
Frame 0645 : 1v0000000000000000 1v0000000000000000 1v0000000000000000 1v0000000000000000
Frame 0646 : 1v0000000000000000 1v00000000000000ff 1v0000000000000000 1v00000000000000fe
Frame 0647 : 1v00000000000000ff 1v0000000000000000 1v00000000000000ff 1v0000000000000000
Frame 0648 : 1v0000000000000000 1v0000000000000000 1v0000000000000000 1v0000000000000002
Frame 0649 : 1v0000000000000000 1v00000000000000ff 1v0000000000000001 1v0000000000000000
Frame 0650 : 1v00000000000000ff 1v0000000000000000 1v0000000000000000 1v0000000000000000
Frame 0651 : 1v0000000000000000 1v0000000000000002 1v0000000000000000 1v0000000000000000
Frame 0652 : 1v0000000000000001 1v0000000000000000 1v0000000000000000 1v00000000000000fd
Frame 0653 : 1v0000000000000000 1v0000000000000000 1v00000000000000ff 1v00000000000000fe
Frame 0654 : 1v0000000000000000 1v0000000000000000 1v00000000000000fd 1v0000000000000000
Frame 0655 : 1v0000000000000000 1v00000000000000ff 1v0000000000000000 1v0000000000000000
Frame 0656 : 1v00000000000000fe 1v00000000000000fe 1v0000000000000000 1v0000000000000000
Frame 0657 : 1v00000000000000fe 1v0000000000000000 1v0000000000000000 1v0000000000000001
Frame 0658 : 1v0000000000000000 1v0000000000000000 1v0000000000000001 1v0000000000000000
Frame 0659 : 1v0000000000000000 1v0000000000000000 1v0000000000000000 1v0000000000000000
Frame 0660 : 1v0000000000000000 1v0000000000000001 1v0000000000000000 1v0000000000000000
Frame 0661 : 1v0000000000000001 1v0000000000000000 1v0000000000000000 1v0000000000000000
Frame 0662 : 1v0000000000000000 1v0000000000000000 1v0000000000000000 1v0000000000000000
Frame 0663 : 1v0000000000000000 1v0000000000000000 1v0000000000000000 1v0000000000000000
Frame 0664 : 1v0000000000000000 1v0000000000000000 1v0000000000000000 1v000000000000001d
Frame 0665 : 1v0000000000000000 1v0000000000000000 1v0000000000000020 1v0000000000000000
Frame 0666 : 1v0000000000000000 1v0000000000000000 1v0000000000000000 1v0000000000000000
Frame 0667 : 1v0000000000000000 1v000000000000000f 1v0000000000000000 1v0000000000000000
Frame 0668 : 1v0000000000000013 1v0000000000000000 1v0000000000000000 1v00000000000000bc
Frame 0669 : 1v0000000000000000 1v0000000000000000 1v000000000000006c 1v0000000000000003
Frame 0670 : 1v0000000000000000 1v0000000000000000 1v0000000000000002 1v0000000000000000
Frame 0671 : 1v0000000000000000 1v0000000000000083 1v0000000000000000 1v0000000000000000
Frame 0672 : 1v00000000000000d5 1v0000000000000004 1v0000000000000000 1v0000000000000000
Frame 0673 : 1v0000000000000001 1v0000000000000000 1v0000000000000000 1v0000000000000000
Frame 0674 : 1v0000000000000000 1v0000000000000000 1v0000000000000000 1v0000000000000001
Frame 0675 : 1v0000000000000000 1v0000000000000000 1v0000000000000000 1v0000000000000000
Frame 0676 : 1v0000000000000000 1v0000000000000000 1v0000000000000000 1v0000000000000000
Frame 0677 : 1v0000000000000000 1v0000000000000000 1v0000000000000000 1v0000000000000000
Frame 0678 : 1v0000000000000000 1v0000000000000000 1v0000000000000000 1v0000000000000000
Frame 0679 : 1v0000000000000000 1v0000000000000000 1v0000000000000000 1v0000000000000000
Frame 0680 : 1v0000000000000000 1v0000000000000000 1v0000000000000000 1v0000000000000000
Frame 0681 : 1v0000000000000000 1v0000000000000000 1v0000000000000000 1v0000000000000000
Frame 0682 : 1v0000000000000000 1v0000000000000000 1v0000000000000000 1v0000000000000000
Frame 0683 : 1v0000000000000000 1v0000000000000000 1v0000000000000000 1v0000000000000000
Frame 0684 : 1v0000000000000000 1v0000000000000000 1v0000000000000000 1v0000000000000000
Frame 0685 : 1v0000000000000000 1v0000000000000000 1v0000000000000000 1v0000000000000000
Frame 0686 : 1v0000000000000000 1v0000000000000000 1v0000000000000000 1v0000000000000000
Frame 0687 : 1v0000000000000000 1v0000000000000000 1v0000000000000000 1v0000000000000060
Frame 0688 : 1v0000000000000000 1v0000000000000000 1v000000000000000d 1v0000000000000000
Frame 0689 : 1v0000000000000000 1v0000000000000000 1v0000000000000000 1v0000000000000000
Frame 0690 : 1v0000000000000000 1v000000000000000b 1v0000000000000000 1v0000000000000000
Frame 0691 : 1v000000000000001e 1v0000000000000000 1v0000000000000000 1v0000000000000001
Frame 0692 : 1v0000000000000000 1v0000000000000000 1v0000000000000000 1v0000000000000000
Frame 0693 : 1v0000000000000000 1v0000000000000000 1v0000000000000000 1v0000000000000000
Frame 0694 : 1v0000000000000000 1v0000000000000001 1v0000000000000000 1v0000000000000000
Frame 0695 : 1v0000000000000000 1v0000000000000000 1v0000000000000000 1v0000000000000000
Frame 0696 : 1v0000000000000000 1v0000000000000001 1v0000000000000000 1v00000000000000fe
Frame 0697 : 1v0000000000000001 1v0000000000000000 1v00000000000000fe 1v0000000000000000
Frame 0698 : 1v0000000000000000 1v0000000000000000 1v0000000000000000 1v0000000000000000
Frame 0699 : 1v0000000000000000 1v00000000000000ff 1v0000000000000000 1v0000000000000000
Frame 0700 : 1v00000000000000ff 1v0000000000000000 1v0000000000000000 1v00000000000000fe
Frame 0701 : 1v0000000000000000 1v0000000000000000 1v00000000000000ff 1v00000000000000fe
Frame 0702 : 1v0000000000000000 1v0000000000000000 1v00000000000000fe 1v0000000000000000
Frame 0703 : 1v0000000000000000 1v00000000000000ff 1v0000000000000000 1v0000000000000000
Frame 0704 : 1v00000000000000ff 1v00000000000000ff 1v0000000000000000 1v0000000000000000
Frame 0705 : 1v00000000000000ff 1v0000000000000000 1v0000000000000000 1v0000000000000000
Frame 0706 : 1v0000000000000000 1v0000000000000000 1v0000000000000000 1v0000000000000000
Frame 0707 : 1v0000000000000000 1v0000000000000000 1v0000000000000000 1v0000000000000000
Frame 0708 : 1v0000000000000000 1v0000000000000000 1v0000000000000000 1v00000000000000fe
Frame 0709 : 1v0000000000000000 1v0000000000000000 1v00000000000000ff 1v0000000000000000
Frame 0710 : 1v0000000000000000 1v0000000000000000 1v0000000000000000 1v0000000000000000
Frame 0711 : 1v0000000000000000 1v00000000000000ff 1v0000000000000000 1v00000000000000c2
Frame 0712 : 1v00000000000000ff 1v0000000000000000 1v00000000000000ef 1v0000000000000000
Frame 0713 : 1v0000000000000000 1v0000000000000000 1v0000000000000000 1v0000000000000000
Frame 0714 : 1v0000000000000000 1v00000000000000f8 1v0000000000000000 1v0000000000000001
Frame 0715 : 1v00000000000000ee 1v0000000000000000 1v0000000000000000 1v0000000000000007
Frame 0716 : 1v0000000000000000 1v0000000000000000 1v0000000000000002 1v00000000000000fe
Frame 0717 : 1v0000000000000000 1v0000000000000000 1v00000000000000fe 1v00000000000000fe
Frame 0718 : 1v0000000000000000 1v0000000000000011 1v00000000000000ff 1v0000000000000000
Frame 0719 : 1v0000000000000006 1v00000000000000ff 1v0000000000000000 1v0000000000000000
Frame 0720 : 1v00000000000000ff 1v00000000000000ff 1v0000000000000000 1v0000000000000000
Frame 0721 : 1v00000000000000ff 1v0000000000000000 1v0000000000000000 1v000000000000007a
Frame 0722 : 1v0000000000000000 1v0000000000000000 1v0000000000000097 1v0000000000000000
Frame 0723 : 1v0000000000000000 1v0000000000000000 1v0000000000000000 1v0000000000000000
Frame 0724 : 1v0000000000000000 1v0000000000000087 1v0000000000000000 1v00000000000000fe
Frame 0725 : 1v0000000000000087 1v0000000000000000 1v00000000000000fe 1v0000000000000000
Frame 0726 : 1v0000000000000000 1v0000000000000000 1v0000000000000000 1v0000000000000001
Frame 0727 : 1v0000000000000000 1v00000000000000fe 1v0000000000000002 1v0000000000000000
Frame 0728 : 1v00000000000000fe 1v0000000000000000 1v0000000000000000 1v0000000000000000
Frame 0729 : 1v0000000000000000 1v0000000000000002 1v0000000000000000 1v0000000000000000
Frame 0730 : 1v0000000000000003 1v0000000000000000 1v0000000000000000 1v0000000000000001
Frame 0731 : 1v0000000000000000 1v0000000000000000 1v0000000000000002 1v0000000000000000
Frame 0732 : 1v0000000000000000 1v0000000000000000 1v0000000000000000 1v0000000000000000
Frame 0733 : 1v0000000000000000 1v0000000000000003 1v0000000000000000 1v0000000000000001
Frame 0734 : 1v0000000000000001 1v0000000000000000 1v0000000000000001 1v0000000000000000
Frame 0735 : 1v0000000000000000 1v0000000000000000 1v0000000000000000 1v0000000000000000
Frame 0736 : 1v0000000000000000 1v0000000000000000 1v0000000000000000 1v0000000000000000
Frame 0737 : 1v0000000000000001 1v0000000000000000 1v0000000000000000 1v00000000000000fe
Frame 0738 : 1v0000000000000000 1v0000000000000000 1v00000000000000ff 1v00000000000000fe
Frame 0739 : 1v0000000000000000 1v0000000000000000 1v00000000000000ff 1v00000000000000fe
Frame 0740 : 1v0000000000000000 1v00000000000000ff 1v00000000000000ff 1v00000000000000fe
Frame 0741 : 1v00000000000000ff 1v00000000000000ff 1v00000000000000ff 1v0000000000000000
Frame 0742 : 1v00000000000000ff 1v00000000000000ff 1v0000000000000000 1v0000000000000000
Frame 0743 : 1v00000000000000ff 1v00000000000000ff 1v0000000000000000 1v0000000000000000
Frame 0744 : 1v00000000000000ff 1v0000000000000000 1v0000000000000000 1v0000000000000053
Frame 0745 : 1v0000000000000000 1v0000000000000000 1v000000000000003a 1v0000000000000000
Frame 0746 : 1v0000000000000000 1v0000000000000000 1v0000000000000000 1v0000000000000000
Frame 0747 : 1v0000000000000000 1v000000000000004b 1v0000000000000000 1v0000000000000001
Frame 0748 : 1v0000000000000039 1v0000000000000000 1v0000000000000001 1v00000000000000fe
Frame 0749 : 1v0000000000000000 1v0000000000000000 1v00000000000000ff 1v0000000000000000
Frame 0750 : 1v0000000000000000 1v0000000000000002 1v0000000000000000 1v0000000000000000
Frame 0751 : 1v0000000000000001 1v00000000000000ff 1v0000000000000000 1v0000000000000000
Frame 0752 : 1v00000000000000ff 1v0000000000000000 1v0000000000000000 1v0000000000000000
Frame 0753 : 1v0000000000000000 1v0000000000000000 1v0000000000000000 1v0000000000000000
Frame 0754 : 1v0000000000000000 1v0000000000000000 1v0000000000000000 1v00000000000000fe
Frame 0755 : 1v0000000000000000 1v0000000000000000 1v00000000000000ff 1v0000000000000000
Frame 0756 : 1v0000000000000000 1v0000000000000000 1v0000000000000000 1v00000000000000fe
Frame 0757 : 1v0000000000000000 1v00000000000000ff 1v00000000000000ff 1v0000000000000000
Frame 0758 : 1v00000000000000ff 1v0000000000000000 1v0000000000000000 1v00000000000000f4
Frame 0759 : 1v0000000000000000 1v00000000000000ff 1v00000000000000f6 1v00000000000000fe
Frame 0760 : 1v00000000000000ff 1v0000000000000000 1v00000000000000ff 1v0000000000000000
Frame 0761 : 1v0000000000000000 1v00000000000000fd 1v0000000000000000 1v0000000000000000
Frame 0762 : 1v00000000000000f2 1v00000000000000ff 1v0000000000000000 1v00000000000000f4
Frame 0763 : 1v00000000000000ff 1v0000000000000000 1v00000000000000e0 1v0000000000000000
Frame 0764 : 1v0000000000000000 1v0000000000000000 1v0000000000000000 1v0000000000000001
Frame 0765 : 1v0000000000000000 1v00000000000000fb 1v0000000000000001 1v0000000000000000
Frame 0766 : 1v00000000000000f2 1v0000000000000000 1v0000000000000000 1v0000000000000000
Frame 0767 : 1v0000000000000000 1v0000000000000000 1v0000000000000000 1v0000000000000000
Frame 0768 : 1v0000000000000000 1v0000000000000000 1v0000000000000000 1v0000000000000000
Frame 0769 : 1v0000000000000000 1v0000000000000000 1v0000000000000000 1v0000000000000000
Frame 0770 : 1v0000000000000000 1v0000000000000000 1v0000000000000000 1v0000000000000000
Frame 0771 : 1v0000000000000000 1v0000000000000000 1v0000000000000000 1v0000000000000000
Frame 0772 : 1v0000000000000000 1v0000000000000000 1v0000000000000000 1v0000000000000000
Frame 0773 : 1v0000000000000000 1v0000000000000000 1v0000000000000000 1v00000000000000fe
Frame 0774 : 1v0000000000000000 1v0000000000000000 1v00000000000000ff 1v0000000000000000
Frame 0775 : 1v0000000000000000 1v0000000000000000 1v0000000000000000 1v0000000000000005
Frame 0776 : 1v0000000000000000 1v00000000000000ff 1v0000000000000004 1v00000000000000fa
Frame 0777 : 1v00000000000000ff 1v0000000000000000 1v00000000000000fe 1v0000000000000000
Frame 0778 : 1v0000000000000000 1v0000000000000002 1v0000000000000000 1v0000000000000000
Frame 0779 : 1v0000000000000005 1v00000000000000fb 1v0000000000000000 1v0000000000000000
Frame 0780 : 1v00000000000000fe 1v0000000000000001 1v0000000000000000 1v00000000000000fd
Frame 0781 : 1v0000000000000000 1v0000000000000000 1v00000000000000fb 1v00000000000000f8
Frame 0782 : 1v0000000000000000 1v0000000000000000 1v00000000000000f7 1v0000000000000001
Frame 0783 : 1v0000000000000000 1v00000000000000fa 1v0000000000000000 1v0000000000000000
Frame 0784 : 1v00000000000000fb 1v00000000000000f2 1v0000000000000000 1v0000000000000000
Frame 0785 : 1v00000000000000fb 1v0000000000000000 1v0000000000000000 1v000000000000001c
Frame 0786 : 1v0000000000000000 1v0000000000000000 1v000000000000000e 1v00000000000000fe
Frame 0787 : 1v0000000000000000 1v0000000000000000 1v00000000000000ff 1v0000000000000000
Frame 0788 : 1v0000000000000000 1v0000000000000006 1v0000000000000000 1v00000000000000d2
Frame 0789 : 1v0000000000000015 1v00000000000000ff 1v00000000000000ea 1v0000000000000000
Frame 0790 : 1v00000000000000ff 1v0000000000000000 1v0000000000000000 1v0000000000000002
Frame 0791 : 1v0000000000000000 1v00000000000000ef 1v0000000000000003 1v00000000000000fe
Frame 0792 : 1v00000000000000f2 1v0000000000000000 1v00000000000000fd 1v0000000000000000
Frame 0793 : 1v0000000000000000 1v0000000000000002 1v0000000000000000 1v00000000000000f0
Frame 0794 : 1v0000000000000002 1v00000000000000ff 1v00000000000000ed 1v0000000000000000
Frame 0795 : 1v00000000000000fe 1v0000000000000000 1v0000000000000000 1v0000000000000000
Frame 0796 : 1v0000000000000000 1v00000000000000f5 1v0000000000000000 1v0000000000000000
Frame 0797 : 1v00000000000000f2 1v0000000000000000 1v0000000000000000 1v00000000000000fe
Frame 0798 : 1v0000000000000000 1v0000000000000000 1v00000000000000ff 1v0000000000000000
Frame 0799 : 1v0000000000000000 1v0000000000000000 1v0000000000000000 1v0000000000000000
Frame 0800 : 1v0000000000000000 1v00000000000000ff 1v0000000000000000 1v0000000000000000
Frame 0801 : 1v00000000000000ff 1v0000000000000000 1v0000000000000000 1v00000000000000fe
Frame 0802 : 1v0000000000000000 1v0000000000000000 1v00000000000000ff 1v0000000000000000
Frame 0803 : 1v0000000000000000 1v0000000000000000 1v0000000000000000 1v0000000000000000
Frame 0804 : 1v0000000000000000 1v00000000000000ff 1v0000000000000000 1v00000000000000fd
Frame 0805 : 1v00000000000000ff 1v0000000000000000 1v00000000000000fe 1v0000000000000000
Frame 0806 : 1v0000000000000000 1v0000000000000000 1v0000000000000000 1v0000000000000000
Frame 0807 : 1v0000000000000000 1v00000000000000fe 1v0000000000000000 1v0000000000000080
Frame 0808 : 1v00000000000000ff 1v0000000000000000 1v00000000000000b3 1v00000000000000f8
Frame 0809 : 1v0000000000000000 1v0000000000000000 1v00000000000000ea 1v0000000000000000
Frame 0810 : 1v0000000000000000 1v00000000000000d4 1v0000000000000000 1v00000000000000fe
Frame 0811 : 1v00000000000000dd 1v00000000000000f8 1v00000000000000ff 1v0000000000000001
Frame 0812 : 1v00000000000000f2 1v0000000000000000 1v0000000000000000 1v0000000000000000
Frame 0813 : 1v0000000000000000 1v00000000000000ff 1v0000000000000000 1v0000000000000004
Frame 0814 : 1v00000000000000ff 1v0000000000000000 1v0000000000000004 1v0000000000000000
Frame 0815 : 1v0000000000000000 1v0000000000000000 1v0000000000000000 1v0000000000000000
Frame 0816 : 1v0000000000000000 1v0000000000000004 1v0000000000000000 1v00000000000000fe
Frame 0817 : 1v0000000000000003 1v0000000000000000 1v00000000000000ff 1v0000000000000000
Frame 0818 : 1v0000000000000000 1v0000000000000000 1v0000000000000000 1v0000000000000000
Frame 0819 : 1v0000000000000000 1v00000000000000ff 1v0000000000000000 1v0000000000000000
Frame 0820 : 1v00000000000000ff 1v0000000000000000 1v0000000000000000 1v0000000000000000
Frame 0821 : 1v0000000000000000 1v0000000000000000 1v0000000000000000 1v00000000000000fe
Frame 0822 : 1v0000000000000000 1v0000000000000000 1v00000000000000fe 1v0000000000000046
Frame 0823 : 1v0000000000000000 1v0000000000000000 1v000000000000007c 1v0000000000000000
Frame 0824 : 1v0000000000000000 1v00000000000000ff 1v0000000000000000 1v0000000000000000
Frame 0825 : 1v00000000000000ff 1v0000000000000080 1v0000000000000000 1v0000000000000000
Frame 0826 : 1v00000000000000a6 1v0000000000000000 1v0000000000000000 1v0000000000000024
Frame 0827 : 1v0000000000000000 1v0000000000000000 1v0000000000000009 1v00000000000000fe
Frame 0828 : 1v0000000000000000 1v0000000000000000 1v00000000000000ff 1v0000000000000000
Frame 0829 : 1v0000000000000000 1v0000000000000015 1v0000000000000000 1v00000000000000fe
Frame 0830 : 1v000000000000000d 1v00000000000000ff 1v00000000000000fe 1v0000000000000000
Frame 0831 : 1v00000000000000ff 1v0000000000000000 1v0000000000000000 1v0000000000000001
Frame 0832 : 1v0000000000000000 1v00000000000000ff 1v0000000000000000 1v0000000000000000
Frame 0833 : 1v00000000000000ff 1v0000000000000000 1v0000000000000000 1v0000000000000000
Frame 0834 : 1v0000000000000000 1v0000000000000000 1v0000000000000000 1v0000000000000000
Frame 0835 : 1v0000000000000000 1v0000000000000000 1v0000000000000000 1v0000000000000000
Frame 0836 : 1v0000000000000000 1v0000000000000000 1v0000000000000000 1v0000000000000000
Frame 0837 : 1v0000000000000000 1v0000000000000000 1v0000000000000000 1v00000000000000fe
Frame 0838 : 1v0000000000000000 1v0000000000000000 1v00000000000000ff 1v0000000000000000
Frame 0839 : 1v0000000000000000 1v0000000000000000 1v0000000000000000 1v0000000000000000
Frame 0840 : 1v0000000000000000 1v00000000000000ff 1v0000000000000000 1v0000000000000000
Frame 0841 : 1v00000000000000ff 1v0000000000000000 1v0000000000000000 1v0000000000000000
Frame 0842 : 1v0000000000000000 1v0000000000000000 1v0000000000000000 1v0000000000000001
Frame 0843 : 1v0000000000000000 1v0000000000000000 1v0000000000000001 1v0000000000000000
Frame 0844 : 1v0000000000000000 1v0000000000000000 1v0000000000000000 1v0000000000000000
Frame 0845 : 1v0000000000000000 1v0000000000000002 1v0000000000000000 1v0000000000000000
Frame 0846 : 1v0000000000000000 1v0000000000000000 1v0000000000000000 1v0000000000000000
Frame 0847 : 1v0000000000000000 1v0000000000000000 1v0000000000000000 1v0000000000000001
Frame 0848 : 1v0000000000000000 1v0000000000000000 1v0000000000000000 1v0000000000000000
Frame 0849 : 1v0000000000000000 1v0000000000000000 1v0000000000000000 1v00000000000000fe
Frame 0850 : 1v0000000000000000 1v0000000000000001 1v00000000000000ff 1v0000000000000000
Frame 0851 : 1v0000000000000000 1v0000000000000000 1v0000000000000000 1v0000000000000000
Frame 0852 : 1v0000000000000000 1v00000000000000ff 1v0000000000000000 1v0000000000000000
Frame 0853 : 1v00000000000000ff 1v0000000000000000 1v0000000000000000 1v0000000000000000
Frame 0854 : 1v0000000000000000 1v0000000000000000 1v0000000000000000 1v0000000000000000
Frame 0855 : 1v0000000000000000 1v0000000000000000 1v0000000000000000 1v00000000000000df
Frame 0856 : 1v0000000000000000 1v0000000000000000 1v00000000000000e2 1v0000000000000000
Frame 0857 : 1v0000000000000000 1v0000000000000000 1v0000000000000000 1v0000000000000000
Frame 0858 : 1v0000000000000000 1v00000000000000e5 1v0000000000000000 1v0000000000000000
Frame 0859 : 1v00000000000000ee 1v0000000000000000 1v0000000000000000 1v0000000000000000
Frame 0860 : 1v0000000000000000 1v0000000000000000 1v0000000000000000 1v0000000000000000
Frame 0861 : 1v0000000000000000 1v0000000000000000 1v0000000000000000 1v00000000000000fe
Frame 0862 : 1v0000000000000000 1v0000000000000000 1v00000000000000fe 1v0000000000000000
Frame 0863 : 1v0000000000000000 1v0000000000000000 1v0000000000000000 1v0000000000000000
Frame 0864 : 1v0000000000000000 1v00000000000000ff 1v0000000000000000 1v0000000000000000
Frame 0865 : 1v00000000000000ff 1v0000000000000000 1v0000000000000000 1v00000000000000fe
Frame 0866 : 1v0000000000000000 1v0000000000000000 1v00000000000000ff 1v0000000000000000
Frame 0867 : 1v0000000000000000 1v0000000000000000 1v0000000000000000 1v0000000000000000
Frame 0868 : 1v0000000000000000 1v00000000000000ff 1v0000000000000000 1v0000000000000000
Frame 0869 : 1v00000000000000ff 1v0000000000000000 1v0000000000000000 1v0000000000000000
Frame 0870 : 1v0000000000000000 1v0000000000000000 1v0000000000000000 1v0000000000000000
Frame 0871 : 1v0000000000000000 1v0000000000000000 1v0000000000000000 1v0000000000000000
Frame 0872 : 1v0000000000000000 1v0000000000000000 1v0000000000000000 1v0000000000000003
Frame 0873 : 1v0000000000000000 1v0000000000000000 1v0000000000000005 1v0000000000000000
Frame 0874 : 1v0000000000000000 1v0000000000000000 1v0000000000000000 1v0000000000000003
Frame 0875 : 1v0000000000000000 1v0000000000000002 1v0000000000000003 1v00000000000000fa
Frame 0876 : 1v0000000000000000 1v0000000000000000 1v00000000000000fc 1v0000000000000000
Frame 0877 : 1v0000000000000000 1v0000000000000002 1v0000000000000000 1v0000000000000000
Frame 0878 : 1v0000000000000006 1v00000000000000fe 1v0000000000000000 1v0000000000000000
Frame 0879 : 1v00000000000000fe 1v0000000000000000 1v0000000000000000 1v0000000000000000
Frame 0880 : 1v0000000000000000 1v0000000000000000 1v0000000000000000 1v00000000000000fe
Frame 0881 : 1v0000000000000000 1v0000000000000000 1v00000000000000ff 1v0000000000000000
Frame 0882 : 1v0000000000000000 1v0000000000000000 1v0000000000000000 1v0000000000000000
Frame 0883 : 1v0000000000000000 1v00000000000000ff 1v0000000000000000 1v0000000000000000
Frame 0884 : 1v00000000000000ff 1v0000000000000000 1v0000000000000000 1v00000000000000fe
Frame 0885 : 1v0000000000000000 1v0000000000000000 1v00000000000000ff 1v0000000000000000
Frame 0886 : 1v0000000000000000 1v0000000000000000 1v0000000000000001 1v00000000000000fe
Frame 0887 : 1v0000000000000000 1v00000000000000ff 1v00000000000000ff 1v0000000000000000
Frame 0888 : 1v00000000000000ff 1v0000000000000002 1v0000000000000000 1v0000000000000000
Frame 0889 : 1v0000000000000001 1v00000000000000ff 1v0000000000000000 1v0000000000000000
Frame 0890 : 1v00000000000000ff 1v0000000000000000 1v0000000000000000 1v00000000000000fa
Frame 0891 : 1v0000000000000000 1v0000000000000000 1v00000000000000fa 1v0000000000000000
Frame 0892 : 1v0000000000000000 1v0000000000000000 1v0000000000000000 1v00000000000000fe
Frame 0893 : 1v0000000000000000 1v00000000000000fd 1v00000000000000ff 1v0000000000000000
Frame 0894 : 1v00000000000000fe 1v0000000000000000 1v0000000000000000 1v0000000000000000
Frame 0895 : 1v0000000000000000 1v00000000000000ff 1v0000000000000000 1v0000000000000000
Frame 0896 : 1v00000000000000ff 1v0000000000000000 1v0000000000000000 1v0000000000000000
Frame 0897 : 1v0000000000000000 1v0000000000000000 1v0000000000000000 1v0000000000000000
Frame 0898 : 1v0000000000000000 1v0000000000000000 1v0000000000000000 1v0000000000000000
Frame 0899 : 1v0000000000000000 1v0000000000000000 1v0000000000000000 1v0000000000000000
Frame 0900 : 1v0000000000000000 1v0000000000000000 1v0000000000000000 1v0000000000000000
Frame 0901 : 1v0000000000000000 1v0000000000000000 1v0000000000000000 1v0000000000000000
Frame 0902 : 1v0000000000000000 1v0000000000000000 1v0000000000000000 1v0000000000000000
Frame 0903 : 1v0000000000000000 1v0000000000000000 1v0000000000000000 1v0000000000000000
Frame 0904 : 1v0000000000000000 1v0000000000000000 1v0000000000000000 1v0000000000000000
Frame 0905 : 1v0000000000000000 1v0000000000000000 1v0000000000000000 1v0000000000000000
Frame 0906 : 1v0000000000000000 1v0000000000000000 1v0000000000000000 1v0000000000000000
Frame 0907 : 1v0000000000000000 1v0000000000000000 1v0000000000000000 1v0000000000000000
Frame 0908 : 1v0000000000000000 1v0000000000000000 1v0000000000000000 1v0000000000000000
Frame 0909 : 1v0000000000000000 1v0000000000000000 1v0000000000000000 1v0000000000000003
Frame 0910 : 1v0000000000000000 1v0000000000000000 1v0000000000000002 1v0000000000000000
Frame 0911 : 1v0000000000000000 1v0000000000000000 1v0000000000000000 1v0000000000000000
Frame 0912 : 1v0000000000000000 1v0000000000000005 1v0000000000000001 1v0000000000000000
Frame 0913 : 1v0000000000000001 1v0000000000000000 1v0000000000000000 1v0000000000000000
Frame 0914 : 1v0000000000000000 1v0000000000000000 1v0000000000000000 1v0000000000000001
Frame 0915 : 1v0000000000000000 1v0000000000000000 1v0000000000000001 1v0000000000000000
Frame 0916 : 1v0000000000000000 1v0000000000000000 1v0000000000000000 1v0000000000000000
Frame 0917 : 1v0000000000000000 1v0000000000000000 1v0000000000000000 1v0000000000000000
Frame 0918 : 1v0000000000000000 1v0000000000000000 1v0000000000000000 1v00000000000000fe
Frame 0919 : 1v0000000000000000 1v0000000000000000 1v00000000000000fe 1v0000000000000080
Frame 0920 : 1v0000000000000000 1v0000000000000000 1v0000000000000078 1v0000000000000000
Frame 0921 : 1v0000000000000000 1v00000000000000ff 1v0000000000000000 1v0000000000000000
Frame 0922 : 1v00000000000000fd 1v0000000000000099 1v0000000000000000 1v00000000000000fe
Frame 0923 : 1v0000000000000060 1v0000000000000000 1v00000000000000fe 1v0000000000000000
Frame 0924 : 1v0000000000000000 1v0000000000000000 1v0000000000000000 1v0000000000000000
Frame 0925 : 1v0000000000000000 1v00000000000000fe 1v0000000000000000 1v00000000000000c2
Frame 0926 : 1v00000000000000ff 1v0000000000000000 1v00000000000000ea 0v00000000000000c2
Frame 0927 : 1v0000000000000000 1v0000000000000000 0v00000000000000ea 0v00000000000000c2
Frame 0928 : 1v0000000000000000 1v00000000000000f6 0v00000000000000ea 0v00000000000000c2
Frame 0929 : 1v00000000000000f2 0v00000000000000f6 0v00000000000000ea 0v00000000000000c2
Frame 0930 : 0v00000000000000f2 0v00000000000000f6 0v00000000000000ea 0v00000000000000c2
Frame 0931 : 0v00000000000000f2 0v00000000000000f6 0v00000000000000ea 0v00000000000000c2
Frame 0932 : 0v00000000000000f2 0v00000000000000f6 0v00000000000000ea 0v00000000000000c2
Frame 0933 : 0v00000000000000f2 0v00000000000000f6 0v00000000000000ea 0v00000000000000c2
Frame 0934 : 0v00000000000000f2 0v00000000000000f6 0v00000000000000ea 0v00000000000000c2
Frame 0935 : 0v00000000000000f2 0v00000000000000f6 0v00000000000000ea 0v00000000000000c2
Frame 0936 : 0v00000000000000f2 0v00000000000000f6 0v00000000000000ea 0v00000000000000c2
Frame 0937 : 0v00000000000000f2 0v00000000000000f6 0v00000000000000ea 0v00000000000000c2
Frame 0938 : 0v00000000000000f2 0v00000000000000f6 0v00000000000000ea 0v00000000000000c2
Frame 0939 : 0v00000000000000f2 0v00000000000000f6 0v00000000000000ea 0v00000000000000c2
Frame 0940 : 0v00000000000000f2 0v00000000000000f6 0v00000000000000ea 0v00000000000000c2
Frame 0941 : 0v00000000000000f2 0v00000000000000f6 0v00000000000000ea 0v00000000000000c2
Frame 0942 : 0v00000000000000f2 0v00000000000000f6 0v00000000000000ea 0v00000000000000c2
Frame 0943 : 0v00000000000000f2 0v00000000000000f6 0v00000000000000ea 0v00000000000000c2
Frame 0944 : 0v00000000000000f2 0v00000000000000f6 0v00000000000000ea 0v00000000000000c2
Frame 0945 : 0v00000000000000f2 0v00000000000000f6 0v00000000000000ea 0v00000000000000c2
Frame 0946 : 0v00000000000000f2 0v00000000000000f6 0v00000000000000ea 0v00000000000000c2
Frame 0947 : 0v00000000000000f2 0v00000000000000f6 0v00000000000000ea 0v00000000000000c2
Frame 0948 : 0v00000000000000f2 0v00000000000000f6 0v00000000000000ea 0v00000000000000c2
Frame 0949 : 0v00000000000000f2 0v00000000000000f6 0v00000000000000ea 0v00000000000000c2
Frame 0950 : 0v00000000000000f2 0v00000000000000f6 0v00000000000000ea 0v00000000000000c2
Frame 0951 : 0v00000000000000f2 0v00000000000000f6 0v00000000000000ea 0v00000000000000c2
Frame 0952 : 0v00000000000000f2 0v00000000000000f6 0v00000000000000ea 0v00000000000000c2
Frame 0953 : 0v00000000000000f2 0v00000000000000f6 0v00000000000000ea 0v00000000000000c2
Frame 0954 : 0v00000000000000f2 0v00000000000000f6 0v00000000000000ea 0v00000000000000c2
Frame 0955 : 0v00000000000000f2 0v00000000000000f6 0v00000000000000ea 0v00000000000000c2
Frame 0956 : 0v00000000000000f2 0v00000000000000f6 0v00000000000000ea 0v00000000000000c2
Frame 0957 : 0v00000000000000f2 0v00000000000000f6 0v00000000000000ea 0v00000000000000c2
Frame 0958 : 0v00000000000000f2 0v00000000000000f6 0v00000000000000ea 0v00000000000000c2
Frame 0959 : 0v00000000000000f2 0v00000000000000f6 0v00000000000000ea 0v00000000000000c2
Frame 0960 : 0v00000000000000f2 0v00000000000000f6 0v00000000000000ea 0v00000000000000c2
Frame 0961 : 0v00000000000000f2 0v00000000000000f6 0v00000000000000ea 0v00000000000000c2
Frame 0962 : 0v00000000000000f2 0v00000000000000f6 0v00000000000000ea 0v00000000000000c2
Frame 0963 : 0v00000000000000f2 0v00000000000000f6 0v00000000000000ea 0v00000000000000c2
Frame 0964 : 0v00000000000000f2 0v00000000000000f6 0v00000000000000ea 0v00000000000000c2
Frame 0965 : 0v00000000000000f2 0v00000000000000f6 0v00000000000000ea 0v00000000000000c2
Frame 0966 : 0v00000000000000f2 0v00000000000000f6 0v00000000000000ea 0v00000000000000c2
Frame 0967 : 0v00000000000000f2 0v00000000000000f6 0v00000000000000ea 0v00000000000000c2
Frame 0968 : 0v00000000000000f2 0v00000000000000f6 0v00000000000000ea 0v00000000000000c2
Frame 0969 : 0v00000000000000f2 0v00000000000000f6 0v00000000000000ea 0v00000000000000c2
Frame 0970 : 0v00000000000000f2 0v00000000000000f6 0v00000000000000ea 0v00000000000000c2
Frame 0971 : 0v00000000000000f2 0v00000000000000f6 0v00000000000000ea 0v00000000000000c2
Frame 0972 : 0v00000000000000f2 0v00000000000000f6 0v00000000000000ea 0v00000000000000c2
Frame 0973 : 0v00000000000000f2 0v00000000000000f6 0v00000000000000ea 0v00000000000000c2
Frame 0974 : 0v00000000000000f2 0v00000000000000f6 0v00000000000000ea 0v00000000000000c2
Frame 0975 : 0v00000000000000f2 0v00000000000000f6 0v00000000000000ea 0v00000000000000c2
Frame 0976 : 0v00000000000000f2 0v00000000000000f6 0v00000000000000ea 0v00000000000000c2
Frame 0977 : 0v00000000000000f2 0v00000000000000f6 0v00000000000000ea 0v00000000000000c2
Frame 0978 : 0v00000000000000f2 0v00000000000000f6 0v00000000000000ea 0v00000000000000c2
Frame 0979 : 0v00000000000000f2 0v00000000000000f6 0v00000000000000ea 0v00000000000000c2
Frame 0980 : 0v00000000000000f2 0v00000000000000f6 0v00000000000000ea 0v00000000000000c2
Frame 0981 : 0v00000000000000f2 0v00000000000000f6 0v00000000000000ea 0v00000000000000c2
Frame 0982 : 0v00000000000000f2 0v00000000000000f6 0v00000000000000ea 0v00000000000000c2
Frame 0983 : 0v00000000000000f2 0v00000000000000f6 0v00000000000000ea 0v00000000000000c2
Frame 0984 : 0v00000000000000f2 0v00000000000000f6 0v00000000000000ea 0v00000000000000c2
Frame 0985 : 0v00000000000000f2 0v00000000000000f6 0v00000000000000ea 0v00000000000000c2
Frame 0986 : 0v00000000000000f2 0v00000000000000f6 0v00000000000000ea 0v00000000000000c2
Frame 0987 : 0v00000000000000f2 0v00000000000000f6 0v00000000000000ea 0v00000000000000c2
Frame 0988 : 0v00000000000000f2 0v00000000000000f6 0v00000000000000ea 0v00000000000000c2
Frame 0989 : 0v00000000000000f2 0v00000000000000f6 0v00000000000000ea 0v00000000000000c2
Frame 0990 : 0v00000000000000f2 0v00000000000000f6 0v00000000000000ea 0v00000000000000c2
Frame 0991 : 0v00000000000000f2 0v00000000000000f6 0v00000000000000ea 0v00000000000000c2
Frame 0992 : 0v00000000000000f2 0v00000000000000f6 0v00000000000000ea 0v00000000000000c2
Frame 0993 : 0v00000000000000f2 0v00000000000000f6 0v00000000000000ea 0v00000000000000c2
Frame 0994 : 0v00000000000000f2 0v00000000000000f6 0v00000000000000ea 0v00000000000000c2
Frame 0995 : 0v00000000000000f2 0v00000000000000f6 0v00000000000000ea 0v00000000000000c2
Frame 0996 : 0v00000000000000f2 0v00000000000000f6 0v00000000000000ea 0v00000000000000c2
Frame 0997 : 0v00000000000000f2 0v00000000000000f6 0v00000000000000ea 0v00000000000000c2
Frame 0998 : 0v00000000000000f2 0v00000000000000f6 0v00000000000000ea 0v00000000000000c2
Frame 0999 : 0v00000000000000f2 0v00000000000000f6 0v00000000000000ea 0v00000000000000c2
Frame 1000 : 0v00000000000000f2 0v00000000000000f6 0v00000000000000ea 0v00000000000000c2
Frame 1001 : 0v00000000000000f2 0v00000000000000f6 0v00000000000000ea 0v00000000000000c2
Frame 1002 : 0v00000000000000f2 0v00000000000000f6 0v00000000000000ea 0v00000000000000c2
Frame 1003 : 0v00000000000000f2 0v00000000000000f6 0v00000000000000ea 0v00000000000000c2
Frame 1004 : 0v00000000000000f2 0v00000000000000f6 0v00000000000000ea 0v00000000000000c2
Frame 1005 : 0v00000000000000f2 0v00000000000000f6 0v00000000000000ea 0v00000000000000c2
Frame 1006 : 0v00000000000000f2 0v00000000000000f6 0v00000000000000ea 0v00000000000000c2
Frame 1007 : 0v00000000000000f2 0v00000000000000f6 0v00000000000000ea 0v00000000000000c2
Frame 1008 : 0v00000000000000f2 0v00000000000000f6 0v00000000000000ea 0v00000000000000c2
Frame 1009 : 0v00000000000000f2 0v00000000000000f6 0v00000000000000ea 0v00000000000000c2
Frame 1010 : 0v00000000000000f2 0v00000000000000f6 0v00000000000000ea 0v00000000000000c2
Frame 1011 : 0v00000000000000f2 0v00000000000000f6 0v00000000000000ea 0v00000000000000c2
Frame 1012 : 0v00000000000000f2 0v00000000000000f6 0v00000000000000ea 0v00000000000000c2
Frame 1013 : 0v00000000000000f2 0v00000000000000f6 0v00000000000000ea 0v00000000000000c2
Frame 1014 : 0v00000000000000f2 0v00000000000000f6 0v00000000000000ea 0v00000000000000c2
Frame 1015 : 0v00000000000000f2 0v00000000000000f6 0v00000000000000ea 0v00000000000000c2
Frame 1016 : 0v00000000000000f2 0v00000000000000f6 0v00000000000000ea 0v00000000000000c2
Frame 1017 : 0v00000000000000f2 0v00000000000000f6 0v00000000000000ea 0v00000000000000c2
Frame 1018 : 0v00000000000000f2 0v00000000000000f6 0v00000000000000ea 0v00000000000000c2
Frame 1019 : 0v00000000000000f2 0v00000000000000f6 0v00000000000000ea 0v00000000000000c2
Frame 1020 : 0v00000000000000f2 0v00000000000000f6 0v00000000000000ea 0v00000000000000c2
Frame 1021 : 0v00000000000000f2 0v00000000000000f6 0v00000000000000ea 0v00000000000000c2
Frame 1022 : 0v00000000000000f2 0v00000000000000f6 0v00000000000000ea 0v00000000000000c2
Frame 1023 : 0v00000000000000f2 0v00000000000000f6 0v00000000000000ea 0v00000000000000c2
