#-----------------------------------------------------------
# Vivado v2020.1 (64-bit)
# SW Build 2902540 on Wed May 27 19:54:35 MDT 2020
# IP Build 2902112 on Wed May 27 22:43:36 MDT 2020
# Start of session at: Sat May 14 23:13:42 2022
# Process ID: 15389
# Current directory: /home/gabriele/cernbox/SWAN_projects/Binary_NN/projects/binary/2_layers_1ele_sigmoid
# Command line: vivado -mode batch -source design.tcl
# Log file: /home/gabriele/cernbox/SWAN_projects/Binary_NN/projects/binary/2_layers_1ele_sigmoid/vivado.log
# Journal file: /home/gabriele/cernbox/SWAN_projects/Binary_NN/projects/binary/2_layers_1ele_sigmoid/vivado.jou
#-----------------------------------------------------------
source design.tcl
# set tcldir [file dirname [info script]]
# source [file join $tcldir project.tcl]
## variable myproject
## set myproject "myproject"
## set bit_width_hls_output 32
## set bit_width_hls_input 32
# create_project project_1 ${myproject}_vivado_accelerator -part xcu50-fsvh2104-2-e -force
# set_property  ip_repo_paths  ${myproject}_prj [current_project]
# update_ip_catalog
INFO: [IP_Flow 19-234] Refreshing IP repositories
INFO: [IP_Flow 19-1700] Loaded user IP repository '/home/gabriele/cernbox/SWAN_projects/Binary_NN/projects/binary/2_layers_1ele_sigmoid/myproject_prj'.
INFO: [IP_Flow 19-2313] Loaded Vivado IP repository '/tools/Xilinx/Vivado/2020.1/data/ip'.
# add_files -scan_for_includes {src/krnl_rtl_int.sv src/krnl_rtl_axi_read_master.sv src/krnl_rtl_counter.sv src/myproject_kernel.v src/krnl_rtl_axi_write_master.sv src/krnl_rtl_control_s_axi.v}
# import_files {src/krnl_rtl_int.sv src/krnl_rtl_axi_read_master.sv src/krnl_rtl_counter.sv src/myproject_kernel.v src/krnl_rtl_axi_write_master.sv src/krnl_rtl_control_s_axi.v}
# create_ip -vlnv xilinx.com:hls:${myproject}_axi:1.0 -module_name ${myproject}_axi_0
# ipx::package_project -root_dir hls4ml_IP -vendor fastmachinelearning.org -library hls4ml -taxonomy /UserIP -import_files -set_current false
WARNING: [IP_Flow 19-5101] Packaging a component with a SystemVerilog top file is not fully supported. Please refer to UG1118 'Creating and Packaging Custom IP'.
INFO: [IP_Flow 19-5107] Inferred bus interface 'm_axi_gmem' of definition 'xilinx.com:interface:aximm:1.0' (from Xilinx Repository).
INFO: [IP_Flow 19-5107] Inferred bus interface 's_axi_control' of definition 'xilinx.com:interface:aximm:1.0' (from Xilinx Repository).
INFO: [IP_Flow 19-5107] Inferred bus interface 'ap_rst_n' of definition 'xilinx.com:signal:reset:1.0' (from Xilinx Repository).
INFO: [IP_Flow 19-5107] Inferred bus interface 'ap_clk' of definition 'xilinx.com:signal:clock:1.0' (from Xilinx Repository).
INFO: [IP_Flow 19-5107] Inferred bus interface 'interrupt' of definition 'xilinx.com:signal:interrupt:1.0' (from Xilinx Repository).
INFO: [IP_Flow 19-4728] Bus Interface 'ap_rst_n': Added interface parameter 'POLARITY' with value 'ACTIVE_LOW'.
INFO: [IP_Flow 19-4728] Bus Interface 'interrupt': Added interface parameter 'SENSITIVITY' with value 'LEVEL_HIGH'.
INFO: [IP_Flow 19-4728] Bus Interface 'ap_clk': Added interface parameter 'ASSOCIATED_RESET' with value 'ap_rst_n'.
WARNING: [IP_Flow 19-3158] Bus Interface 'm_axi_gmem': FREQ_HZ bus parameter missing from AXI interface when interface is not associated to a clock.
WARNING: [IP_Flow 19-3158] Bus Interface 's_axi_control': FREQ_HZ bus parameter missing from AXI interface when interface is not associated to a clock.
WARNING: [IP_Flow 19-3157] Bus Interface 'ap_rst_n': Bus parameter POLARITY is ACTIVE_LOW but port 'ap_rst_n' is not *resetn - please double check the POLARITY setting.
WARNING: [IP_Flow 19-5661] Bus Interface 'ap_clk' does not have any bus interfaces associated with it.
INFO: [IP_Flow 19-2181] Payment Required is not set for this core.
INFO: [IP_Flow 19-2187] The Product Guide file is missing.
# ipx::unload_core hls4ml_IP/component.xml
# ipx::edit_ip_in_project -upgrade true -name tmp_edit_project -directory hls4ml_IP hls4ml_IP/component.xml
INFO: [IP_Flow 19-234] Refreshing IP repositories
INFO: [IP_Flow 19-1700] Loaded user IP repository '/home/gabriele/cernbox/SWAN_projects/Binary_NN/projects/binary/2_layers_1ele_sigmoid/myproject_prj'.
INFO: [IP_Flow 19-2313] Loaded Vivado IP repository '/tools/Xilinx/Vivado/2020.1/data/ip'.
INFO: [IP_Flow 19-795] Syncing license key meta-data
WARNING: [filemgmt 56-99] Vivado Synthesis ignores library specification for Verilog or SystemVerilog files. [/home/gabriele/cernbox/SWAN_projects/Binary_NN/projects/binary/2_layers_1ele_sigmoid/hls4ml_IP/src/krnl_rtl_control_s_axi.v:]
WARNING: [filemgmt 56-99] Vivado Synthesis ignores library specification for Verilog or SystemVerilog files. [/home/gabriele/cernbox/SWAN_projects/Binary_NN/projects/binary/2_layers_1ele_sigmoid/hls4ml_IP/src/myproject_kernel.v:]
WARNING: [filemgmt 56-99] Vivado Synthesis ignores library specification for Verilog or SystemVerilog files. [/home/gabriele/cernbox/SWAN_projects/Binary_NN/projects/binary/2_layers_1ele_sigmoid/hls4ml_IP/src/krnl_rtl_axi_read_master.sv:]
WARNING: [filemgmt 56-99] Vivado Synthesis ignores library specification for Verilog or SystemVerilog files. [/home/gabriele/cernbox/SWAN_projects/Binary_NN/projects/binary/2_layers_1ele_sigmoid/hls4ml_IP/src/krnl_rtl_axi_write_master.sv:]
WARNING: [filemgmt 56-99] Vivado Synthesis ignores library specification for Verilog or SystemVerilog files. [/home/gabriele/cernbox/SWAN_projects/Binary_NN/projects/binary/2_layers_1ele_sigmoid/hls4ml_IP/src/krnl_rtl_counter.sv:]
WARNING: [filemgmt 56-99] Vivado Synthesis ignores library specification for Verilog or SystemVerilog files. [/home/gabriele/cernbox/SWAN_projects/Binary_NN/projects/binary/2_layers_1ele_sigmoid/hls4ml_IP/src/krnl_rtl_int.sv:]
# ipx::associate_bus_interfaces -busif m_axi_gmem -clock ap_clk [ipx::current_core]
INFO: [IP_Flow 19-4728] Bus Interface 'ap_clk': Added interface parameter 'ASSOCIATED_BUSIF' with value 'm_axi_gmem'.
# ipx::associate_bus_interfaces -busif s_axi_control -clock ap_clk [ipx::current_core]
# ipx::add_bus_parameter FREQ_HZ [ipx::get_bus_interfaces ap_clk -of_objects [ipx::current_core]]
# set_property value_resolve_type user [ipx::get_bus_parameters -of [::ipx::get_bus_interfaces -of [ipx::current_core] *clk*] "FREQ_HZ"]
# ipx::add_register CTRL [ipx::get_address_blocks reg0 -of_objects [ipx::get_memory_maps s_axi_control -of_objects [ipx::current_core]]]
# ipx::add_register GIER [ipx::get_address_blocks reg0 -of_objects [ipx::get_memory_maps s_axi_control -of_objects [ipx::current_core]]]
# ipx::add_register IP_IER [ipx::get_address_blocks reg0 -of_objects [ipx::get_memory_maps s_axi_control -of_objects [ipx::current_core]]]
# ipx::add_register IP_ISR [ipx::get_address_blocks reg0 -of_objects [ipx::get_memory_maps s_axi_control -of_objects [ipx::current_core]]]
# ipx::add_register fifo_in [ipx::get_address_blocks reg0 -of_objects [ipx::get_memory_maps s_axi_control -of_objects [ipx::current_core]]]
# ipx::add_register fifo_out [ipx::get_address_blocks reg0 -of_objects [ipx::get_memory_maps s_axi_control -of_objects [ipx::current_core]]]
# ipx::add_register length_r_in [ipx::get_address_blocks reg0 -of_objects [ipx::get_memory_maps s_axi_control -of_objects [ipx::current_core]]]
# ipx::add_register length_r_out [ipx::get_address_blocks reg0 -of_objects [ipx::get_memory_maps s_axi_control -of_objects [ipx::current_core]]]
# set_property Description "Control Signals" [ipx::get_registers CTRL -of_objects [ipx::get_address_blocks reg0 -of_objects [ipx::get_memory_maps s_axi_control -of_objects [ipx::current_core]]]]
# set_property Address_Offset 0x000 [ipx::get_registers CTRL -of_objects [ipx::get_address_blocks reg0 -of_objects [ipx::get_memory_maps s_axi_control -of_objects [ipx::current_core]]]]
# set_property Size 32 [ipx::get_registers CTRL -of_objects [ipx::get_address_blocks reg0 -of_objects [ipx::get_memory_maps s_axi_control -of_objects [ipx::current_core]]]]
# set_property Description "Global Interrupt Enable Register" [ipx::get_registers GIER -of_objects [ipx::get_address_blocks reg0 -of_objects [ipx::get_memory_maps s_axi_control -of_objects [ipx::current_core]]]]
# set_property Address_Offset 0x004 [ipx::get_registers GIER -of_objects [ipx::get_address_blocks reg0 -of_objects [ipx::get_memory_maps s_axi_control -of_objects [ipx::current_core]]]]
# set_property Size 32 [ipx::get_registers GIER -of_objects [ipx::get_address_blocks reg0 -of_objects [ipx::get_memory_maps s_axi_control -of_objects [ipx::current_core]]]]
# set_property Description "IP Interrupt Enable Register" [ipx::get_registers IP_IER -of_objects [ipx::get_address_blocks reg0 -of_objects [ipx::get_memory_maps s_axi_control -of_objects [ipx::current_core]]]]
# set_property Address_Offset 0x008 [ipx::get_registers IP_IER -of_objects [ipx::get_address_blocks reg0 -of_objects [ipx::get_memory_maps s_axi_control -of_objects [ipx::current_core]]]]
# set_property Size 32 [ipx::get_registers IP_IER -of_objects [ipx::get_address_blocks reg0 -of_objects [ipx::get_memory_maps s_axi_control -of_objects [ipx::current_core]]]]
# set_property Description "IP Interrupt Status Register" [ipx::get_registers IP_ISR -of_objects [ipx::get_address_blocks reg0 -of_objects [ipx::get_memory_maps s_axi_control -of_objects [ipx::current_core]]]]
# set_property Address_Offset 0x00C [ipx::get_registers IP_ISR -of_objects [ipx::get_address_blocks reg0 -of_objects [ipx::get_memory_maps s_axi_control -of_objects [ipx::current_core]]]]
# set_property Size 32 [ipx::get_registers IP_ISR -of_objects [ipx::get_address_blocks reg0 -of_objects [ipx::get_memory_maps s_axi_control -of_objects [ipx::current_core]]]]
# set_property Description "fifo_in pointer argument" [ipx::get_registers fifo_in -of_objects [ipx::get_address_blocks reg0 -of_objects [ipx::get_memory_maps s_axi_control -of_objects [ipx::current_core]]]]
# set_property Address_Offset 0x010 [ipx::get_registers fifo_in -of_objects [ipx::get_address_blocks reg0 -of_objects [ipx::get_memory_maps s_axi_control -of_objects [ipx::current_core]]]]
# set_property Size 64 [ipx::get_registers fifo_in -of_objects [ipx::get_address_blocks reg0 -of_objects [ipx::get_memory_maps s_axi_control -of_objects [ipx::current_core]]]]
# set_property Description "fifo_out pointer argument" [ipx::get_registers fifo_out -of_objects [ipx::get_address_blocks reg0 -of_objects [ipx::get_memory_maps s_axi_control -of_objects [ipx::current_core]]]]
# set_property Address_Offset 0x01C [ipx::get_registers fifo_out -of_objects [ipx::get_address_blocks reg0 -of_objects [ipx::get_memory_maps s_axi_control -of_objects [ipx::current_core]]]]
# set_property Size 64 [ipx::get_registers fifo_out -of_objects [ipx::get_address_blocks reg0 -of_objects [ipx::get_memory_maps s_axi_control -of_objects [ipx::current_core]]]]
# set_property Description "length_r_in value" [ipx::get_registers length_r_in -of_objects [ipx::get_address_blocks reg0 -of_objects [ipx::get_memory_maps s_axi_control -of_objects [ipx::current_core]]]]
# set_property Address_Offset 0x028 [ipx::get_registers length_r_in -of_objects [ipx::get_address_blocks reg0 -of_objects [ipx::get_memory_maps s_axi_control -of_objects [ipx::current_core]]]]
# set_property Size 32 [ipx::get_registers length_r_in -of_objects [ipx::get_address_blocks reg0 -of_objects [ipx::get_memory_maps s_axi_control -of_objects [ipx::current_core]]]]
# set_property Description "length_r_out value" [ipx::get_registers length_r_out -of_objects [ipx::get_address_blocks reg0 -of_objects [ipx::get_memory_maps s_axi_control -of_objects [ipx::current_core]]]]
# set_property Address_Offset 0x030 [ipx::get_registers length_r_out -of_objects [ipx::get_address_blocks reg0 -of_objects [ipx::get_memory_maps s_axi_control -of_objects [ipx::current_core]]]]
# set_property Size 32 [ipx::get_registers length_r_out -of_objects [ipx::get_address_blocks reg0 -of_objects [ipx::get_memory_maps s_axi_control -of_objects [ipx::current_core]]]]
# ipx::add_register_parameter ASSOCIATED_BUSIF [ipx::get_registers fifo_in -of_objects [ipx::get_address_blocks reg0 -of_objects [ipx::get_memory_maps s_axi_control -of_objects [ipx::current_core]]]]
# ipx::add_register_parameter ASSOCIATED_BUSIF [ipx::get_registers fifo_out -of_objects [ipx::get_address_blocks reg0 -of_objects [ipx::get_memory_maps s_axi_control -of_objects [ipx::current_core]]]]
# set_property Value m_axi_gmem [ipx::get_register_parameters ASSOCIATED_BUSIF -of_objects [ipx::get_registers fifo_in -of_objects [ipx::get_address_blocks reg0 -of_objects [ipx::get_memory_maps s_axi_control -of_objects [ipx::current_core]]]]]
# set_property Value m_axi_gmem [ipx::get_register_parameters ASSOCIATED_BUSIF -of_objects [ipx::get_registers fifo_out -of_objects [ipx::get_address_blocks reg0 -of_objects [ipx::get_memory_maps s_axi_control -of_objects [ipx::current_core]]]]]
# set core [ipx::current_core]
# set_property xpm_libraries {XPM_CDC XPM_MEMORY XPM_FIFO} $core
# set_property sdx_kernel true $core
# set_property sdx_kernel_type rtl $core
# set_property core_revision 2 [ipx::current_core]
# ipx::update_source_project_archive -component [ipx::current_core]
# ipx::create_xgui_files [ipx::current_core]
# ipx::update_checksums [ipx::current_core]
# ipx::save_core [ipx::current_core]
# ipx::check_integrity -quiet [ipx::current_core]
# ipx::archive_core hls4ml_IP/fastmachinelearning.org_hls4ml_krnl_rtl_1.0.zip [ipx::current_core]
# current_project project_1
# package_xo  -force -xo_path xo_files/${myproject}_kernel.xo -kernel_name krnl_rtl -ip_directory hls4ml_IP
WARNING: [Vivado 12-4404] The CPU emulation flow in v++ is only supported when using a packaged XO file that contains C-model files, none were found.
WARNING: [IP_Flow 19-3157] Bus Interface 'ap_rst_n': Bus parameter POLARITY is ACTIVE_LOW but port 'ap_rst_n' is not *resetn - please double check the POLARITY setting.
INFO: [IP_Flow 19-2181] Payment Required is not set for this core.
INFO: [IP_Flow 19-2187] The Product Guide file is missing.
INFO: [Ipptcl 7-1486] check_integrity: Integrity check passed.
WARNING: [Vivado 12-7038] The bus parameter 'ap_clk.FREQ_HZ' has been detected in the kernel IP 'krnl_rtl'. This may cause validation errors in v++ if a target platform has a different default kernel clock frequency. If validation errors do occur in v++, please edit and re-generate the kernel IP 'krnl_rtl' to remove the bus parameter 'ap_clk.FREQ_HZ'
INFO: [Common 17-206] Exiting Vivado at Sat May 14 23:13:58 2022...
