

================================================================
== Vivado HLS Report for 'dense_latency_0_0_0_0_0_0_0_0_0_0_0_0_0_0_0_0_0_0_0_0_0_0_0_s'
================================================================
* Date:           Tue May 31 16:48:49 2022

* Version:        2020.1 (Build 2897737 on Wed May 27 20:21:37 MDT 2020)
* Project:        myproject_prj
* Solution:       solution1
* Product family: virtexuplus
* Target device:  xcvu9p-flga2104-2L-e


================================================================
== Performance Estimates
================================================================
+ Timing: 
    * Summary: 
    +--------+---------+----------+------------+
    |  Clock |  Target | Estimated| Uncertainty|
    +--------+---------+----------+------------+
    |ap_clk  | 1.92 ns | 1.612 ns |   0.24 ns  |
    +--------+---------+----------+------------+

+ Latency: 
    * Summary: 
    +---------+---------+----------+----------+-----+-----+----------+
    |  Latency (cycles) |  Latency (absolute) |  Interval | Pipeline |
    |   min   |   max   |    min   |    max   | min | max |   Type   |
    +---------+---------+----------+----------+-----+-----+----------+
    |        3|        3| 5.769 ns | 5.769 ns |    1|    1| function |
    +---------+---------+----------+----------+-----+-----+----------+

    + Detail: 
        * Instance: 
        N/A

        * Loop: 
        N/A



================================================================
== Utilization Estimates
================================================================
* Summary: 
+---------------------+---------+-------+---------+---------+-----+
|         Name        | BRAM_18K| DSP48E|    FF   |   LUT   | URAM|
+---------------------+---------+-------+---------+---------+-----+
|DSP                  |        -|      -|        -|        -|    -|
|Expression           |        -|      -|        0|     4010|    -|
|FIFO                 |        -|      -|        -|        -|    -|
|Instance             |        -|     14|      938|       14|    -|
|Memory               |        -|      -|        -|        -|    -|
|Multiplexer          |        -|      -|        -|      126|    -|
|Register             |        -|      -|     2352|        -|    -|
+---------------------+---------+-------+---------+---------+-----+
|Total                |        0|     14|     3290|     4150|    0|
+---------------------+---------+-------+---------+---------+-----+
|Available SLR        |     1440|   2280|   788160|   394080|  320|
+---------------------+---------+-------+---------+---------+-----+
|Utilization SLR (%)  |        0|   ~0  |    ~0   |        1|    0|
+---------------------+---------+-------+---------+---------+-----+
|Available            |     4320|   6840|  2364480|  1182240|  960|
+---------------------+---------+-------+---------+---------+-----+
|Utilization (%)      |        0|   ~0  |    ~0   |    ~0   |    0|
+---------------------+---------+-------+---------+---------+-----+

+ Detail: 
    * Instance: 
    +----------------------------------+------------------------------+---------+-------+----+----+-----+
    |             Instance             |            Module            | BRAM_18K| DSP48E| FF | LUT| URAM|
    +----------------------------------+------------------------------+---------+-------+----+----+-----+
    |myproject_mul_5ns_16s_21_2_0_U1   |myproject_mul_5ns_16s_21_2_0  |        0|      1|  67|   1|    0|
    |myproject_mul_5ns_16s_21_2_0_U10  |myproject_mul_5ns_16s_21_2_0  |        0|      1|  67|   1|    0|
    |myproject_mul_5s_16s_21_2_0_U3    |myproject_mul_5s_16s_21_2_0   |        0|      1|  67|   1|    0|
    |myproject_mul_6ns_16s_21_2_0_U7   |myproject_mul_6ns_16s_21_2_0  |        0|      1|  67|   1|    0|
    |myproject_mul_6ns_16s_21_2_0_U8   |myproject_mul_6ns_16s_21_2_0  |        0|      1|  67|   1|    0|
    |myproject_mul_6ns_16s_21_2_0_U9   |myproject_mul_6ns_16s_21_2_0  |        0|      1|  67|   1|    0|
    |myproject_mul_6ns_16s_21_2_0_U13  |myproject_mul_6ns_16s_21_2_0  |        0|      1|  67|   1|    0|
    |myproject_mul_6s_16s_21_2_0_U2    |myproject_mul_6s_16s_21_2_0   |        0|      1|  67|   1|    0|
    |myproject_mul_6s_16s_21_2_0_U4    |myproject_mul_6s_16s_21_2_0   |        0|      1|  67|   1|    0|
    |myproject_mul_6s_16s_21_2_0_U5    |myproject_mul_6s_16s_21_2_0   |        0|      1|  67|   1|    0|
    |myproject_mul_6s_16s_21_2_0_U12   |myproject_mul_6s_16s_21_2_0   |        0|      1|  67|   1|    0|
    |myproject_mul_7ns_16s_21_2_0_U11  |myproject_mul_7ns_16s_21_2_0  |        0|      1|  67|   1|    0|
    |myproject_mul_7s_16s_21_2_0_U6    |myproject_mul_7s_16s_21_2_0   |        0|      1|  67|   1|    0|
    |myproject_mul_7s_16s_21_2_0_U14   |myproject_mul_7s_16s_21_2_0   |        0|      1|  67|   1|    0|
    +----------------------------------+------------------------------+---------+-------+----+----+-----+
    |Total                             |                              |        0|     14| 938|  14|    0|
    +----------------------------------+------------------------------+---------+-------+----+----+-----+

    * DSP48E: 
    N/A

    * Memory: 
    N/A

    * FIFO: 
    N/A

    * Expression: 
    +---------------------------+----------+-------+---+----+------------+------------+
    |       Variable Name       | Operation| DSP48E| FF| LUT| Bitwidth P0| Bitwidth P1|
    +---------------------------+----------+-------+---+----+------------+------------+
    |acc_15_V_fu_10432_p2       |     +    |      0|  0|  17|          16|          16|
    |acc_16_V_fu_10452_p2       |     +    |      0|  0|  17|          16|          16|
    |acc_20_V_fu_10645_p2       |     +    |      0|  0|  17|          16|          16|
    |acc_32_V_fu_10518_p2       |     +    |      0|  0|  17|          16|          16|
    |acc_3_V_fu_10402_p2        |     +    |      0|  0|  17|          16|          16|
    |acc_40_V_fu_10527_p2       |     +    |      0|  0|  17|          16|          16|
    |acc_43_V_fu_10542_p2       |     +    |      0|  0|  17|          16|          16|
    |acc_45_V_fu_10564_p2       |     +    |      0|  0|  17|          16|          16|
    |acc_47_V_fu_10163_p2       |     +    |      0|  0|  17|          16|          16|
    |acc_48_V_fu_10610_p2       |     +    |      0|  0|  17|          16|          16|
    |acc_53_V_fu_10632_p2       |     +    |      0|  0|  17|          16|          16|
    |acc_58_V_fu_10247_p2       |     +    |      0|  0|  17|          16|          16|
    |acc_7_V_fu_10423_p2        |     +    |      0|  0|  17|          16|          16|
    |add_ln1118_1_fu_8686_p2    |     +    |      0|  0|  26|          19|          19|
    |add_ln1118_2_fu_8804_p2    |     +    |      0|  0|  27|          20|          20|
    |add_ln1118_3_fu_8932_p2    |     +    |      0|  0|  26|          19|          19|
    |add_ln1118_4_fu_9323_p2    |     +    |      0|  0|  28|          21|          21|
    |add_ln1118_5_fu_9433_p2    |     +    |      0|  0|  27|          20|          20|
    |add_ln1118_6_fu_9791_p2    |     +    |      0|  0|  27|          20|          20|
    |add_ln1118_7_fu_7956_p2    |     +    |      0|  0|  26|          19|          19|
    |add_ln1118_fu_8490_p2      |     +    |      0|  0|  28|          21|          21|
    |add_ln703_100_fu_10145_p2  |     +    |      0|  0|  17|          16|          16|
    |add_ln703_101_fu_10151_p2  |     +    |      0|  0|  17|          16|          16|
    |add_ln703_102_fu_10547_p2  |     +    |      0|  0|  17|          16|          16|
    |add_ln703_103_fu_8372_p2   |     +    |      0|  0|  23|          16|          16|
    |add_ln703_104_fu_10551_p2  |     +    |      0|  0|  17|          16|          16|
    |add_ln703_105_fu_8378_p2   |     +    |      0|  0|  19|          10|          12|
    |add_ln703_106_fu_8388_p2   |     +    |      0|  0|  20|          13|          13|
    |add_ln703_107_fu_10558_p2  |     +    |      0|  0|  17|          16|          16|
    |add_ln703_109_fu_10157_p2  |     +    |      0|  0|  17|           8|          16|
    |add_ln703_111_fu_10570_p2  |     +    |      0|  0|  17|          16|          16|
    |add_ln703_112_fu_10575_p2  |     +    |      0|  0|  17|          16|          16|
    |add_ln703_113_fu_10581_p2  |     +    |      0|  0|  17|          16|          16|
    |add_ln703_114_fu_10586_p2  |     +    |      0|  0|  17|          16|          16|
    |add_ln703_115_fu_10592_p2  |     +    |      0|  0|  17|          16|          16|
    |add_ln703_116_fu_10169_p2  |     +    |      0|  0|  17|          15|          15|
    |add_ln703_117_fu_10175_p2  |     +    |      0|  0|  17|          15|          15|
    |add_ln703_118_fu_8394_p2   |     +    |      0|  0|  21|          14|          14|
    |add_ln703_119_fu_10187_p2  |     +    |      0|  0|  22|          15|          15|
    |add_ln703_120_fu_10604_p2  |     +    |      0|  0|  23|          16|          16|
    |add_ln703_122_fu_10193_p2  |     +    |      0|  0|  23|          16|          16|
    |add_ln703_123_fu_8400_p2   |     +    |      0|  0|  22|          15|          15|
    |add_ln703_124_fu_10619_p2  |     +    |      0|  0|  23|          16|          16|
    |add_ln703_125_fu_10624_p2  |     +    |      0|  0|  17|          16|          16|
    |add_ln703_126_fu_10199_p2  |     +    |      0|  0|  20|          13|          13|
    |add_ln703_127_fu_8406_p2   |     +    |      0|  0|  19|           9|          12|
    |add_ln703_128_fu_8416_p2   |     +    |      0|  0|  20|          13|          13|
    |add_ln703_129_fu_10212_p2  |     +    |      0|  0|  21|          14|          14|
    |add_ln703_131_fu_10218_p2  |     +    |      0|  0|  22|          15|          15|
    |add_ln703_132_fu_10228_p2  |     +    |      0|  0|  17|          16|          16|
    |add_ln703_133_fu_8422_p2   |     +    |      0|  0|  19|           8|          12|
    |add_ln703_134_fu_10237_p2  |     +    |      0|  0|  20|          13|          13|
    |add_ln703_15_fu_10356_p2   |     +    |      0|  0|  23|          16|          16|
    |add_ln703_16_fu_10361_p2   |     +    |      0|  0|  17|          16|          16|
    |add_ln703_17_fu_9867_p2    |     +    |      0|  0|  21|          14|          14|
    |add_ln703_18_fu_8268_p2    |     +    |      0|  0|  19|          10|          12|
    |add_ln703_19_fu_9880_p2    |     +    |      0|  0|  20|          13|          13|
    |add_ln703_20_fu_9890_p2    |     +    |      0|  0|  22|          15|          15|
    |add_ln703_21_fu_10370_p2   |     +    |      0|  0|  17|          16|          16|
    |add_ln703_22_fu_10376_p2   |     +    |      0|  0|  21|          14|          14|
    |add_ln703_23_fu_9896_p2    |     +    |      0|  0|  23|          16|          16|
    |add_ln703_24_fu_10386_p2   |     +    |      0|  0|  17|          16|          16|
    |add_ln703_25_fu_10391_p2   |     +    |      0|  0|  17|          16|          16|
    |add_ln703_26_fu_9902_p2    |     +    |      0|  0|  20|          10|          13|
    |add_ln703_27_fu_9912_p2    |     +    |      0|  0|  23|          16|          16|
    |add_ln703_28_fu_10397_p2   |     +    |      0|  0|  17|          16|          16|
    |add_ln703_30_fu_9918_p2    |     +    |      0|  0|  23|          16|          16|
    |add_ln703_31_fu_10408_p2   |     +    |      0|  0|  17|          16|          16|
    |add_ln703_32_fu_10413_p2   |     +    |      0|  0|  17|          16|          16|
    |add_ln703_33_fu_10418_p2   |     +    |      0|  0|  17|          16|          16|
    |add_ln703_34_fu_9924_p2    |     +    |      0|  0|  17|          16|          16|
    |add_ln703_35_fu_8274_p2    |     +    |      0|  0|  19|           7|          12|
    |add_ln703_36_fu_8284_p2    |     +    |      0|  0|  20|          13|          13|
    |add_ln703_37_fu_9933_p2    |     +    |      0|  0|  17|          16|          16|
    |add_ln703_39_fu_9939_p2    |     +    |      0|  0|  17|          16|          16|
    |add_ln703_40_fu_9945_p2    |     +    |      0|  0|  17|          16|          16|
    |add_ln703_41_fu_9951_p2    |     +    |      0|  0|  22|          15|          15|
    |add_ln703_42_fu_9961_p2    |     +    |      0|  0|  23|          16|          16|
    |add_ln703_43_fu_10428_p2   |     +    |      0|  0|  17|          16|          16|
    |add_ln703_44_fu_9967_p2    |     +    |      0|  0|  20|          13|          13|
    |add_ln703_45_fu_9977_p2    |     +    |      0|  0|  17|          16|          16|
    |add_ln703_46_fu_8290_p2    |     +    |      0|  0|  19|           9|          12|
    |add_ln703_47_fu_9986_p2    |     +    |      0|  0|  20|          13|          13|
    |add_ln703_48_fu_9996_p2    |     +    |      0|  0|  17|          16|          16|
    |add_ln703_50_fu_10002_p2   |     +    |      0|  0|  23|          16|          16|
    |add_ln703_51_fu_10437_p2   |     +    |      0|  0|  17|          16|          16|
    |add_ln703_52_fu_10442_p2   |     +    |      0|  0|  17|          16|          16|
    |add_ln703_53_fu_10447_p2   |     +    |      0|  0|  17|          16|          16|
    |add_ln703_54_fu_8296_p2    |     +    |      0|  0|  21|          14|          14|
    |add_ln703_55_fu_10011_p2   |     +    |      0|  0|  22|          15|          15|
    |add_ln703_56_fu_8302_p2    |     +    |      0|  0|  19|          10|          12|
    |add_ln703_57_fu_10024_p2   |     +    |      0|  0|  20|          13|          13|
    |add_ln703_58_fu_10034_p2   |     +    |      0|  0|  23|          16|          16|
    |add_ln703_60_fu_10457_p2   |     +    |      0|  0|  17|          16|          16|
    |add_ln703_61_fu_10463_p2   |     +    |      0|  0|  17|          16|          16|
    |add_ln703_62_fu_10468_p2   |     +    |      0|  0|  17|          16|          16|
    |add_ln703_63_fu_10474_p2   |     +    |      0|  0|  23|          16|          16|
    |add_ln703_64_fu_10479_p2   |     +    |      0|  0|  17|          16|          16|
    |add_ln703_65_fu_10638_p2   |     +    |      0|  0|  17|          16|          16|
    |add_ln703_66_fu_10040_p2   |     +    |      0|  0|  20|          13|          13|
    |add_ln703_67_fu_10050_p2   |     +    |      0|  0|  21|          14|          14|
    |add_ln703_68_fu_8308_p2    |     +    |      0|  0|  20|          13|          13|
    |add_ln703_69_fu_8318_p2    |     +    |      0|  0|  19|          10|          12|
    |add_ln703_70_fu_8328_p2    |     +    |      0|  0|  21|          14|          14|
    |add_ln703_71_fu_10491_p2   |     +    |      0|  0|  22|          15|          15|
    |add_ln703_73_fu_10497_p2   |     +    |      0|  0|  23|          16|          16|
    |add_ln703_74_fu_10502_p2   |     +    |      0|  0|  17|          16|          16|
    |add_ln703_75_fu_10507_p2   |     +    |      0|  0|  17|          16|          16|
    |add_ln703_76_fu_10512_p2   |     +    |      0|  0|  17|          16|          16|
    |add_ln703_77_fu_10056_p2   |     +    |      0|  0|  17|          16|          16|
    |add_ln703_78_fu_8334_p2    |     +    |      0|  0|  19|           8|          12|
    |add_ln703_79_fu_8344_p2    |     +    |      0|  0|  20|          13|          13|
    |add_ln703_80_fu_10065_p2   |     +    |      0|  0|  17|          16|          16|
    |add_ln703_82_fu_10071_p2   |     +    |      0|  0|  23|          16|          16|
    |add_ln703_83_fu_10077_p2   |     +    |      0|  0|  17|          16|          16|
    |add_ln703_84_fu_10083_p2   |     +    |      0|  0|  17|          16|          16|
    |add_ln703_85_fu_10523_p2   |     +    |      0|  0|  17|          16|          16|
    |add_ln703_86_fu_10089_p2   |     +    |      0|  0|  22|          15|          15|
    |add_ln703_87_fu_10099_p2   |     +    |      0|  0|  17|          16|          16|
    |add_ln703_88_fu_8350_p2    |     +    |      0|  0|  19|          10|          12|
    |add_ln703_89_fu_8360_p2    |     +    |      0|  0|  20|          13|          13|
    |add_ln703_90_fu_10108_p2   |     +    |      0|  0|  17|          16|          16|
    |add_ln703_92_fu_10114_p2   |     +    |      0|  0|  23|          16|          16|
    |add_ln703_93_fu_10532_p2   |     +    |      0|  0|  23|          16|          16|
    |add_ln703_94_fu_10537_p2   |     +    |      0|  0|  17|          16|          16|
    |add_ln703_95_fu_8366_p2    |     +    |      0|  0|  22|          15|          15|
    |add_ln703_96_fu_10123_p2   |     +    |      0|  0|  19|          10|          12|
    |add_ln703_97_fu_10133_p2   |     +    |      0|  0|  23|          16|          16|
    |add_ln703_99_fu_10139_p2   |     +    |      0|  0|  23|          16|          16|
    |add_ln703_fu_10351_p2      |     +    |      0|  0|  23|          16|          16|
    |sub_ln1118_10_fu_8136_p2   |     -    |      0|  0|  24|           1|          17|
    |sub_ln1118_11_fu_8170_p2   |     -    |      0|  0|  24|           1|          17|
    |sub_ln1118_12_fu_8456_p2   |     -    |      0|  0|  25|           1|          18|
    |sub_ln1118_13_fu_8537_p2   |     -    |      0|  0|  27|           1|          20|
    |sub_ln1118_14_fu_8588_p2   |     -    |      0|  0|  28|          21|          21|
    |sub_ln1118_15_fu_8621_p2   |     -    |      0|  0|  26|          19|          19|
    |sub_ln1118_16_fu_8670_p2   |     -    |      0|  0|  27|           1|          20|
    |sub_ln1118_17_fu_8717_p2   |     -    |      0|  0|  25|           1|          18|
    |sub_ln1118_18_fu_8773_p2   |     -    |      0|  0|  27|           1|          20|
    |sub_ln1118_19_fu_8844_p2   |     -    |      0|  0|  27|          20|          20|
    |sub_ln1118_1_fu_8824_p2    |     -    |      0|  0|  24|           1|          17|
    |sub_ln1118_20_fu_8870_p2   |     -    |      0|  0|  25|           1|          18|
    |sub_ln1118_21_fu_8916_p2   |     -    |      0|  0|  28|          21|          21|
    |sub_ln1118_22_fu_8985_p2   |     -    |      0|  0|  25|           1|          18|
    |sub_ln1118_23_fu_10294_p2  |     -    |      0|  0|  17|           1|          21|
    |sub_ln1118_24_fu_10311_p2  |     -    |      0|  0|  17|          21|          21|
    |sub_ln1118_25_fu_9130_p2   |     -    |      0|  0|  28|          21|          21|
    |sub_ln1118_26_fu_9157_p2   |     -    |      0|  0|  27|          20|          20|
    |sub_ln1118_27_fu_9234_p2   |     -    |      0|  0|  17|           1|          21|
    |sub_ln1118_28_fu_9251_p2   |     -    |      0|  0|  17|          21|          21|
    |sub_ln1118_29_fu_9278_p2   |     -    |      0|  0|  26|          19|          19|
    |sub_ln1118_2_fu_9032_p2    |     -    |      0|  0|  24|           1|          17|
    |sub_ln1118_30_fu_9339_p2   |     -    |      0|  0|  17|           1|          21|
    |sub_ln1118_31_fu_9345_p2   |     -    |      0|  0|  17|          21|          21|
    |sub_ln1118_32_fu_9400_p2   |     -    |      0|  0|  26|           1|          19|
    |sub_ln1118_33_fu_9406_p2   |     -    |      0|  0|  26|          19|          19|
    |sub_ln1118_34_fu_9468_p2   |     -    |      0|  0|  27|          20|          20|
    |sub_ln1118_35_fu_9499_p2   |     -    |      0|  0|  17|           1|          21|
    |sub_ln1118_36_fu_9505_p2   |     -    |      0|  0|  17|          21|          21|
    |sub_ln1118_37_fu_9558_p2   |     -    |      0|  0|  28|          21|          21|
    |sub_ln1118_38_fu_7631_p2   |     -    |      0|  0|  26|          19|          19|
    |sub_ln1118_39_fu_9614_p2   |     -    |      0|  0|  17|           1|          20|
    |sub_ln1118_3_fu_9103_p2    |     -    |      0|  0|  24|           1|          17|
    |sub_ln1118_40_fu_9631_p2   |     -    |      0|  0|  17|          20|          20|
    |sub_ln1118_41_fu_7740_p2   |     -    |      0|  0|  26|           1|          19|
    |sub_ln1118_42_fu_7746_p2   |     -    |      0|  0|  26|          19|          19|
    |sub_ln1118_43_fu_9670_p2   |     -    |      0|  0|  27|          20|          20|
    |sub_ln1118_44_fu_9714_p2   |     -    |      0|  0|  25|           1|          18|
    |sub_ln1118_45_fu_9745_p2   |     -    |      0|  0|  17|           1|          20|
    |sub_ln1118_46_fu_9751_p2   |     -    |      0|  0|  17|          20|          20|
    |sub_ln1118_47_fu_9771_p2   |     -    |      0|  0|  27|          20|          20|
    |sub_ln1118_48_fu_7832_p2   |     -    |      0|  0|  27|           1|          20|
    |sub_ln1118_49_fu_7848_p2   |     -    |      0|  0|  27|          20|          20|
    |sub_ln1118_4_fu_9193_p2    |     -    |      0|  0|  24|           1|          17|
    |sub_ln1118_50_fu_7876_p2   |     -    |      0|  0|  26|           1|          19|
    |sub_ln1118_51_fu_7920_p2   |     -    |      0|  0|  26|          19|          19|
    |sub_ln1118_52_fu_8052_p2   |     -    |      0|  0|  27|          20|          20|
    |sub_ln1118_53_fu_8198_p2   |     -    |      0|  0|  26|          19|          19|
    |sub_ln1118_54_fu_8230_p2   |     -    |      0|  0|  25|           1|          18|
    |sub_ln1118_55_fu_8557_p2   |     -    |      0|  0|  27|          20|          20|
    |sub_ln1118_56_fu_8737_p2   |     -    |      0|  0|  26|          19|          19|
    |sub_ln1118_57_fu_9012_p2   |     -    |      0|  0|  26|          19|          19|
    |sub_ln1118_58_fu_9088_p2   |     -    |      0|  0|  28|          21|          21|
    |sub_ln1118_59_fu_7936_p2   |     -    |      0|  0|  26|          19|          19|
    |sub_ln1118_5_fu_9361_p2    |     -    |      0|  0|  24|           1|          17|
    |sub_ln1118_60_fu_8116_p2   |     -    |      0|  0|  26|          19|          19|
    |sub_ln1118_6_fu_9521_p2    |     -    |      0|  0|  24|           1|          17|
    |sub_ln1118_7_fu_7679_p2    |     -    |      0|  0|  24|           1|          17|
    |sub_ln1118_8_fu_9650_p2    |     -    |      0|  0|  24|           1|          17|
    |sub_ln1118_9_fu_8004_p2    |     -    |      0|  0|  24|           1|          17|
    |sub_ln1118_fu_8637_p2      |     -    |      0|  0|  24|           1|          17|
    +---------------------------+----------+-------+---+----+------------+------------+
    |Total                      |          |      0|  0|4010|        2587|        3171|
    +---------------------------+----------+-------+---+----+------------+------------+

    * Multiplexer: 
    +--------------+----+-----------+-----+-----------+
    |     Name     | LUT| Input Size| Bits| Total Bits|
    +--------------+----+-----------+-----+-----------+
    |ap_return_0   |   9|          2|   16|         32|
    |ap_return_1   |   9|          2|   16|         32|
    |ap_return_10  |   9|          2|   16|         32|
    |ap_return_11  |   9|          2|   16|         32|
    |ap_return_12  |   9|          2|   16|         32|
    |ap_return_13  |   9|          2|   16|         32|
    |ap_return_2   |   9|          2|   16|         32|
    |ap_return_3   |   9|          2|   16|         32|
    |ap_return_4   |   9|          2|   16|         32|
    |ap_return_5   |   9|          2|   16|         32|
    |ap_return_6   |   9|          2|   16|         32|
    |ap_return_7   |   9|          2|   16|         32|
    |ap_return_8   |   9|          2|   16|         32|
    |ap_return_9   |   9|          2|   16|         32|
    +--------------+----+-----------+-----+-----------+
    |Total         | 126|         28|  224|        448|
    +--------------+----+-----------+-----+-----------+

    * Register: 
    +----------------------------------------+-----+----+-----+-----------+
    |                  Name                  |  FF | LUT| Bits| Const Bits|
    +----------------------------------------+-----+----+-----+-----------+
    |acc_15_V_reg_11343                      |   16|   0|   16|          0|
    |acc_16_V_reg_11348                      |   16|   0|   16|          0|
    |acc_32_V_reg_11368                      |   16|   0|   16|          0|
    |acc_3_V_reg_11333                       |   16|   0|   16|          0|
    |acc_40_V_reg_11373                      |   16|   0|   16|          0|
    |acc_43_V_reg_11378                      |   16|   0|   16|          0|
    |acc_45_V_reg_11383                      |   16|   0|   16|          0|
    |acc_47_V_reg_11298                      |   16|   0|   16|          0|
    |acc_47_V_reg_11298_pp0_iter2_reg        |   16|   0|   16|          0|
    |acc_48_V_reg_11388                      |   16|   0|   16|          0|
    |acc_53_V_reg_11393                      |   16|   0|   16|          0|
    |acc_58_V_reg_11323                      |   16|   0|   16|          0|
    |acc_58_V_reg_11323_pp0_iter2_reg        |   16|   0|   16|          0|
    |acc_7_V_reg_11338                       |   16|   0|   16|          0|
    |add_ln703_101_reg_11293                 |   16|   0|   16|          0|
    |add_ln703_103_reg_11012                 |   16|   0|   16|          0|
    |add_ln703_103_reg_11012_pp0_iter1_reg   |   16|   0|   16|          0|
    |add_ln703_106_reg_11017                 |   13|   0|   13|          0|
    |add_ln703_106_reg_11017_pp0_iter1_reg   |   13|   0|   13|          0|
    |add_ln703_117_reg_11303                 |   15|   0|   15|          0|
    |add_ln703_118_reg_11022                 |   14|   0|   14|          0|
    |add_ln703_119_reg_11308                 |   15|   0|   15|          0|
    |add_ln703_122_reg_11313                 |   16|   0|   16|          0|
    |add_ln703_123_reg_11027                 |   15|   0|   15|          0|
    |add_ln703_123_reg_11027_pp0_iter1_reg   |   15|   0|   15|          0|
    |add_ln703_128_reg_11032                 |   13|   0|   13|          0|
    |add_ln703_129_reg_11318                 |   14|   0|   14|          0|
    |add_ln703_133_reg_11037                 |   12|   0|   12|          0|
    |add_ln703_18_reg_10966                  |   12|   0|   12|          0|
    |add_ln703_20_reg_11203                  |   15|   0|   15|          0|
    |add_ln703_21_reg_11328                  |   16|   0|   16|          0|
    |add_ln703_23_reg_11208                  |   16|   0|   16|          0|
    |add_ln703_27_reg_11213                  |   16|   0|   16|          0|
    |add_ln703_30_reg_11218                  |   16|   0|   16|          0|
    |add_ln703_36_reg_10971                  |   13|   0|   13|          0|
    |add_ln703_37_reg_11223                  |   16|   0|   16|          0|
    |add_ln703_40_reg_11228                  |   16|   0|   16|          0|
    |add_ln703_42_reg_11233                  |   16|   0|   16|          0|
    |add_ln703_46_reg_10976                  |   12|   0|   12|          0|
    |add_ln703_48_reg_11238                  |   16|   0|   16|          0|
    |add_ln703_50_reg_11243                  |   16|   0|   16|          0|
    |add_ln703_54_reg_10982                  |   14|   0|   14|          0|
    |add_ln703_56_reg_10987                  |   12|   0|   12|          0|
    |add_ln703_58_reg_11248                  |   16|   0|   16|          0|
    |add_ln703_61_reg_11353                  |   16|   0|   16|          0|
    |add_ln703_64_reg_11358                  |   16|   0|   16|          0|
    |add_ln703_67_reg_11253                  |   14|   0|   14|          0|
    |add_ln703_70_reg_10992                  |   14|   0|   14|          0|
    |add_ln703_70_reg_10992_pp0_iter1_reg    |   14|   0|   14|          0|
    |add_ln703_71_reg_11363                  |   15|   0|   15|          0|
    |add_ln703_79_reg_10997                  |   13|   0|   13|          0|
    |add_ln703_80_reg_11258                  |   16|   0|   16|          0|
    |add_ln703_82_reg_11263                  |   16|   0|   16|          0|
    |add_ln703_84_reg_11268                  |   16|   0|   16|          0|
    |add_ln703_89_reg_11002                  |   13|   0|   13|          0|
    |add_ln703_90_reg_11273                  |   16|   0|   16|          0|
    |add_ln703_92_reg_11278                  |   16|   0|   16|          0|
    |add_ln703_95_reg_11007                  |   15|   0|   15|          0|
    |add_ln703_97_reg_11283                  |   16|   0|   16|          0|
    |add_ln703_99_reg_11288                  |   16|   0|   16|          0|
    |ap_ce_reg                               |    1|   0|    1|          0|
    |ap_return_0_int_reg                     |   16|   0|   16|          0|
    |ap_return_10_int_reg                    |   16|   0|   16|          0|
    |ap_return_11_int_reg                    |   16|   0|   16|          0|
    |ap_return_12_int_reg                    |   16|   0|   16|          0|
    |ap_return_13_int_reg                    |   16|   0|   16|          0|
    |ap_return_1_int_reg                     |   16|   0|   16|          0|
    |ap_return_2_int_reg                     |   16|   0|   16|          0|
    |ap_return_3_int_reg                     |   16|   0|   16|          0|
    |ap_return_4_int_reg                     |   16|   0|   16|          0|
    |ap_return_5_int_reg                     |   16|   0|   16|          0|
    |ap_return_6_int_reg                     |   16|   0|   16|          0|
    |ap_return_7_int_reg                     |   16|   0|   16|          0|
    |ap_return_8_int_reg                     |   16|   0|   16|          0|
    |ap_return_9_int_reg                     |   16|   0|   16|          0|
    |data_V_read_int_reg                     |  272|   0|  272|          0|
    |mult_0_V_reg_11042                      |   16|   0|   16|          0|
    |mult_160_V_reg_11093                    |   16|   0|   16|          0|
    |mult_199_V_reg_11098                    |   16|   0|   16|          0|
    |mult_20_V_reg_11052                     |   16|   0|   16|          0|
    |mult_224_V_reg_11108                    |   16|   0|   16|          0|
    |mult_256_V_reg_11118                    |   16|   0|   16|          0|
    |mult_263_V_reg_11123                    |   16|   0|   16|          0|
    |mult_32_V_reg_11057                     |   16|   0|   16|          0|
    |mult_368_V_reg_11133                    |   16|   0|   16|          0|
    |mult_404_V_reg_11138                    |   16|   0|   16|          0|
    |mult_528_V_reg_11153                    |   16|   0|   16|          0|
    |mult_592_V_reg_11163                    |   16|   0|   16|          0|
    |mult_624_V_reg_11168                    |   16|   0|   16|          0|
    |mult_693_V_reg_11183                    |   16|   0|   16|          0|
    |mult_811_V_reg_11193                    |   16|   0|   16|          0|
    |mult_813_V_reg_11198                    |   16|   0|   16|          0|
    |sext_ln1118_26_reg_10815                |   21|   0|   21|          0|
    |tmp_10_reg_10875                        |   16|   0|   16|          0|
    |tmp_13_reg_10902                        |   16|   0|   16|          0|
    |tmp_1_reg_10847                         |   16|   0|   16|          0|
    |tmp_48_reg_11047                        |   13|   0|   13|          0|
    |tmp_49_reg_10783                        |   13|   0|   13|          0|
    |tmp_4_reg_10739                         |   16|   0|   16|          0|
    |tmp_51_reg_10865                        |   14|   0|   14|          0|
    |tmp_52_reg_10887                        |   14|   0|   14|          0|
    |tmp_54_reg_10924                        |   14|   0|   14|          0|
    |tmp_55_reg_10929                        |   14|   0|   14|          0|
    |tmp_57_reg_10934                        |   14|   0|   14|          0|
    |tmp_58_reg_10939                        |   12|   0|   12|          0|
    |tmp_5_reg_10754                         |   16|   0|   16|          0|
    |tmp_60_reg_10956                        |   12|   0|   12|          0|
    |tmp_61_reg_10961                        |   12|   0|   12|          0|
    |tmp_6_reg_10770                         |   16|   0|   16|          0|
    |tmp_7_reg_10789                         |   16|   0|   16|          0|
    |tmp_7_reg_10789_pp0_iter1_reg           |   16|   0|   16|          0|
    |tmp_8_reg_10806                         |   16|   0|   16|          0|
    |tmp_9_reg_10821                         |   16|   0|   16|          0|
    |tmp_s_reg_10835                         |   16|   0|   16|          0|
    |trunc_ln203_reg_10722                   |   16|   0|   16|          0|
    |trunc_ln708_14_reg_11062                |   14|   0|   14|          0|
    |trunc_ln708_15_reg_11067                |   12|   0|   12|          0|
    |trunc_ln708_16_reg_10748                |   11|   0|   11|          0|
    |trunc_ln708_17_reg_11073                |   15|   0|   15|          0|
    |trunc_ln708_20_reg_11078                |   14|   0|   14|          0|
    |trunc_ln708_21_reg_11083                |   15|   0|   15|          0|
    |trunc_ln708_24_reg_11088                |   15|   0|   15|          0|
    |trunc_ln708_28_reg_11103                |   13|   0|   13|          0|
    |trunc_ln708_30_reg_11113                |   12|   0|   12|          0|
    |trunc_ln708_31_reg_10801                |   12|   0|   12|          0|
    |trunc_ln708_32_reg_11128                |   12|   0|   12|          0|
    |trunc_ln708_39_reg_11143                |   12|   0|   12|          0|
    |trunc_ln708_40_reg_10842                |   12|   0|   12|          0|
    |trunc_ln708_41_reg_11148                |   14|   0|   14|          0|
    |trunc_ln708_46_reg_11158                |   14|   0|   14|          0|
    |trunc_ln708_49_reg_10870                |   12|   0|   12|          0|
    |trunc_ln708_50_reg_11173                |   15|   0|   15|          0|
    |trunc_ln708_52_reg_11178                |   15|   0|   15|          0|
    |trunc_ln708_53_reg_10892                |   14|   0|   14|          0|
    |trunc_ln708_53_reg_10892_pp0_iter1_reg  |   14|   0|   14|          0|
    |trunc_ln708_54_reg_10897                |   11|   0|   11|          0|
    |trunc_ln708_55_reg_11188                |   13|   0|   13|          0|
    |trunc_ln708_59_reg_10914                |   15|   0|   15|          0|
    |trunc_ln708_60_reg_10919                |   15|   0|   15|          0|
    |trunc_ln708_64_reg_10945                |   15|   0|   15|          0|
    |trunc_ln708_65_reg_10950                |   11|   0|   11|          0|
    +----------------------------------------+-----+----+-----+-----------+
    |Total                                   | 2352|   0| 2352|          0|
    +----------------------------------------+-----+----+-----+-----------+



================================================================
== Interface
================================================================
* Summary: 
+--------------+-----+-----+------------+--------------------------------------------------------------+--------------+
|   RTL Ports  | Dir | Bits|  Protocol  |                         Source Object                        |    C Type    |
+--------------+-----+-----+------------+--------------------------------------------------------------+--------------+
|ap_clk        |  in |    1| ap_ctrl_hs | dense_latency.0.0.0.0.0.0.0.0.0.0.0.0.0.0.0.0.0.0.0.0.0.0.0. | return value |
|ap_rst        |  in |    1| ap_ctrl_hs | dense_latency.0.0.0.0.0.0.0.0.0.0.0.0.0.0.0.0.0.0.0.0.0.0.0. | return value |
|ap_return_0   | out |   16| ap_ctrl_hs | dense_latency.0.0.0.0.0.0.0.0.0.0.0.0.0.0.0.0.0.0.0.0.0.0.0. | return value |
|ap_return_1   | out |   16| ap_ctrl_hs | dense_latency.0.0.0.0.0.0.0.0.0.0.0.0.0.0.0.0.0.0.0.0.0.0.0. | return value |
|ap_return_2   | out |   16| ap_ctrl_hs | dense_latency.0.0.0.0.0.0.0.0.0.0.0.0.0.0.0.0.0.0.0.0.0.0.0. | return value |
|ap_return_3   | out |   16| ap_ctrl_hs | dense_latency.0.0.0.0.0.0.0.0.0.0.0.0.0.0.0.0.0.0.0.0.0.0.0. | return value |
|ap_return_4   | out |   16| ap_ctrl_hs | dense_latency.0.0.0.0.0.0.0.0.0.0.0.0.0.0.0.0.0.0.0.0.0.0.0. | return value |
|ap_return_5   | out |   16| ap_ctrl_hs | dense_latency.0.0.0.0.0.0.0.0.0.0.0.0.0.0.0.0.0.0.0.0.0.0.0. | return value |
|ap_return_6   | out |   16| ap_ctrl_hs | dense_latency.0.0.0.0.0.0.0.0.0.0.0.0.0.0.0.0.0.0.0.0.0.0.0. | return value |
|ap_return_7   | out |   16| ap_ctrl_hs | dense_latency.0.0.0.0.0.0.0.0.0.0.0.0.0.0.0.0.0.0.0.0.0.0.0. | return value |
|ap_return_8   | out |   16| ap_ctrl_hs | dense_latency.0.0.0.0.0.0.0.0.0.0.0.0.0.0.0.0.0.0.0.0.0.0.0. | return value |
|ap_return_9   | out |   16| ap_ctrl_hs | dense_latency.0.0.0.0.0.0.0.0.0.0.0.0.0.0.0.0.0.0.0.0.0.0.0. | return value |
|ap_return_10  | out |   16| ap_ctrl_hs | dense_latency.0.0.0.0.0.0.0.0.0.0.0.0.0.0.0.0.0.0.0.0.0.0.0. | return value |
|ap_return_11  | out |   16| ap_ctrl_hs | dense_latency.0.0.0.0.0.0.0.0.0.0.0.0.0.0.0.0.0.0.0.0.0.0.0. | return value |
|ap_return_12  | out |   16| ap_ctrl_hs | dense_latency.0.0.0.0.0.0.0.0.0.0.0.0.0.0.0.0.0.0.0.0.0.0.0. | return value |
|ap_return_13  | out |   16| ap_ctrl_hs | dense_latency.0.0.0.0.0.0.0.0.0.0.0.0.0.0.0.0.0.0.0.0.0.0.0. | return value |
|ap_ce         |  in |    1| ap_ctrl_hs | dense_latency.0.0.0.0.0.0.0.0.0.0.0.0.0.0.0.0.0.0.0.0.0.0.0. | return value |
|data_V_read   |  in |  272|   ap_none  |                          data_V_read                         |    scalar    |
+--------------+-----+-----+------------+--------------------------------------------------------------+--------------+

