

================================================================
== Vivado HLS Report for 'myproject'
================================================================
* Date:           Fri Jun 10 13:49:49 2022

* Version:        2020.1 (Build 2897737 on Wed May 27 20:21:37 MDT 2020)
* Project:        myproject_prj
* Solution:       solution1
* Product family: virtexuplus
* Target device:  xcvu9p-flga2104-2L-e


================================================================
== Performance Estimates
================================================================
+ Timing: 
    * Summary: 
    +--------+---------+----------+------------+
    |  Clock |  Target | Estimated| Uncertainty|
    +--------+---------+----------+------------+
    |ap_clk  | 4.17 ns | 3.628 ns |   0.52 ns  |
    +--------+---------+----------+------------+

+ Latency: 
    * Summary: 
    +---------+---------+-----------+-----------+-----+-----+----------+
    |  Latency (cycles) |   Latency (absolute)  |  Interval | Pipeline |
    |   min   |   max   |    min    |    max    | min | max |   Type   |
    +---------+---------+-----------+-----------+-----+-----+----------+
    |        8|        8| 33.336 ns | 33.336 ns |    1|    1| function |
    +---------+---------+-----------+-----------+-----+-----+----------+

    + Detail: 
        * Instance: 
        +--------------------------------------------------------------------------------+---------------------------------------------------------------+---------+---------+----------+----------+-----+-----+----------+
        |                                                                                |                                                               |  Latency (cycles) |  Latency (absolute) |  Interval | Pipeline |
        |                                    Instance                                    |                             Module                            |   min   |   max   |    min   |    max   | min | max |   Type   |
        +--------------------------------------------------------------------------------+---------------------------------------------------------------+---------+---------+----------+----------+-----+-----+----------+
        |call_ret_dense_latency_0_0_0_0_0_0_0_0_0_0_0_0_0_0_0_0_0_0_0_0_0_0_0_2_fu_93    |dense_latency_0_0_0_0_0_0_0_0_0_0_0_0_0_0_0_0_0_0_0_0_0_0_0_2  |        0|        0|   0 ns   |   0 ns   |    1|    1| function |
        |call_ret3_dense_latency_0_0_0_0_0_0_0_0_0_0_0_0_0_0_0_0_0_0_0_0_0_0_0_1_fu_99   |dense_latency_0_0_0_0_0_0_0_0_0_0_0_0_0_0_0_0_0_0_0_0_0_0_0_1  |        0|        0|   0 ns   |   0 ns   |    1|    1| function |
        |call_ret2_relu_ap_fixed_ap_ufixed_3_1_0_0_0_relu_config4_s_fu_116               |relu_ap_fixed_ap_ufixed_3_1_0_0_0_relu_config4_s               |        0|        0|   0 ns   |   0 ns   |    1|    1| function |
        |call_ret8_relu_ap_fixed_ap_ufixed_3_1_0_0_0_relu_config10_s_fu_133              |relu_ap_fixed_ap_ufixed_3_1_0_0_0_relu_config10_s              |        0|        0|   0 ns   |   0 ns   |    1|    1| function |
        |call_ret5_relu_ap_fixed_ap_ufixed_3_1_0_0_0_relu_config7_s_fu_145               |relu_ap_fixed_ap_ufixed_3_1_0_0_0_relu_config7_s               |        0|        0|   0 ns   |   0 ns   |    1|    1| function |
        |call_ret6_dense_latency_0_0_0_0_0_0_0_0_0_0_0_0_0_0_0_0_0_0_0_0_0_0_0_s_fu_154  |dense_latency_0_0_0_0_0_0_0_0_0_0_0_0_0_0_0_0_0_0_0_0_0_0_0_s  |        0|        0|   0 ns   |   0 ns   |    1|    1| function |
        |layer11_out_0_V_dense_latency_ap_ufixed_ap_fixed_config11_0_0_fu_163            |dense_latency_ap_ufixed_ap_fixed_config11_0_0                  |        0|        0|   0 ns   |   0 ns   |    1|    1| function |
        |grp_sigmoid_ap_fixed_ap_ufixed_sigmoid_config13_s_fu_175                        |sigmoid_ap_fixed_ap_ufixed_sigmoid_config13_s                  |        2|        2| 8.334 ns | 8.334 ns |    1|    1| function |
        |call_ret1_linear_ap_fixed_ap_fixed_16_8_0_0_0_linear_config3_s_fu_183           |linear_ap_fixed_ap_fixed_16_8_0_0_0_linear_config3_s           |        0|        0|   0 ns   |   0 ns   |    1|    1| function |
        |call_ret7_linear_ap_fixed_ap_fixed_16_8_0_0_0_linear_config9_s_fu_200           |linear_ap_fixed_ap_fixed_16_8_0_0_0_linear_config9_s           |        0|        0|   0 ns   |   0 ns   |    1|    1| function |
        |call_ret4_linear_ap_fixed_ap_fixed_16_8_0_0_0_linear_config6_s_fu_212           |linear_ap_fixed_ap_fixed_16_8_0_0_0_linear_config6_s           |        0|        0|   0 ns   |   0 ns   |    1|    1| function |
        |layer12_out_0_V_linear_ap_fixed_ap_fixed_16_8_0_0_0_linear_config12_s_fu_221    |linear_ap_fixed_ap_fixed_16_8_0_0_0_linear_config12_s          |        0|        0|   0 ns   |   0 ns   |    1|    1| function |
        +--------------------------------------------------------------------------------+---------------------------------------------------------------+---------+---------+----------+----------+-----+-----+----------+

        * Loop: 
        N/A



================================================================
== Utilization Estimates
================================================================
* Summary: 
+---------------------+---------+-------+---------+---------+-----+
|         Name        | BRAM_18K| DSP48E|    FF   |   LUT   | URAM|
+---------------------+---------+-------+---------+---------+-----+
|DSP                  |        -|      -|        -|        -|    -|
|Expression           |        -|      -|        0|        6|    -|
|FIFO                 |        -|      -|        -|        -|    -|
|Instance             |        1|      0|       12|     5677|    -|
|Memory               |        -|      -|        -|        -|    -|
|Multiplexer          |        -|      -|        -|       36|    -|
|Register             |        -|      -|      665|        -|    -|
+---------------------+---------+-------+---------+---------+-----+
|Total                |        1|      0|      677|     5719|    0|
+---------------------+---------+-------+---------+---------+-----+
|Available SLR        |     1440|   2280|   788160|   394080|  320|
+---------------------+---------+-------+---------+---------+-----+
|Utilization SLR (%)  |    ~0   |      0|    ~0   |        1|    0|
+---------------------+---------+-------+---------+---------+-----+
|Available            |     4320|   6840|  2364480|  1182240|  960|
+---------------------+---------+-------+---------+---------+-----+
|Utilization (%)      |    ~0   |      0|    ~0   |    ~0   |    0|
+---------------------+---------+-------+---------+---------+-----+

+ Detail: 
    * Instance: 
    +--------------------------------------------------------------------------------+---------------------------------------------------------------+---------+-------+----+------+-----+
    |                                    Instance                                    |                             Module                            | BRAM_18K| DSP48E| FF |  LUT | URAM|
    +--------------------------------------------------------------------------------+---------------------------------------------------------------+---------+-------+----+------+-----+
    |call_ret3_dense_latency_0_0_0_0_0_0_0_0_0_0_0_0_0_0_0_0_0_0_0_0_0_0_0_1_fu_99   |dense_latency_0_0_0_0_0_0_0_0_0_0_0_0_0_0_0_0_0_0_0_0_0_0_0_1  |        0|      0|   0|  1087|    0|
    |call_ret_dense_latency_0_0_0_0_0_0_0_0_0_0_0_0_0_0_0_0_0_0_0_0_0_0_0_2_fu_93    |dense_latency_0_0_0_0_0_0_0_0_0_0_0_0_0_0_0_0_0_0_0_0_0_0_0_2  |        0|      0|   0|  2388|    0|
    |call_ret6_dense_latency_0_0_0_0_0_0_0_0_0_0_0_0_0_0_0_0_0_0_0_0_0_0_0_s_fu_154  |dense_latency_0_0_0_0_0_0_0_0_0_0_0_0_0_0_0_0_0_0_0_0_0_0_0_s  |        0|      0|   0|   288|    0|
    |layer11_out_0_V_dense_latency_ap_ufixed_ap_fixed_config11_0_0_fu_163            |dense_latency_ap_ufixed_ap_fixed_config11_0_0                  |        0|      0|   0|   248|    0|
    |layer12_out_0_V_linear_ap_fixed_ap_fixed_16_8_0_0_0_linear_config12_s_fu_221    |linear_ap_fixed_ap_fixed_16_8_0_0_0_linear_config12_s          |        0|      0|   0|     0|    0|
    |call_ret1_linear_ap_fixed_ap_fixed_16_8_0_0_0_linear_config3_s_fu_183           |linear_ap_fixed_ap_fixed_16_8_0_0_0_linear_config3_s           |        0|      0|   0|     0|    0|
    |call_ret4_linear_ap_fixed_ap_fixed_16_8_0_0_0_linear_config6_s_fu_212           |linear_ap_fixed_ap_fixed_16_8_0_0_0_linear_config6_s           |        0|      0|   0|     0|    0|
    |call_ret7_linear_ap_fixed_ap_fixed_16_8_0_0_0_linear_config9_s_fu_200           |linear_ap_fixed_ap_fixed_16_8_0_0_0_linear_config9_s           |        0|      0|   0|     0|    0|
    |call_ret8_relu_ap_fixed_ap_ufixed_3_1_0_0_0_relu_config10_s_fu_133              |relu_ap_fixed_ap_ufixed_3_1_0_0_0_relu_config10_s              |        0|      0|   0|   464|    0|
    |call_ret2_relu_ap_fixed_ap_ufixed_3_1_0_0_0_relu_config4_s_fu_116               |relu_ap_fixed_ap_ufixed_3_1_0_0_0_relu_config4_s               |        0|      0|   0|   754|    0|
    |call_ret5_relu_ap_fixed_ap_ufixed_3_1_0_0_0_relu_config7_s_fu_145               |relu_ap_fixed_ap_ufixed_3_1_0_0_0_relu_config7_s               |        0|      0|   0|   290|    0|
    |grp_sigmoid_ap_fixed_ap_ufixed_sigmoid_config13_s_fu_175                        |sigmoid_ap_fixed_ap_ufixed_sigmoid_config13_s                  |        1|      0|  12|   158|    0|
    +--------------------------------------------------------------------------------+---------------------------------------------------------------+---------+-------+----+------+-----+
    |Total                                                                           |                                                               |        1|      0|  12|  5677|    0|
    +--------------------------------------------------------------------------------+---------------------------------------------------------------+---------+-------+----+------+-----+

    * DSP48E: 
    N/A

    * Memory: 
    N/A

    * FIFO: 
    N/A

    * Expression: 
    +----------------------------------+----------+-------+---+----+------------+------------+
    |           Variable Name          | Operation| DSP48E| FF| LUT| Bitwidth P0| Bitwidth P1|
    +----------------------------------+----------+-------+---+----+------------+------------+
    |ap_block_pp0_stage0_01001         |    and   |      0|  0|   2|           1|           1|
    |ap_block_state1_pp0_stage0_iter0  |    or    |      0|  0|   2|           1|           1|
    |ap_enable_pp0                     |    xor   |      0|  0|   2|           1|           2|
    +----------------------------------+----------+-------+---+----+------------+------------+
    |Total                             |          |      0|  0|   6|           3|           4|
    +----------------------------------+----------+-------+---+----+------------+------------+

    * Multiplexer: 
    +----------------------------+----+-----------+-----+-----------+
    |            Name            | LUT| Input Size| Bits| Total Bits|
    +----------------------------+----+-----------+-----+-----------+
    |qfc1_input_V_ap_vld_in_sig  |   9|          2|    1|          2|
    |qfc1_input_V_ap_vld_preg    |   9|          2|    1|          2|
    |qfc1_input_V_blk_n          |   9|          2|    1|          2|
    |qfc1_input_V_in_sig         |   9|          2|  272|        544|
    +----------------------------+----+-----------+-----+-----------+
    |Total                       |  36|          8|  275|        550|
    +----------------------------+----+-----------+-----+-----------+

    * Register: 
    +-----------------------------------------------------------------------+-----+----+-----+-----------+
    |                                  Name                                 |  FF | LUT| Bits| Const Bits|
    +-----------------------------------------------------------------------+-----+----+-----+-----------+
    |ap_CS_fsm                                                              |    1|   0|    1|          0|
    |ap_enable_reg_pp0_iter1                                                |    1|   0|    1|          0|
    |ap_enable_reg_pp0_iter2                                                |    1|   0|    1|          0|
    |ap_enable_reg_pp0_iter3                                                |    1|   0|    1|          0|
    |ap_enable_reg_pp0_iter4                                                |    1|   0|    1|          0|
    |ap_enable_reg_pp0_iter5                                                |    1|   0|    1|          0|
    |ap_enable_reg_pp0_iter6                                                |    1|   0|    1|          0|
    |ap_enable_reg_pp0_iter7                                                |    1|   0|    1|          0|
    |ap_enable_reg_pp0_iter8                                                |    1|   0|    1|          0|
    |grp_sigmoid_ap_fixed_ap_ufixed_sigmoid_config13_s_fu_175_ap_start_reg  |    1|   0|    1|          0|
    |layer10_out_11_V_reg_753                                               |    3|   0|    3|          0|
    |layer10_out_12_V_reg_758                                               |    3|   0|    3|          0|
    |layer10_out_13_V_reg_763                                               |    3|   0|    3|          0|
    |layer10_out_17_V_reg_768                                               |    3|   0|    3|          0|
    |layer10_out_20_V_reg_773                                               |    3|   0|    3|          0|
    |layer10_out_21_V_reg_778                                               |    3|   0|    3|          0|
    |layer10_out_26_V_reg_783                                               |    3|   0|    3|          0|
    |layer10_out_30_V_reg_788                                               |    3|   0|    3|          0|
    |layer11_out_0_V_reg_793                                                |   16|   0|   16|          0|
    |layer2_out_11_V_reg_573                                                |   16|   0|   16|          0|
    |layer2_out_12_V_reg_578                                                |   16|   0|   16|          0|
    |layer2_out_16_V_reg_583                                                |   16|   0|   16|          0|
    |layer2_out_19_V_reg_588                                                |   16|   0|   16|          0|
    |layer2_out_23_V_reg_593                                                |   16|   0|   16|          0|
    |layer2_out_33_V_reg_598                                                |   16|   0|   16|          0|
    |layer2_out_37_V_reg_603                                                |   16|   0|   16|          0|
    |layer2_out_40_V_reg_608                                                |   16|   0|   16|          0|
    |layer2_out_43_V_reg_613                                                |   16|   0|   16|          0|
    |layer2_out_48_V_reg_618                                                |   16|   0|   16|          0|
    |layer2_out_50_V_reg_623                                                |   16|   0|   16|          0|
    |layer2_out_51_V_reg_628                                                |   16|   0|   16|          0|
    |layer2_out_56_V_reg_633                                                |   16|   0|   16|          0|
    |layer4_out_11_V_reg_638                                                |    3|   0|    3|          0|
    |layer4_out_12_V_reg_643                                                |    3|   0|    3|          0|
    |layer4_out_16_V_reg_648                                                |    3|   0|    3|          0|
    |layer4_out_19_V_reg_653                                                |    3|   0|    3|          0|
    |layer4_out_23_V_reg_658                                                |    3|   0|    3|          0|
    |layer4_out_33_V_reg_663                                                |    3|   0|    3|          0|
    |layer4_out_37_V_reg_668                                                |    3|   0|    3|          0|
    |layer4_out_40_V_reg_673                                                |    3|   0|    3|          0|
    |layer4_out_43_V_reg_678                                                |    3|   0|    3|          0|
    |layer4_out_48_V_reg_683                                                |    3|   0|    3|          0|
    |layer4_out_50_V_reg_688                                                |    3|   0|    3|          0|
    |layer4_out_51_V_reg_693                                                |    3|   0|    3|          0|
    |layer4_out_56_V_reg_698                                                |    3|   0|    3|          0|
    |layer5_out_11_V_reg_708                                                |   16|   0|   16|          0|
    |layer5_out_14_V_reg_713                                                |   16|   0|   16|          0|
    |layer5_out_24_V_reg_718                                                |   16|   0|   16|          0|
    |layer5_out_26_V_reg_723                                                |   16|   0|   16|          0|
    |layer5_out_9_V_reg_703                                                 |   16|   0|   16|          0|
    |layer7_out_11_V_reg_733                                                |    3|   0|    3|          0|
    |layer7_out_14_V_reg_738                                                |    3|   0|    3|          0|
    |layer7_out_24_V_reg_743                                                |    3|   0|    3|          0|
    |layer7_out_26_V_reg_748                                                |    3|   0|    3|          0|
    |layer7_out_9_V_reg_728                                                 |    3|   0|    3|          0|
    |qfc1_input_V_ap_vld_preg                                               |    1|   0|    1|          0|
    |qfc1_input_V_preg                                                      |  272|   0|  272|          0|
    +-----------------------------------------------------------------------+-----+----+-----+-----------+
    |Total                                                                  |  665|   0|  665|          0|
    +-----------------------------------------------------------------------+-----+----+-----+-----------+



================================================================
== Interface
================================================================
* Summary: 
+-------------------------+-----+-----+------------+------------------+--------------+
|        RTL Ports        | Dir | Bits|  Protocol  |   Source Object  |    C Type    |
+-------------------------+-----+-----+------------+------------------+--------------+
|ap_clk                   |  in |    1| ap_ctrl_hs |     myproject    | return value |
|ap_rst                   |  in |    1| ap_ctrl_hs |     myproject    | return value |
|ap_start                 |  in |    1| ap_ctrl_hs |     myproject    | return value |
|ap_done                  | out |    1| ap_ctrl_hs |     myproject    | return value |
|ap_idle                  | out |    1| ap_ctrl_hs |     myproject    | return value |
|ap_ready                 | out |    1| ap_ctrl_hs |     myproject    | return value |
|qfc1_input_V_ap_vld      |  in |    1|   ap_vld   |   qfc1_input_V   |    pointer   |
|qfc1_input_V             |  in |  272|   ap_vld   |   qfc1_input_V   |    pointer   |
|layer13_out_0_V          | out |    8|   ap_vld   |  layer13_out_0_V |    pointer   |
|layer13_out_0_V_ap_vld   | out |    1|   ap_vld   |  layer13_out_0_V |    pointer   |
|const_size_in_1          | out |   16|   ap_vld   |  const_size_in_1 |    pointer   |
|const_size_in_1_ap_vld   | out |    1|   ap_vld   |  const_size_in_1 |    pointer   |
|const_size_out_1         | out |   16|   ap_vld   | const_size_out_1 |    pointer   |
|const_size_out_1_ap_vld  | out |    1|   ap_vld   | const_size_out_1 |    pointer   |
+-------------------------+-----+-----+------------+------------------+--------------+

