

================================================================
== Vivado HLS Report for 'relu_ap_fixed_ap_ufixed_3_1_0_0_0_relu_config4_s'
================================================================
* Date:           Fri Jun 10 13:49:45 2022

* Version:        2020.1 (Build 2897737 on Wed May 27 20:21:37 MDT 2020)
* Project:        myproject_prj
* Solution:       solution1
* Product family: virtexuplus
* Target device:  xcvu9p-flga2104-2L-e


================================================================
== Performance Estimates
================================================================
+ Timing: 
    * Summary: 
    +--------+---------+----------+------------+
    |  Clock |  Target | Estimated| Uncertainty|
    +--------+---------+----------+------------+
    |ap_clk  | 4.17 ns | 0.954 ns |   0.52 ns  |
    +--------+---------+----------+------------+

+ Latency: 
    * Summary: 
    +---------+---------+----------+----------+-----+-----+----------+
    |  Latency (cycles) |  Latency (absolute) |  Interval | Pipeline |
    |   min   |   max   |    min   |    max   | min | max |   Type   |
    +---------+---------+----------+----------+-----+-----+----------+
    |        0|        0|   0 ns   |   0 ns   |    1|    1| function |
    +---------+---------+----------+----------+-----+-----+----------+

    + Detail: 
        * Instance: 
        N/A

        * Loop: 
        N/A



================================================================
== Utilization Estimates
================================================================
* Summary: 
+---------------------+---------+-------+---------+---------+-----+
|         Name        | BRAM_18K| DSP48E|    FF   |   LUT   | URAM|
+---------------------+---------+-------+---------+---------+-----+
|DSP                  |        -|      -|        -|        -|    -|
|Expression           |        -|      -|        0|      754|    -|
|FIFO                 |        -|      -|        -|        -|    -|
|Instance             |        -|      -|        -|        -|    -|
|Memory               |        -|      -|        -|        -|    -|
|Multiplexer          |        -|      -|        -|        -|    -|
|Register             |        -|      -|        -|        -|    -|
+---------------------+---------+-------+---------+---------+-----+
|Total                |        0|      0|        0|      754|    0|
+---------------------+---------+-------+---------+---------+-----+
|Available SLR        |     1440|   2280|   788160|   394080|  320|
+---------------------+---------+-------+---------+---------+-----+
|Utilization SLR (%)  |        0|      0|        0|    ~0   |    0|
+---------------------+---------+-------+---------+---------+-----+
|Available            |     4320|   6840|  2364480|  1182240|  960|
+---------------------+---------+-------+---------+---------+-----+
|Utilization (%)      |        0|      0|        0|    ~0   |    0|
+---------------------+---------+-------+---------+---------+-----+

+ Detail: 
    * Instance: 
    N/A

    * DSP48E: 
    N/A

    * Memory: 
    N/A

    * FIFO: 
    N/A

    * Expression: 
    +-----------------------------+----------+-------+---+----+------------+------------+
    |        Variable Name        | Operation| DSP48E| FF| LUT| Bitwidth P0| Bitwidth P1|
    +-----------------------------+----------+-------+---+----+------------+------------+
    |add_ln415_10_fu_840_p2       |     +    |      0|  0|  11|           3|           3|
    |add_ln415_11_fu_948_p2       |     +    |      0|  0|  11|           3|           3|
    |add_ln415_12_fu_1056_p2      |     +    |      0|  0|  11|           3|           3|
    |add_ln415_13_fu_1164_p2      |     +    |      0|  0|  11|           3|           3|
    |add_ln415_14_fu_1272_p2      |     +    |      0|  0|  11|           3|           3|
    |add_ln415_15_fu_1380_p2      |     +    |      0|  0|  11|           3|           3|
    |add_ln415_16_fu_1488_p2      |     +    |      0|  0|  11|           3|           3|
    |add_ln415_5_fu_300_p2        |     +    |      0|  0|  11|           3|           3|
    |add_ln415_6_fu_408_p2        |     +    |      0|  0|  11|           3|           3|
    |add_ln415_7_fu_516_p2        |     +    |      0|  0|  11|           3|           3|
    |add_ln415_8_fu_624_p2        |     +    |      0|  0|  11|           3|           3|
    |add_ln415_9_fu_732_p2        |     +    |      0|  0|  11|           3|           3|
    |add_ln415_fu_192_p2          |     +    |      0|  0|  11|           3|           3|
    |and_ln416_10_fu_860_p2       |    and   |      0|  0|   2|           1|           1|
    |and_ln416_11_fu_968_p2       |    and   |      0|  0|   2|           1|           1|
    |and_ln416_12_fu_1076_p2      |    and   |      0|  0|   2|           1|           1|
    |and_ln416_13_fu_1184_p2      |    and   |      0|  0|   2|           1|           1|
    |and_ln416_14_fu_1292_p2      |    and   |      0|  0|   2|           1|           1|
    |and_ln416_15_fu_1400_p2      |    and   |      0|  0|   2|           1|           1|
    |and_ln416_16_fu_1508_p2      |    and   |      0|  0|   2|           1|           1|
    |and_ln416_5_fu_320_p2        |    and   |      0|  0|   2|           1|           1|
    |and_ln416_6_fu_428_p2        |    and   |      0|  0|   2|           1|           1|
    |and_ln416_7_fu_536_p2        |    and   |      0|  0|   2|           1|           1|
    |and_ln416_8_fu_644_p2        |    and   |      0|  0|   2|           1|           1|
    |and_ln416_9_fu_752_p2        |    and   |      0|  0|   2|           1|           1|
    |and_ln416_fu_212_p2          |    and   |      0|  0|   2|           1|           1|
    |icmp_ln1494_10_fu_804_p2     |   icmp   |      0|  0|  13|          16|           1|
    |icmp_ln1494_11_fu_912_p2     |   icmp   |      0|  0|  13|          16|           1|
    |icmp_ln1494_12_fu_1020_p2    |   icmp   |      0|  0|  13|          16|           1|
    |icmp_ln1494_13_fu_1128_p2    |   icmp   |      0|  0|  13|          16|           1|
    |icmp_ln1494_14_fu_1236_p2    |   icmp   |      0|  0|  13|          16|           1|
    |icmp_ln1494_15_fu_1344_p2    |   icmp   |      0|  0|  13|          16|           1|
    |icmp_ln1494_16_fu_1452_p2    |   icmp   |      0|  0|  13|          16|           1|
    |icmp_ln1494_5_fu_264_p2      |   icmp   |      0|  0|  13|          16|           1|
    |icmp_ln1494_6_fu_372_p2      |   icmp   |      0|  0|  13|          16|           1|
    |icmp_ln1494_7_fu_480_p2      |   icmp   |      0|  0|  13|          16|           1|
    |icmp_ln1494_8_fu_588_p2      |   icmp   |      0|  0|  13|          16|           1|
    |icmp_ln1494_9_fu_696_p2      |   icmp   |      0|  0|  13|          16|           1|
    |icmp_ln1494_fu_156_p2        |   icmp   |      0|  0|  13|          16|           1|
    |icmp_ln768_10_fu_882_p2      |   icmp   |      0|  0|  11|           7|           1|
    |icmp_ln768_11_fu_990_p2      |   icmp   |      0|  0|  11|           7|           1|
    |icmp_ln768_12_fu_1098_p2     |   icmp   |      0|  0|  11|           7|           1|
    |icmp_ln768_13_fu_1206_p2     |   icmp   |      0|  0|  11|           7|           1|
    |icmp_ln768_14_fu_1314_p2     |   icmp   |      0|  0|  11|           7|           1|
    |icmp_ln768_15_fu_1422_p2     |   icmp   |      0|  0|  11|           7|           1|
    |icmp_ln768_16_fu_1530_p2     |   icmp   |      0|  0|  11|           7|           1|
    |icmp_ln768_5_fu_342_p2       |   icmp   |      0|  0|  11|           7|           1|
    |icmp_ln768_6_fu_450_p2       |   icmp   |      0|  0|  11|           7|           1|
    |icmp_ln768_7_fu_558_p2       |   icmp   |      0|  0|  11|           7|           1|
    |icmp_ln768_8_fu_666_p2       |   icmp   |      0|  0|  11|           7|           1|
    |icmp_ln768_9_fu_774_p2       |   icmp   |      0|  0|  11|           7|           1|
    |icmp_ln768_fu_234_p2         |   icmp   |      0|  0|  11|           7|           1|
    |icmp_ln879_10_fu_876_p2      |   icmp   |      0|  0|  11|           7|           2|
    |icmp_ln879_11_fu_984_p2      |   icmp   |      0|  0|  11|           7|           2|
    |icmp_ln879_12_fu_1092_p2     |   icmp   |      0|  0|  11|           7|           2|
    |icmp_ln879_13_fu_1200_p2     |   icmp   |      0|  0|  11|           7|           2|
    |icmp_ln879_14_fu_1308_p2     |   icmp   |      0|  0|  11|           7|           2|
    |icmp_ln879_15_fu_1416_p2     |   icmp   |      0|  0|  11|           7|           2|
    |icmp_ln879_16_fu_1524_p2     |   icmp   |      0|  0|  11|           7|           2|
    |icmp_ln879_5_fu_336_p2       |   icmp   |      0|  0|  11|           7|           2|
    |icmp_ln879_6_fu_444_p2       |   icmp   |      0|  0|  11|           7|           2|
    |icmp_ln879_7_fu_552_p2       |   icmp   |      0|  0|  11|           7|           2|
    |icmp_ln879_8_fu_660_p2       |   icmp   |      0|  0|  11|           7|           2|
    |icmp_ln879_9_fu_768_p2       |   icmp   |      0|  0|  11|           7|           2|
    |icmp_ln879_fu_228_p2         |   icmp   |      0|  0|  11|           7|           2|
    |select_ln1494_10_fu_904_p3   |  select  |      0|  0|   3|           1|           3|
    |select_ln1494_11_fu_1012_p3  |  select  |      0|  0|   3|           1|           3|
    |select_ln1494_12_fu_1120_p3  |  select  |      0|  0|   3|           1|           3|
    |select_ln1494_13_fu_1228_p3  |  select  |      0|  0|   3|           1|           3|
    |select_ln1494_14_fu_1336_p3  |  select  |      0|  0|   3|           1|           3|
    |select_ln1494_15_fu_1444_p3  |  select  |      0|  0|   3|           1|           3|
    |select_ln1494_16_fu_1552_p3  |  select  |      0|  0|   3|           1|           3|
    |select_ln1494_5_fu_364_p3    |  select  |      0|  0|   3|           1|           3|
    |select_ln1494_6_fu_472_p3    |  select  |      0|  0|   3|           1|           3|
    |select_ln1494_7_fu_580_p3    |  select  |      0|  0|   3|           1|           3|
    |select_ln1494_8_fu_688_p3    |  select  |      0|  0|   3|           1|           3|
    |select_ln1494_9_fu_796_p3    |  select  |      0|  0|   3|           1|           3|
    |select_ln1494_fu_256_p3      |  select  |      0|  0|   3|           1|           3|
    |select_ln340_10_fu_896_p3    |  select  |      0|  0|   3|           1|           3|
    |select_ln340_11_fu_1004_p3   |  select  |      0|  0|   3|           1|           3|
    |select_ln340_12_fu_1112_p3   |  select  |      0|  0|   3|           1|           3|
    |select_ln340_13_fu_1220_p3   |  select  |      0|  0|   3|           1|           3|
    |select_ln340_14_fu_1328_p3   |  select  |      0|  0|   3|           1|           3|
    |select_ln340_15_fu_1436_p3   |  select  |      0|  0|   3|           1|           3|
    |select_ln340_16_fu_1544_p3   |  select  |      0|  0|   3|           1|           3|
    |select_ln340_5_fu_356_p3     |  select  |      0|  0|   3|           1|           3|
    |select_ln340_6_fu_464_p3     |  select  |      0|  0|   3|           1|           3|
    |select_ln340_7_fu_572_p3     |  select  |      0|  0|   3|           1|           3|
    |select_ln340_8_fu_680_p3     |  select  |      0|  0|   3|           1|           3|
    |select_ln340_9_fu_788_p3     |  select  |      0|  0|   3|           1|           3|
    |select_ln340_fu_248_p3       |  select  |      0|  0|   3|           1|           3|
    |select_ln777_10_fu_888_p3    |  select  |      0|  0|   2|           1|           1|
    |select_ln777_11_fu_996_p3    |  select  |      0|  0|   2|           1|           1|
    |select_ln777_12_fu_1104_p3   |  select  |      0|  0|   2|           1|           1|
    |select_ln777_13_fu_1212_p3   |  select  |      0|  0|   2|           1|           1|
    |select_ln777_14_fu_1320_p3   |  select  |      0|  0|   2|           1|           1|
    |select_ln777_15_fu_1428_p3   |  select  |      0|  0|   2|           1|           1|
    |select_ln777_16_fu_1536_p3   |  select  |      0|  0|   2|           1|           1|
    |select_ln777_5_fu_348_p3     |  select  |      0|  0|   2|           1|           1|
    |select_ln777_6_fu_456_p3     |  select  |      0|  0|   2|           1|           1|
    |select_ln777_7_fu_564_p3     |  select  |      0|  0|   2|           1|           1|
    |select_ln777_8_fu_672_p3     |  select  |      0|  0|   2|           1|           1|
    |select_ln777_9_fu_780_p3     |  select  |      0|  0|   2|           1|           1|
    |select_ln777_fu_240_p3       |  select  |      0|  0|   2|           1|           1|
    |xor_ln416_10_fu_854_p2       |    xor   |      0|  0|   2|           1|           2|
    |xor_ln416_11_fu_962_p2       |    xor   |      0|  0|   2|           1|           2|
    |xor_ln416_12_fu_1070_p2      |    xor   |      0|  0|   2|           1|           2|
    |xor_ln416_13_fu_1178_p2      |    xor   |      0|  0|   2|           1|           2|
    |xor_ln416_14_fu_1286_p2      |    xor   |      0|  0|   2|           1|           2|
    |xor_ln416_15_fu_1394_p2      |    xor   |      0|  0|   2|           1|           2|
    |xor_ln416_16_fu_1502_p2      |    xor   |      0|  0|   2|           1|           2|
    |xor_ln416_5_fu_314_p2        |    xor   |      0|  0|   2|           1|           2|
    |xor_ln416_6_fu_422_p2        |    xor   |      0|  0|   2|           1|           2|
    |xor_ln416_7_fu_530_p2        |    xor   |      0|  0|   2|           1|           2|
    |xor_ln416_8_fu_638_p2        |    xor   |      0|  0|   2|           1|           2|
    |xor_ln416_9_fu_746_p2        |    xor   |      0|  0|   2|           1|           2|
    |xor_ln416_fu_206_p2          |    xor   |      0|  0|   2|           1|           2|
    +-----------------------------+----------+-------+---+----+------------+------------+
    |Total                        |          |      0|  0| 754|         494|         221|
    +-----------------------------+----------+-------+---+----+------------+------------+

    * Multiplexer: 
    N/A

    * Register: 
    N/A



================================================================
== Interface
================================================================
* Summary: 
+----------------+-----+-----+------------+--------------------------------------------------+--------------+
|    RTL Ports   | Dir | Bits|  Protocol  |                   Source Object                  |    C Type    |
+----------------+-----+-----+------------+--------------------------------------------------+--------------+
|ap_ready        | out |    1| ap_ctrl_hs | relu<ap_fixed,ap_ufixed<3,1,0,0,0>,relu_config4> | return value |
|ap_return_0     | out |    3| ap_ctrl_hs | relu<ap_fixed,ap_ufixed<3,1,0,0,0>,relu_config4> | return value |
|ap_return_1     | out |    3| ap_ctrl_hs | relu<ap_fixed,ap_ufixed<3,1,0,0,0>,relu_config4> | return value |
|ap_return_2     | out |    3| ap_ctrl_hs | relu<ap_fixed,ap_ufixed<3,1,0,0,0>,relu_config4> | return value |
|ap_return_3     | out |    3| ap_ctrl_hs | relu<ap_fixed,ap_ufixed<3,1,0,0,0>,relu_config4> | return value |
|ap_return_4     | out |    3| ap_ctrl_hs | relu<ap_fixed,ap_ufixed<3,1,0,0,0>,relu_config4> | return value |
|ap_return_5     | out |    3| ap_ctrl_hs | relu<ap_fixed,ap_ufixed<3,1,0,0,0>,relu_config4> | return value |
|ap_return_6     | out |    3| ap_ctrl_hs | relu<ap_fixed,ap_ufixed<3,1,0,0,0>,relu_config4> | return value |
|ap_return_7     | out |    3| ap_ctrl_hs | relu<ap_fixed,ap_ufixed<3,1,0,0,0>,relu_config4> | return value |
|ap_return_8     | out |    3| ap_ctrl_hs | relu<ap_fixed,ap_ufixed<3,1,0,0,0>,relu_config4> | return value |
|ap_return_9     | out |    3| ap_ctrl_hs | relu<ap_fixed,ap_ufixed<3,1,0,0,0>,relu_config4> | return value |
|ap_return_10    | out |    3| ap_ctrl_hs | relu<ap_fixed,ap_ufixed<3,1,0,0,0>,relu_config4> | return value |
|ap_return_11    | out |    3| ap_ctrl_hs | relu<ap_fixed,ap_ufixed<3,1,0,0,0>,relu_config4> | return value |
|ap_return_12    | out |    3| ap_ctrl_hs | relu<ap_fixed,ap_ufixed<3,1,0,0,0>,relu_config4> | return value |
|data_11_V_read  |  in |   16|   ap_none  |                  data_11_V_read                  |    scalar    |
|data_12_V_read  |  in |   16|   ap_none  |                  data_12_V_read                  |    scalar    |
|data_16_V_read  |  in |   16|   ap_none  |                  data_16_V_read                  |    scalar    |
|data_19_V_read  |  in |   16|   ap_none  |                  data_19_V_read                  |    scalar    |
|data_23_V_read  |  in |   16|   ap_none  |                  data_23_V_read                  |    scalar    |
|data_33_V_read  |  in |   16|   ap_none  |                  data_33_V_read                  |    scalar    |
|data_37_V_read  |  in |   16|   ap_none  |                  data_37_V_read                  |    scalar    |
|data_40_V_read  |  in |   16|   ap_none  |                  data_40_V_read                  |    scalar    |
|data_43_V_read  |  in |   16|   ap_none  |                  data_43_V_read                  |    scalar    |
|data_48_V_read  |  in |   16|   ap_none  |                  data_48_V_read                  |    scalar    |
|data_50_V_read  |  in |   16|   ap_none  |                  data_50_V_read                  |    scalar    |
|data_51_V_read  |  in |   16|   ap_none  |                  data_51_V_read                  |    scalar    |
|data_56_V_read  |  in |   16|   ap_none  |                  data_56_V_read                  |    scalar    |
+----------------+-----+-----+------------+--------------------------------------------------+--------------+

