

================================================================
== Vivado HLS Report for 'relu_ap_fixed_ap_ufixed_3_1_0_0_0_relu_config7_s'
================================================================
* Date:           Fri Jun 10 13:49:46 2022

* Version:        2020.1 (Build 2897737 on Wed May 27 20:21:37 MDT 2020)
* Project:        myproject_prj
* Solution:       solution1
* Product family: virtexuplus
* Target device:  xcvu9p-flga2104-2L-e


================================================================
== Performance Estimates
================================================================
+ Timing: 
    * Summary: 
    +--------+---------+----------+------------+
    |  Clock |  Target | Estimated| Uncertainty|
    +--------+---------+----------+------------+
    |ap_clk  | 4.17 ns | 0.954 ns |   0.52 ns  |
    +--------+---------+----------+------------+

+ Latency: 
    * Summary: 
    +---------+---------+----------+----------+-----+-----+----------+
    |  Latency (cycles) |  Latency (absolute) |  Interval | Pipeline |
    |   min   |   max   |    min   |    max   | min | max |   Type   |
    +---------+---------+----------+----------+-----+-----+----------+
    |        0|        0|   0 ns   |   0 ns   |    1|    1| function |
    +---------+---------+----------+----------+-----+-----+----------+

    + Detail: 
        * Instance: 
        N/A

        * Loop: 
        N/A



================================================================
== Utilization Estimates
================================================================
* Summary: 
+---------------------+---------+-------+---------+---------+-----+
|         Name        | BRAM_18K| DSP48E|    FF   |   LUT   | URAM|
+---------------------+---------+-------+---------+---------+-----+
|DSP                  |        -|      -|        -|        -|    -|
|Expression           |        -|      -|        0|      290|    -|
|FIFO                 |        -|      -|        -|        -|    -|
|Instance             |        -|      -|        -|        -|    -|
|Memory               |        -|      -|        -|        -|    -|
|Multiplexer          |        -|      -|        -|        -|    -|
|Register             |        -|      -|        -|        -|    -|
+---------------------+---------+-------+---------+---------+-----+
|Total                |        0|      0|        0|      290|    0|
+---------------------+---------+-------+---------+---------+-----+
|Available SLR        |     1440|   2280|   788160|   394080|  320|
+---------------------+---------+-------+---------+---------+-----+
|Utilization SLR (%)  |        0|      0|        0|    ~0   |    0|
+---------------------+---------+-------+---------+---------+-----+
|Available            |     4320|   6840|  2364480|  1182240|  960|
+---------------------+---------+-------+---------+---------+-----+
|Utilization (%)      |        0|      0|        0|    ~0   |    0|
+---------------------+---------+-------+---------+---------+-----+

+ Detail: 
    * Instance: 
    N/A

    * DSP48E: 
    N/A

    * Memory: 
    N/A

    * FIFO: 
    N/A

    * Expression: 
    +---------------------------+----------+-------+---+----+------------+------------+
    |       Variable Name       | Operation| DSP48E| FF| LUT| Bitwidth P0| Bitwidth P1|
    +---------------------------+----------+-------+---+----+------------+------------+
    |add_ln415_1_fu_236_p2      |     +    |      0|  0|  11|           3|           3|
    |add_ln415_2_fu_344_p2      |     +    |      0|  0|  11|           3|           3|
    |add_ln415_3_fu_452_p2      |     +    |      0|  0|  11|           3|           3|
    |add_ln415_4_fu_560_p2      |     +    |      0|  0|  11|           3|           3|
    |add_ln415_fu_128_p2        |     +    |      0|  0|  11|           3|           3|
    |and_ln416_1_fu_256_p2      |    and   |      0|  0|   2|           1|           1|
    |and_ln416_2_fu_364_p2      |    and   |      0|  0|   2|           1|           1|
    |and_ln416_3_fu_472_p2      |    and   |      0|  0|   2|           1|           1|
    |and_ln416_4_fu_580_p2      |    and   |      0|  0|   2|           1|           1|
    |and_ln416_fu_148_p2        |    and   |      0|  0|   2|           1|           1|
    |icmp_ln1494_1_fu_200_p2    |   icmp   |      0|  0|  13|          16|           1|
    |icmp_ln1494_2_fu_308_p2    |   icmp   |      0|  0|  13|          16|           1|
    |icmp_ln1494_3_fu_416_p2    |   icmp   |      0|  0|  13|          16|           1|
    |icmp_ln1494_4_fu_524_p2    |   icmp   |      0|  0|  13|          16|           1|
    |icmp_ln1494_fu_92_p2       |   icmp   |      0|  0|  13|          16|           1|
    |icmp_ln768_1_fu_278_p2     |   icmp   |      0|  0|  11|           7|           1|
    |icmp_ln768_2_fu_386_p2     |   icmp   |      0|  0|  11|           7|           1|
    |icmp_ln768_3_fu_494_p2     |   icmp   |      0|  0|  11|           7|           1|
    |icmp_ln768_4_fu_602_p2     |   icmp   |      0|  0|  11|           7|           1|
    |icmp_ln768_fu_170_p2       |   icmp   |      0|  0|  11|           7|           1|
    |icmp_ln879_1_fu_272_p2     |   icmp   |      0|  0|  11|           7|           2|
    |icmp_ln879_2_fu_380_p2     |   icmp   |      0|  0|  11|           7|           2|
    |icmp_ln879_3_fu_488_p2     |   icmp   |      0|  0|  11|           7|           2|
    |icmp_ln879_4_fu_596_p2     |   icmp   |      0|  0|  11|           7|           2|
    |icmp_ln879_fu_164_p2       |   icmp   |      0|  0|  11|           7|           2|
    |select_ln1494_1_fu_300_p3  |  select  |      0|  0|   3|           1|           3|
    |select_ln1494_2_fu_408_p3  |  select  |      0|  0|   3|           1|           3|
    |select_ln1494_3_fu_516_p3  |  select  |      0|  0|   3|           1|           3|
    |select_ln1494_4_fu_624_p3  |  select  |      0|  0|   3|           1|           3|
    |select_ln1494_fu_192_p3    |  select  |      0|  0|   3|           1|           3|
    |select_ln340_1_fu_292_p3   |  select  |      0|  0|   3|           1|           3|
    |select_ln340_2_fu_400_p3   |  select  |      0|  0|   3|           1|           3|
    |select_ln340_3_fu_508_p3   |  select  |      0|  0|   3|           1|           3|
    |select_ln340_4_fu_616_p3   |  select  |      0|  0|   3|           1|           3|
    |select_ln340_fu_184_p3     |  select  |      0|  0|   3|           1|           3|
    |select_ln777_1_fu_284_p3   |  select  |      0|  0|   2|           1|           1|
    |select_ln777_2_fu_392_p3   |  select  |      0|  0|   2|           1|           1|
    |select_ln777_3_fu_500_p3   |  select  |      0|  0|   2|           1|           1|
    |select_ln777_4_fu_608_p3   |  select  |      0|  0|   2|           1|           1|
    |select_ln777_fu_176_p3     |  select  |      0|  0|   2|           1|           1|
    |xor_ln416_1_fu_250_p2      |    xor   |      0|  0|   2|           1|           2|
    |xor_ln416_2_fu_358_p2      |    xor   |      0|  0|   2|           1|           2|
    |xor_ln416_3_fu_466_p2      |    xor   |      0|  0|   2|           1|           2|
    |xor_ln416_4_fu_574_p2      |    xor   |      0|  0|   2|           1|           2|
    |xor_ln416_fu_142_p2        |    xor   |      0|  0|   2|           1|           2|
    +---------------------------+----------+-------+---+----+------------+------------+
    |Total                      |          |      0|  0| 290|         190|          85|
    +---------------------------+----------+-------+---+----+------------+------------+

    * Multiplexer: 
    N/A

    * Register: 
    N/A



================================================================
== Interface
================================================================
* Summary: 
+----------------+-----+-----+------------+--------------------------------------------------+--------------+
|    RTL Ports   | Dir | Bits|  Protocol  |                   Source Object                  |    C Type    |
+----------------+-----+-----+------------+--------------------------------------------------+--------------+
|ap_ready        | out |    1| ap_ctrl_hs | relu<ap_fixed,ap_ufixed<3,1,0,0,0>,relu_config7> | return value |
|ap_return_0     | out |    3| ap_ctrl_hs | relu<ap_fixed,ap_ufixed<3,1,0,0,0>,relu_config7> | return value |
|ap_return_1     | out |    3| ap_ctrl_hs | relu<ap_fixed,ap_ufixed<3,1,0,0,0>,relu_config7> | return value |
|ap_return_2     | out |    3| ap_ctrl_hs | relu<ap_fixed,ap_ufixed<3,1,0,0,0>,relu_config7> | return value |
|ap_return_3     | out |    3| ap_ctrl_hs | relu<ap_fixed,ap_ufixed<3,1,0,0,0>,relu_config7> | return value |
|ap_return_4     | out |    3| ap_ctrl_hs | relu<ap_fixed,ap_ufixed<3,1,0,0,0>,relu_config7> | return value |
|data_9_V_read   |  in |   16|   ap_none  |                   data_9_V_read                  |    scalar    |
|data_11_V_read  |  in |   16|   ap_none  |                  data_11_V_read                  |    scalar    |
|data_14_V_read  |  in |   16|   ap_none  |                  data_14_V_read                  |    scalar    |
|data_24_V_read  |  in |   16|   ap_none  |                  data_24_V_read                  |    scalar    |
|data_26_V_read  |  in |   16|   ap_none  |                  data_26_V_read                  |    scalar    |
+----------------+-----+-----+------------+--------------------------------------------------+--------------+

