

================================================================
== Vivado HLS Report for 'relu_ap_fixed_ap_ufixed_3_1_0_0_0_relu_config10_s'
================================================================
* Date:           Fri Jun 10 13:49:47 2022

* Version:        2020.1 (Build 2897737 on Wed May 27 20:21:37 MDT 2020)
* Project:        myproject_prj
* Solution:       solution1
* Product family: virtexuplus
* Target device:  xcvu9p-flga2104-2L-e


================================================================
== Performance Estimates
================================================================
+ Timing: 
    * Summary: 
    +--------+---------+----------+------------+
    |  Clock |  Target | Estimated| Uncertainty|
    +--------+---------+----------+------------+
    |ap_clk  | 4.17 ns | 0.954 ns |   0.52 ns  |
    +--------+---------+----------+------------+

+ Latency: 
    * Summary: 
    +---------+---------+----------+----------+-----+-----+----------+
    |  Latency (cycles) |  Latency (absolute) |  Interval | Pipeline |
    |   min   |   max   |    min   |    max   | min | max |   Type   |
    +---------+---------+----------+----------+-----+-----+----------+
    |        0|        0|   0 ns   |   0 ns   |    1|    1| function |
    +---------+---------+----------+----------+-----+-----+----------+

    + Detail: 
        * Instance: 
        N/A

        * Loop: 
        N/A



================================================================
== Utilization Estimates
================================================================
* Summary: 
+---------------------+---------+-------+---------+---------+-----+
|         Name        | BRAM_18K| DSP48E|    FF   |   LUT   | URAM|
+---------------------+---------+-------+---------+---------+-----+
|DSP                  |        -|      -|        -|        -|    -|
|Expression           |        -|      -|        0|      464|    -|
|FIFO                 |        -|      -|        -|        -|    -|
|Instance             |        -|      -|        -|        -|    -|
|Memory               |        -|      -|        -|        -|    -|
|Multiplexer          |        -|      -|        -|        -|    -|
|Register             |        -|      -|        -|        -|    -|
+---------------------+---------+-------+---------+---------+-----+
|Total                |        0|      0|        0|      464|    0|
+---------------------+---------+-------+---------+---------+-----+
|Available SLR        |     1440|   2280|   788160|   394080|  320|
+---------------------+---------+-------+---------+---------+-----+
|Utilization SLR (%)  |        0|      0|        0|    ~0   |    0|
+---------------------+---------+-------+---------+---------+-----+
|Available            |     4320|   6840|  2364480|  1182240|  960|
+---------------------+---------+-------+---------+---------+-----+
|Utilization (%)      |        0|      0|        0|    ~0   |    0|
+---------------------+---------+-------+---------+---------+-----+

+ Detail: 
    * Instance: 
    N/A

    * DSP48E: 
    N/A

    * Memory: 
    N/A

    * FIFO: 
    N/A

    * Expression: 
    +----------------------------+----------+-------+---+----+------------+------------+
    |        Variable Name       | Operation| DSP48E| FF| LUT| Bitwidth P0| Bitwidth P1|
    +----------------------------+----------+-------+---+----+------------+------------+
    |add_ln415_17_fu_260_p2      |     +    |      0|  0|  11|           3|           3|
    |add_ln415_18_fu_368_p2      |     +    |      0|  0|  11|           3|           3|
    |add_ln415_19_fu_476_p2      |     +    |      0|  0|  11|           3|           3|
    |add_ln415_20_fu_584_p2      |     +    |      0|  0|  11|           3|           3|
    |add_ln415_21_fu_692_p2      |     +    |      0|  0|  11|           3|           3|
    |add_ln415_22_fu_800_p2      |     +    |      0|  0|  11|           3|           3|
    |add_ln415_23_fu_908_p2      |     +    |      0|  0|  11|           3|           3|
    |add_ln415_fu_152_p2         |     +    |      0|  0|  11|           3|           3|
    |and_ln416_17_fu_280_p2      |    and   |      0|  0|   2|           1|           1|
    |and_ln416_18_fu_388_p2      |    and   |      0|  0|   2|           1|           1|
    |and_ln416_19_fu_496_p2      |    and   |      0|  0|   2|           1|           1|
    |and_ln416_20_fu_604_p2      |    and   |      0|  0|   2|           1|           1|
    |and_ln416_21_fu_712_p2      |    and   |      0|  0|   2|           1|           1|
    |and_ln416_22_fu_820_p2      |    and   |      0|  0|   2|           1|           1|
    |and_ln416_23_fu_928_p2      |    and   |      0|  0|   2|           1|           1|
    |and_ln416_fu_172_p2         |    and   |      0|  0|   2|           1|           1|
    |icmp_ln1494_11_fu_116_p2    |   icmp   |      0|  0|  13|          16|           1|
    |icmp_ln1494_12_fu_224_p2    |   icmp   |      0|  0|  13|          16|           1|
    |icmp_ln1494_13_fu_332_p2    |   icmp   |      0|  0|  13|          16|           1|
    |icmp_ln1494_17_fu_548_p2    |   icmp   |      0|  0|  13|          16|           1|
    |icmp_ln1494_18_fu_656_p2    |   icmp   |      0|  0|  13|          16|           1|
    |icmp_ln1494_19_fu_764_p2    |   icmp   |      0|  0|  13|          16|           1|
    |icmp_ln1494_20_fu_872_p2    |   icmp   |      0|  0|  13|          16|           1|
    |icmp_ln1494_fu_440_p2       |   icmp   |      0|  0|  13|          16|           1|
    |icmp_ln768_17_fu_302_p2     |   icmp   |      0|  0|  11|           7|           1|
    |icmp_ln768_18_fu_410_p2     |   icmp   |      0|  0|  11|           7|           1|
    |icmp_ln768_19_fu_518_p2     |   icmp   |      0|  0|  11|           7|           1|
    |icmp_ln768_20_fu_626_p2     |   icmp   |      0|  0|  11|           7|           1|
    |icmp_ln768_21_fu_734_p2     |   icmp   |      0|  0|  11|           7|           1|
    |icmp_ln768_22_fu_842_p2     |   icmp   |      0|  0|  11|           7|           1|
    |icmp_ln768_23_fu_950_p2     |   icmp   |      0|  0|  11|           7|           1|
    |icmp_ln768_fu_194_p2        |   icmp   |      0|  0|  11|           7|           1|
    |icmp_ln879_17_fu_296_p2     |   icmp   |      0|  0|  11|           7|           2|
    |icmp_ln879_18_fu_404_p2     |   icmp   |      0|  0|  11|           7|           2|
    |icmp_ln879_19_fu_512_p2     |   icmp   |      0|  0|  11|           7|           2|
    |icmp_ln879_20_fu_620_p2     |   icmp   |      0|  0|  11|           7|           2|
    |icmp_ln879_21_fu_728_p2     |   icmp   |      0|  0|  11|           7|           2|
    |icmp_ln879_22_fu_836_p2     |   icmp   |      0|  0|  11|           7|           2|
    |icmp_ln879_23_fu_944_p2     |   icmp   |      0|  0|  11|           7|           2|
    |icmp_ln879_fu_188_p2        |   icmp   |      0|  0|  11|           7|           2|
    |select_ln1494_17_fu_324_p3  |  select  |      0|  0|   3|           1|           3|
    |select_ln1494_18_fu_432_p3  |  select  |      0|  0|   3|           1|           3|
    |select_ln1494_19_fu_540_p3  |  select  |      0|  0|   3|           1|           3|
    |select_ln1494_20_fu_648_p3  |  select  |      0|  0|   3|           1|           3|
    |select_ln1494_21_fu_756_p3  |  select  |      0|  0|   3|           1|           3|
    |select_ln1494_22_fu_864_p3  |  select  |      0|  0|   3|           1|           3|
    |select_ln1494_23_fu_972_p3  |  select  |      0|  0|   3|           1|           3|
    |select_ln1494_fu_216_p3     |  select  |      0|  0|   3|           1|           3|
    |select_ln340_11_fu_208_p3   |  select  |      0|  0|   3|           1|           3|
    |select_ln340_12_fu_316_p3   |  select  |      0|  0|   3|           1|           3|
    |select_ln340_13_fu_424_p3   |  select  |      0|  0|   3|           1|           3|
    |select_ln340_17_fu_640_p3   |  select  |      0|  0|   3|           1|           3|
    |select_ln340_18_fu_748_p3   |  select  |      0|  0|   3|           1|           3|
    |select_ln340_19_fu_856_p3   |  select  |      0|  0|   3|           1|           3|
    |select_ln340_20_fu_964_p3   |  select  |      0|  0|   3|           1|           3|
    |select_ln340_fu_532_p3      |  select  |      0|  0|   3|           1|           3|
    |select_ln777_17_fu_308_p3   |  select  |      0|  0|   2|           1|           1|
    |select_ln777_18_fu_416_p3   |  select  |      0|  0|   2|           1|           1|
    |select_ln777_19_fu_524_p3   |  select  |      0|  0|   2|           1|           1|
    |select_ln777_20_fu_632_p3   |  select  |      0|  0|   2|           1|           1|
    |select_ln777_21_fu_740_p3   |  select  |      0|  0|   2|           1|           1|
    |select_ln777_22_fu_848_p3   |  select  |      0|  0|   2|           1|           1|
    |select_ln777_23_fu_956_p3   |  select  |      0|  0|   2|           1|           1|
    |select_ln777_fu_200_p3      |  select  |      0|  0|   2|           1|           1|
    |xor_ln416_17_fu_274_p2      |    xor   |      0|  0|   2|           1|           2|
    |xor_ln416_18_fu_382_p2      |    xor   |      0|  0|   2|           1|           2|
    |xor_ln416_19_fu_490_p2      |    xor   |      0|  0|   2|           1|           2|
    |xor_ln416_20_fu_598_p2      |    xor   |      0|  0|   2|           1|           2|
    |xor_ln416_21_fu_706_p2      |    xor   |      0|  0|   2|           1|           2|
    |xor_ln416_22_fu_814_p2      |    xor   |      0|  0|   2|           1|           2|
    |xor_ln416_23_fu_922_p2      |    xor   |      0|  0|   2|           1|           2|
    |xor_ln416_fu_166_p2         |    xor   |      0|  0|   2|           1|           2|
    +----------------------------+----------+-------+---+----+------------+------------+
    |Total                       |          |      0|  0| 464|         304|         136|
    +----------------------------+----------+-------+---+----+------------+------------+

    * Multiplexer: 
    N/A

    * Register: 
    N/A



================================================================
== Interface
================================================================
* Summary: 
+----------------+-----+-----+------------+---------------------------------------------------+--------------+
|    RTL Ports   | Dir | Bits|  Protocol  |                   Source Object                   |    C Type    |
+----------------+-----+-----+------------+---------------------------------------------------+--------------+
|ap_ready        | out |    1| ap_ctrl_hs | relu<ap_fixed,ap_ufixed<3,1,0,0,0>,relu_config10> | return value |
|ap_return_0     | out |    3| ap_ctrl_hs | relu<ap_fixed,ap_ufixed<3,1,0,0,0>,relu_config10> | return value |
|ap_return_1     | out |    3| ap_ctrl_hs | relu<ap_fixed,ap_ufixed<3,1,0,0,0>,relu_config10> | return value |
|ap_return_2     | out |    3| ap_ctrl_hs | relu<ap_fixed,ap_ufixed<3,1,0,0,0>,relu_config10> | return value |
|ap_return_3     | out |    3| ap_ctrl_hs | relu<ap_fixed,ap_ufixed<3,1,0,0,0>,relu_config10> | return value |
|ap_return_4     | out |    3| ap_ctrl_hs | relu<ap_fixed,ap_ufixed<3,1,0,0,0>,relu_config10> | return value |
|ap_return_5     | out |    3| ap_ctrl_hs | relu<ap_fixed,ap_ufixed<3,1,0,0,0>,relu_config10> | return value |
|ap_return_6     | out |    3| ap_ctrl_hs | relu<ap_fixed,ap_ufixed<3,1,0,0,0>,relu_config10> | return value |
|ap_return_7     | out |    3| ap_ctrl_hs | relu<ap_fixed,ap_ufixed<3,1,0,0,0>,relu_config10> | return value |
|data_11_V_read  |  in |   16|   ap_none  |                   data_11_V_read                  |    scalar    |
|data_12_V_read  |  in |   16|   ap_none  |                   data_12_V_read                  |    scalar    |
|data_13_V_read  |  in |   16|   ap_none  |                   data_13_V_read                  |    scalar    |
|data_17_V_read  |  in |   16|   ap_none  |                   data_17_V_read                  |    scalar    |
|data_20_V_read  |  in |   16|   ap_none  |                   data_20_V_read                  |    scalar    |
|data_21_V_read  |  in |   16|   ap_none  |                   data_21_V_read                  |    scalar    |
|data_26_V_read  |  in |   16|   ap_none  |                   data_26_V_read                  |    scalar    |
|data_30_V_read  |  in |   16|   ap_none  |                   data_30_V_read                  |    scalar    |
+----------------+-----+-----+------------+---------------------------------------------------+--------------+

