00
00
00
00
00
00
00
00
00
00
00
00
00
00
00
00
00
00
00
00
00
00
00
00
00
00
00
00
00
00
00
00
00
00
00
00
00
00
00
00
00
00
00
00
00
00
00
00
00
00
00
00
00
00
00
00
00
00
00
00
00
00
00
00
00
00
00
00
00
00
00
00
00
00
00
00
00
00
00
01
01
01
01
01
01
01
01
01
01
01
01
01
01
01
01
01
01
01
01
01
01
02
02
02
02
02
02
02
02
02
02
02
02
02
02
03
03
03
03
03
03
03
03
03
04
04
04
04
04
04
04
05
05
05
05
05
05
06
06
06
06
06
07
07
07
07
07
08
08
08
08
09
09
09
0A
0A
0A
0B
0B
0B
0C
0C
0C
0D
0D
0E
0E
0E
0F
0F
10
10
11
11
12
12
13
13
14
15
15
16
17
17
18
19
19
1A
1B
1C
1C
1D
1E
1F
20
21
22
22
23
24
25
26
27
29
2A
2B
2C
2D
2E
2F
31
32
33
34
36
37
39
3A
3B
3D
3E
40
41
43
44
46
48
49
4B
4C
4E
50
52
53
55
57
59
5B
5C
5E
60
62
64
66
68
6A
6C
6E
70
72
74
76
78
7A
7C
7E
80
81
83
85
87
89
8B
8D
8F
91
93
95
97
99
9B
9D
9F
A1
A3
A4
A6
A8
AA
AC
AD
AF
B1
B3
B4
B6
B7
B9
BB
BC
BE
BF
C1
C2
C4
C5
C6
C8
C9
CB
CC
CD
CE
D0
D1
D2
D3
D4
D5
D6
D8
D9
DA
DB
DC
DD
DD
DE
DF
E0
E1
E2
E3
E3
E4
E5
E6
E6
E7
E8
E8
E9
EA
EA
EB
EC
EC
ED
ED
EE
EE
EF
EF
F0
F0
F1
F1
F1
F2
F2
F3
F3
F3
F4
F4
F4
F5
F5
F5
F6
F6
F6
F7
F7
F7
F7
F8
F8
F8
F8
F8
F9
F9
F9
F9
F9
FA
FA
FA
FA
FA
FA
FB
FB
FB
FB
FB
FB
FB
FC
FC
FC
FC
FC
FC
FC
FC
FC
FD
FD
FD
FD
FD
FD
FD
FD
FD
FD
FD
FD
FD
FD
FE
FE
FE
FE
FE
FE
FE
FE
FE
FE
FE
FE
FE
FE
FE
FE
FE
FE
FE
FE
FE
FE
FF
FF
FF
FF
FF
FF
FF
FF
FF
FF
FF
FF
FF
FF
FF
FF
FF
FF
FF
FF
FF
FF
FF
FF
FF
FF
FF
FF
FF
FF
FF
FF
FF
FF
FF
FF
FF
FF
FF
FF
FF
FF
FF
FF
FF
FF
FF
FF
FF
FF
FF
FF
FF
FF
FF
FF
FF
FF
FF
FF
FF
FF
FF
FF
FF
FF
FF
FF
FF
FF
FF
FF
FF
FF
FF
FF
FF
FF

