Copyright 1986-2020 Xilinx, Inc. All Rights Reserved.
-----------------------------------------------------------------------------------------------------------------------------------------------------------------------------------------
| Tool Version : Vivado v.2020.1 (lin64) Build 2902540 Wed May 27 19:54:35 MDT 2020
| Date         : Sun May 15 19:05:25 2022
| Host         : gabriele-XMG running 64-bit Ubuntu 20.04.4 LTS
| Command      : report_accelerator_utilization -kernels { krnl_rtl:level0_i/ulp/krnl_rtl_1/inst:krnl_rtl_1} -file ../../../output/kernel_util_placed.rpt -name kernel_util_placed -json
| Design       : level0_wrapper
| Device       : xcu50
| Design State : Fully Placed
-----------------------------------------------------------------------------------------------------------------------------------------------------------------------------------------

Accelerator Utilization Design Information

Table of Contents
-----------------
1. System Utilization

1. System Utilization
---------------------

+---------------------+------------------+------------------+-------------------+----------------+---------------+----------------+
| Name                | LUT              | LUTAsMem         | REG               | BRAM           | URAM          | DSP            |
+---------------------+------------------+------------------+-------------------+----------------+---------------+----------------+
| Platform            | 100230 [ 11.52%] |   8473 [  2.11%] |  123373 [  7.09%] |  178 [ 13.24%] |   0 [  0.00%] |    4 [  0.07%] |
| User Budget         | 769786 [100.00%] | 393543 [100.00%] | 1616659 [100.00%] | 1166 [100.00%] | 640 [100.00%] | 5936 [100.00%] |
|    Used Resources   |   4167 [  0.54%] |      0 [  0.00%] |    1996 [  0.12%] |    2 [  0.17%] |   0 [  0.00%] |    1 [  0.02%] |
|    Unused Resources | 765619 [ 99.46%] | 393543 [100.00%] | 1614663 [ 99.88%] | 1164 [ 99.83%] | 640 [100.00%] | 5935 [ 99.98%] |
| krnl_rtl            |   4167 [  0.54%] |      0 [  0.00%] |    1996 [  0.12%] |    2 [  0.17%] |   0 [  0.00%] |    1 [  0.02%] |
|    krnl_rtl_1       |   4167 [  0.54%] |      0 [  0.00%] |    1996 [  0.12%] |    2 [  0.17%] |   0 [  0.00%] |    1 [  0.02%] |
+---------------------+------------------+------------------+-------------------+----------------+---------------+----------------+


