Copyright 1986-2020 Xilinx, Inc. All Rights Reserved.
-----------------------------------------------------------------------------------------------------------------------------------------------------------------------------------------
| Tool Version : Vivado v.2020.1 (lin64) Build 2902540 Wed May 27 19:54:35 MDT 2020
| Date         : Sun May 15 18:16:52 2022
| Host         : gabriele-XMG running 64-bit Ubuntu 20.04.4 LTS
| Command      : report_accelerator_utilization -kernels { krnl_rtl:level0_i/ulp/krnl_rtl_1/inst:krnl_rtl_1} -file ../../../output/kernel_util_placed.rpt -name kernel_util_placed -json
| Design       : level0_wrapper
| Device       : xcu50
| Design State : Fully Placed
-----------------------------------------------------------------------------------------------------------------------------------------------------------------------------------------

Accelerator Utilization Design Information

Table of Contents
-----------------
1. System Utilization

1. System Utilization
---------------------

+---------------------+------------------+------------------+-------------------+----------------+---------------+----------------+
| Name                | LUT              | LUTAsMem         | REG               | BRAM           | URAM          | DSP            |
+---------------------+------------------+------------------+-------------------+----------------+---------------+----------------+
| Platform            | 100248 [ 11.52%] |   8473 [  2.11%] |  123375 [  7.09%] |  178 [ 13.24%] |   0 [  0.00%] |    4 [  0.07%] |
| User Budget         | 769768 [100.00%] | 393543 [100.00%] | 1616657 [100.00%] | 1166 [100.00%] | 640 [100.00%] | 5936 [100.00%] |
|    Used Resources   |   5248 [  0.68%] |      0 [  0.00%] |    2514 [  0.16%] |    2 [  0.17%] |   0 [  0.00%] |    2 [  0.03%] |
|    Unused Resources | 764520 [ 99.32%] | 393543 [100.00%] | 1614143 [ 99.84%] | 1164 [ 99.83%] | 640 [100.00%] | 5934 [ 99.97%] |
| krnl_rtl            |   5248 [  0.68%] |      0 [  0.00%] |    2514 [  0.16%] |    2 [  0.17%] |   0 [  0.00%] |    2 [  0.03%] |
|    krnl_rtl_1       |   5248 [  0.68%] |      0 [  0.00%] |    2514 [  0.16%] |    2 [  0.17%] |   0 [  0.00%] |    2 [  0.03%] |
+---------------------+------------------+------------------+-------------------+----------------+---------------+----------------+


