{
  "Top": "myproject",
  "RtlTop": "myproject",
  "RtlPrefix": "",
  "SourceLanguage": "cpp",
  "ResetStyle": "control",
  "GenerateBdFiles": "0",
  "HostMachineBits": "64",
  "Target": {
    "Family": "virtexuplus",
    "Device": "xcvu9p",
    "Package": "-flga2104",
    "Speed": "-2L-e"
  },
  "HlsSolution": {"Config": [
      "config_array_partition -maximum_size=4096",
      "config_compile -name_max_length=60",
      "config_export -format=ip_catalog"
    ]},
  "Args": {
    "qfc1_input": {
      "index": "0",
      "type": {
        "kinds": ["array"],
        "dataType": "ap_fixed",
        "arraySizes": ["17"],
        "interfaceRef": "qfc1_input_V"
      }
    },
    "layer10_out": {
      "index": "1",
      "type": {
        "kinds": ["array"],
        "dataType": "ap_ufixed",
        "arraySizes": ["1"]
      }
    },
    "const_size_in_1": {
      "index": "2",
      "type": {
        "dataType": "unsigned",
        "dataWidth": "16",
        "interfaceRef": "const_size_in_1"
      }
    },
    "const_size_out_1": {
      "index": "3",
      "type": {
        "dataType": "unsigned",
        "dataWidth": "16",
        "interfaceRef": "const_size_out_1"
      }
    }
  },
  "Return": {
    
  },
  "ClockInfo": {
    "ClockName": "ap_clk",
    "ClockPeriod": "1.923",
    "IsCombLogic": "0",
    "II": "1",
    "Latency": "14",
    "Uncertainty": "0.240375"
  },
  "Xdc": {"OocClocks": ["create_clock -name ap_clk -period 1.923 [get_ports ap_clk]"]},
  "Ipx": {
    "Vendor": "xilinx.com",
    "Library": "hls",
    "Name": "myproject",
    "Version": "1.0",
    "DisplayName": "Myproject",
    "Revision": "",
    "Description": "An IP generated by Vivado HLS",
    "Taxonomy": "\/VIVADO_HLS_IP",
    "AutoFamilySupport": ""
  },
  "Files": {
    "CSource": ["..\/..\/firmware\/myproject.cpp"],
    "Vhdl": [
      "impl\/vhdl\/dense_latency_0_0_0_0_0_0_0_0_0_0_0_0_0_0_0_0_0_0_0_0_0_0_0_1.vhd",
      "impl\/vhdl\/dense_latency_0_0_0_0_0_0_0_0_0_0_0_0_0_0_0_0_0_0_0_0_0_0_0_s.vhd",
      "impl\/vhdl\/dense_latency_ap_ufixed_ap_fixed_config8_0_0.vhd",
      "impl\/vhdl\/linear_ap_fixed_ap_fixed_16_6_0_0_0_linear_config3_s.vhd",
      "impl\/vhdl\/linear_ap_fixed_ap_fixed_16_6_0_0_0_linear_config6_s.vhd",
      "impl\/vhdl\/linear_ap_fixed_ap_fixed_16_6_0_0_0_linear_config9_s.vhd",
      "impl\/vhdl\/relu_ap_fixed_ap_ufixed_3_1_0_0_0_relu_config4_s.vhd",
      "impl\/vhdl\/relu_ap_fixed_ap_ufixed_3_1_0_0_0_relu_config7_s.vhd",
      "impl\/vhdl\/sigmoid_ap_fixed_ap_ufixed_sigmoid_config10_s.vhd",
      "impl\/vhdl\/sigmoid_ap_fixed_ap_ufixed_sigmoid_config10_s_sigmoid_tabbkb.vhd",
      "impl\/vhdl\/myproject.vhd"
    ],
    "Verilog": [
      "impl\/verilog\/dense_latency_0_0_0_0_0_0_0_0_0_0_0_0_0_0_0_0_0_0_0_0_0_0_0_1.v",
      "impl\/verilog\/dense_latency_0_0_0_0_0_0_0_0_0_0_0_0_0_0_0_0_0_0_0_0_0_0_0_s.v",
      "impl\/verilog\/dense_latency_ap_ufixed_ap_fixed_config8_0_0.v",
      "impl\/verilog\/linear_ap_fixed_ap_fixed_16_6_0_0_0_linear_config3_s.v",
      "impl\/verilog\/linear_ap_fixed_ap_fixed_16_6_0_0_0_linear_config6_s.v",
      "impl\/verilog\/linear_ap_fixed_ap_fixed_16_6_0_0_0_linear_config9_s.v",
      "impl\/verilog\/relu_ap_fixed_ap_ufixed_3_1_0_0_0_relu_config4_s.v",
      "impl\/verilog\/relu_ap_fixed_ap_ufixed_3_1_0_0_0_relu_config7_s.v",
      "impl\/verilog\/sigmoid_ap_fixed_ap_ufixed_sigmoid_config10_s.v",
      "impl\/verilog\/sigmoid_ap_fixed_ap_ufixed_sigmoid_config10_s_sigmoid_tabbkb.v",
      "impl\/verilog\/sigmoid_ap_fixed_ap_ufixed_sigmoid_config10_s_sigmoid_tabbkb_rom.dat",
      "impl\/verilog\/myproject.v"
    ],
    "Misc": ["impl\/misc\/logo.png"],
    "DesignXml": "\/home\/gabriele\/cernbox\/SWAN_projects\/Binary_NN\/projects\/binary\/2_layers_1ele_sigmoid_480\/myproject_prj\/solution1\/.autopilot\/db\/myproject.design.xml",
    "DebugDir": "\/home\/gabriele\/cernbox\/SWAN_projects\/Binary_NN\/projects\/binary\/2_layers_1ele_sigmoid_480\/myproject_prj\/solution1\/.debug",
    "ProtoInst": ["\/home\/gabriele\/cernbox\/SWAN_projects\/Binary_NN\/projects\/binary\/2_layers_1ele_sigmoid_480\/myproject_prj\/solution1\/.debug\/myproject.protoinst"]
  },
  "SubcoreInfo": {
    "HasXpmMemory": false,
    "HasClockedDsp": false,
    "IP": []
  },
  "Interfaces": {
    "ap_clk": {
      "type": "clock",
      "ctype": {"CLK": {"Type": "bool"}},
      "bundle_name": "ap_clk",
      "bundle_role": "default",
      "reset": "ap_rst"
    },
    "ap_ctrl": {
      "type": "ap_ctrl",
      "ctrl_ports": "ap_start ap_done ap_idle ap_ready",
      "ctype": {
        "start": {"Type": "bool"},
        "done": {"Type": "bool"},
        "idle": {"Type": "bool"},
        "ready": {"Type": "bool"}
      }
    },
    "ap_rst": {
      "type": "reset",
      "polarity": "ACTIVE_HIGH",
      "ctype": {"RST": {"Type": "bool"}},
      "bundle_name": "ap_rst",
      "bundle_role": "default"
    },
    "const_size_in_1": {
      "type": "data",
      "dir": "out",
      "width": "16",
      "ctype": {"DATA": {
          "Type": "integer unsigned",
          "Width": "16"
        }},
      "bundle_name": "const_size_in_1",
      "bundle_role": "default"
    },
    "const_size_out_1": {
      "type": "data",
      "dir": "out",
      "width": "16",
      "ctype": {"DATA": {
          "Type": "integer unsigned",
          "Width": "16"
        }},
      "bundle_name": "const_size_out_1",
      "bundle_role": "default"
    },
    "layer10_out_0_V": {
      "type": "data",
      "dir": "out",
      "width": "8",
      "ctype": {"DATA": {
          "Type": "real fixed unsigned 8",
          "Width": "8"
        }},
      "bundle_name": "layer10_out_0_V",
      "bundle_role": "default"
    },
    "qfc1_input_V": {
      "type": "data",
      "dir": "in",
      "width": "272",
      "ctype": {"DATA": {
          "Type": "real fixed signed 10",
          "Width": "16",
          "Bits": "272"
        }},
      "bundle_name": "qfc1_input_V",
      "bundle_role": "default"
    }
  },
  "RtlPorts": {
    "ap_clk": {
      "dir": "in",
      "width": "1"
    },
    "ap_rst": {
      "dir": "in",
      "width": "1"
    },
    "ap_start": {
      "dir": "in",
      "width": "1"
    },
    "ap_done": {
      "dir": "out",
      "width": "1"
    },
    "ap_idle": {
      "dir": "out",
      "width": "1"
    },
    "ap_ready": {
      "dir": "out",
      "width": "1"
    },
    "qfc1_input_V_ap_vld": {
      "dir": "in",
      "width": "1"
    },
    "qfc1_input_V": {
      "dir": "in",
      "width": "272"
    },
    "layer10_out_0_V": {
      "dir": "out",
      "width": "8"
    },
    "layer10_out_0_V_ap_vld": {
      "dir": "out",
      "width": "1"
    },
    "const_size_in_1": {
      "dir": "out",
      "width": "16"
    },
    "const_size_in_1_ap_vld": {
      "dir": "out",
      "width": "1"
    },
    "const_size_out_1": {
      "dir": "out",
      "width": "16"
    },
    "const_size_out_1_ap_vld": {
      "dir": "out",
      "width": "1"
    }
  },
  "ModuleInfo": {
    "Hierarchy": {
      "ModuleName": "myproject",
      "Instances": [
        {
          "ModuleName": "dense_latency_0_0_0_0_0_0_0_0_0_0_0_0_0_0_0_0_0_0_0_0_0_0_0_1",
          "InstanceName": "grp_dense_latency_0_0_0_0_0_0_0_0_0_0_0_0_0_0_0_0_0_0_0_0_0_0_0_1_fu_87"
        },
        {
          "ModuleName": "dense_latency_0_0_0_0_0_0_0_0_0_0_0_0_0_0_0_0_0_0_0_0_0_0_0_s",
          "InstanceName": "grp_dense_latency_0_0_0_0_0_0_0_0_0_0_0_0_0_0_0_0_0_0_0_0_0_0_0_s_fu_93"
        },
        {
          "ModuleName": "relu_ap_fixed_ap_ufixed_3_1_0_0_0_relu_config4_s",
          "InstanceName": "call_ret2_relu_ap_fixed_ap_ufixed_3_1_0_0_0_relu_config4_s_fu_109"
        },
        {
          "ModuleName": "relu_ap_fixed_ap_ufixed_3_1_0_0_0_relu_config7_s",
          "InstanceName": "call_ret5_relu_ap_fixed_ap_ufixed_3_1_0_0_0_relu_config7_s_fu_125"
        },
        {
          "ModuleName": "dense_latency_ap_ufixed_ap_fixed_config8_0_0",
          "InstanceName": "grp_dense_latency_ap_ufixed_ap_fixed_config8_0_0_fu_137"
        },
        {
          "ModuleName": "sigmoid_ap_fixed_ap_ufixed_sigmoid_config10_s",
          "InstanceName": "grp_sigmoid_ap_fixed_ap_ufixed_sigmoid_config10_s_fu_149"
        },
        {
          "ModuleName": "linear_ap_fixed_ap_fixed_16_6_0_0_0_linear_config3_s",
          "InstanceName": "call_ret1_linear_ap_fixed_ap_fixed_16_6_0_0_0_linear_config3_s_fu_157"
        },
        {
          "ModuleName": "linear_ap_fixed_ap_fixed_16_6_0_0_0_linear_config6_s",
          "InstanceName": "call_ret4_linear_ap_fixed_ap_fixed_16_6_0_0_0_linear_config6_s_fu_173"
        },
        {
          "ModuleName": "linear_ap_fixed_ap_fixed_16_6_0_0_0_linear_config9_s",
          "InstanceName": "layer9_out_0_V_linear_ap_fixed_ap_fixed_16_6_0_0_0_linear_config9_s_fu_185"
        }
      ]
    },
    "Info": {
      "dense_latency_0_0_0_0_0_0_0_0_0_0_0_0_0_0_0_0_0_0_0_0_0_0_0_1": {
        "FunctionProtocol": "ap_ctrl_hs",
        "isTaskLevelControl": "1",
        "isPipelined": "1",
        "isCombinational": "0",
        "isOneStateSeq": "0"
      },
      "linear_ap_fixed_ap_fixed_16_6_0_0_0_linear_config3_s": {
        "FunctionProtocol": "ap_ctrl_hs",
        "isTaskLevelControl": "1",
        "isPipelined": "0",
        "isCombinational": "1",
        "isOneStateSeq": "0"
      },
      "relu_ap_fixed_ap_ufixed_3_1_0_0_0_relu_config4_s": {
        "FunctionProtocol": "ap_ctrl_hs",
        "isTaskLevelControl": "1",
        "isPipelined": "0",
        "isCombinational": "1",
        "isOneStateSeq": "0"
      },
      "dense_latency_0_0_0_0_0_0_0_0_0_0_0_0_0_0_0_0_0_0_0_0_0_0_0_s": {
        "FunctionProtocol": "ap_ctrl_hs",
        "isTaskLevelControl": "1",
        "isPipelined": "1",
        "isCombinational": "0",
        "isOneStateSeq": "0"
      },
      "linear_ap_fixed_ap_fixed_16_6_0_0_0_linear_config6_s": {
        "FunctionProtocol": "ap_ctrl_hs",
        "isTaskLevelControl": "1",
        "isPipelined": "0",
        "isCombinational": "1",
        "isOneStateSeq": "0"
      },
      "relu_ap_fixed_ap_ufixed_3_1_0_0_0_relu_config7_s": {
        "FunctionProtocol": "ap_ctrl_hs",
        "isTaskLevelControl": "1",
        "isPipelined": "0",
        "isCombinational": "1",
        "isOneStateSeq": "0"
      },
      "dense_latency_ap_ufixed_ap_fixed_config8_0_0": {
        "FunctionProtocol": "ap_ctrl_hs",
        "isTaskLevelControl": "1",
        "isPipelined": "1",
        "isCombinational": "0",
        "isOneStateSeq": "0"
      },
      "linear_ap_fixed_ap_fixed_16_6_0_0_0_linear_config9_s": {
        "FunctionProtocol": "ap_ctrl_hs",
        "isTaskLevelControl": "1",
        "isPipelined": "0",
        "isCombinational": "1",
        "isOneStateSeq": "0"
      },
      "sigmoid_ap_fixed_ap_ufixed_sigmoid_config10_s": {
        "FunctionProtocol": "ap_ctrl_hs",
        "isTaskLevelControl": "1",
        "isPipelined": "1",
        "isCombinational": "0",
        "isOneStateSeq": "0"
      },
      "myproject": {
        "FunctionProtocol": "ap_ctrl_hs",
        "isTaskLevelControl": "1",
        "isPipelined": "1",
        "isCombinational": "0",
        "isOneStateSeq": "0"
      }
    },
    "Metrics": {
      "dense_latency_0_0_0_0_0_0_0_0_0_0_0_0_0_0_0_0_0_0_0_0_0_0_0_1": {
        "Latency": {
          "LatencyBest": "2",
          "LatencyAvg": "2",
          "LatencyWorst": "2",
          "PipelineII": "1",
          "PipelineDepth": "3",
          "PipelineType": "function"
        },
        "Timing": {
          "Target": "1.92",
          "Uncertainty": "0.24",
          "Estimate": "1.606"
        },
        "Area": {
          "FF": "1343",
          "LUT": "2560",
          "BRAM_18K": "0",
          "DSP48E": "0",
          "URAM": "0"
        }
      },
      "linear_ap_fixed_ap_fixed_16_6_0_0_0_linear_config3_s": {
        "Latency": {
          "LatencyBest": "0",
          "LatencyAvg": "0",
          "LatencyWorst": "0",
          "PipelineII": "1",
          "PipelineDepth": "1",
          "PipelineType": "function"
        },
        "Timing": {
          "Target": "1.92",
          "Uncertainty": "0.24",
          "Estimate": "0.000"
        },
        "Area": {
          "BRAM_18K": "0",
          "DSP48E": "0",
          "FF": "0",
          "LUT": "0",
          "URAM": "0"
        }
      },
      "relu_ap_fixed_ap_ufixed_3_1_0_0_0_relu_config4_s": {
        "Latency": {
          "LatencyBest": "0",
          "LatencyAvg": "0",
          "LatencyWorst": "0",
          "PipelineII": "1",
          "PipelineDepth": "1",
          "PipelineType": "function"
        },
        "Timing": {
          "Target": "1.92",
          "Uncertainty": "0.24",
          "Estimate": "0.954"
        },
        "Area": {
          "FF": "0",
          "LUT": "696",
          "BRAM_18K": "0",
          "DSP48E": "0",
          "URAM": "0"
        }
      },
      "dense_latency_0_0_0_0_0_0_0_0_0_0_0_0_0_0_0_0_0_0_0_0_0_0_0_s": {
        "Latency": {
          "LatencyBest": "1",
          "LatencyAvg": "1",
          "LatencyWorst": "1",
          "PipelineII": "1",
          "PipelineDepth": "2",
          "PipelineType": "function"
        },
        "Timing": {
          "Target": "1.92",
          "Uncertainty": "0.24",
          "Estimate": "1.645"
        },
        "Area": {
          "DSP48E": "0",
          "FF": "255",
          "LUT": "1203",
          "BRAM_18K": "0",
          "URAM": "0"
        }
      },
      "linear_ap_fixed_ap_fixed_16_6_0_0_0_linear_config6_s": {
        "Latency": {
          "LatencyBest": "0",
          "LatencyAvg": "0",
          "LatencyWorst": "0",
          "PipelineII": "1",
          "PipelineDepth": "1",
          "PipelineType": "function"
        },
        "Timing": {
          "Target": "1.92",
          "Uncertainty": "0.24",
          "Estimate": "0.000"
        },
        "Area": {
          "BRAM_18K": "0",
          "DSP48E": "0",
          "FF": "0",
          "LUT": "0",
          "URAM": "0"
        }
      },
      "relu_ap_fixed_ap_ufixed_3_1_0_0_0_relu_config7_s": {
        "Latency": {
          "LatencyBest": "0",
          "LatencyAvg": "0",
          "LatencyWorst": "0",
          "PipelineII": "1",
          "PipelineDepth": "1",
          "PipelineType": "function"
        },
        "Timing": {
          "Target": "1.92",
          "Uncertainty": "0.24",
          "Estimate": "0.954"
        },
        "Area": {
          "FF": "0",
          "LUT": "464",
          "BRAM_18K": "0",
          "DSP48E": "0",
          "URAM": "0"
        }
      },
      "dense_latency_ap_ufixed_ap_fixed_config8_0_0": {
        "Latency": {
          "LatencyBest": "2",
          "LatencyAvg": "2",
          "LatencyWorst": "2",
          "PipelineII": "1",
          "PipelineDepth": "3",
          "PipelineType": "function"
        },
        "Timing": {
          "Target": "1.92",
          "Uncertainty": "0.24",
          "Estimate": "1.563"
        },
        "Area": {
          "DSP48E": "0",
          "FF": "120",
          "LUT": "377",
          "BRAM_18K": "0",
          "URAM": "0"
        }
      },
      "linear_ap_fixed_ap_fixed_16_6_0_0_0_linear_config9_s": {
        "Latency": {
          "LatencyBest": "0",
          "LatencyAvg": "0",
          "LatencyWorst": "0",
          "PipelineII": "1",
          "PipelineDepth": "1",
          "PipelineType": "function"
        },
        "Timing": {
          "Target": "1.92",
          "Uncertainty": "0.24",
          "Estimate": "0.000"
        },
        "Area": {
          "BRAM_18K": "0",
          "DSP48E": "0",
          "FF": "0",
          "LUT": "0",
          "URAM": "0"
        }
      },
      "sigmoid_ap_fixed_ap_ufixed_sigmoid_config10_s": {
        "Latency": {
          "LatencyBest": "3",
          "LatencyAvg": "3",
          "LatencyWorst": "3",
          "PipelineII": "1",
          "PipelineDepth": "4",
          "PipelineType": "function"
        },
        "Timing": {
          "Target": "1.92",
          "Uncertainty": "0.24",
          "Estimate": "1.461"
        },
        "Area": {
          "BRAM_18K": "1",
          "FF": "37",
          "LUT": "147",
          "DSP48E": "0",
          "URAM": "0"
        }
      },
      "myproject": {
        "Latency": {
          "LatencyBest": "14",
          "LatencyAvg": "14",
          "LatencyWorst": "14",
          "PipelineII": "1",
          "PipelineDepth": "15",
          "PipelineType": "function"
        },
        "Timing": {
          "Target": "1.92",
          "Uncertainty": "0.24",
          "Estimate": "1.645"
        },
        "Area": {
          "BRAM_18K": "1",
          "DSP48E": "0",
          "FF": "2247",
          "LUT": "5489",
          "URAM": "0"
        }
      }
    }
  },
  "Sdx": {
    "Target": "none",
    "ProfileOption": "0",
    "ProfileType": "none",
    "XO": "",
    "KernelName": "myproject",
    "EnableXoSwEmu": "1"
  },
  "GenData": {
    "DataVersion": "0.2",
    "Time": "2022-05-31 16:46:32 CEST",
    "ToolName": "vivado_hls",
    "ToolVersion": "2020.1"
  }
}
