

================================================================
== Vivado HLS Report for 'dense_latency_0_0_0_0_0_0_0_0_0_0_0_0_0_0_0_0_0_0_0_0_0_0_0_s'
================================================================
* Date:           Fri Jun 10 13:55:59 2022

* Version:        2020.1 (Build 2897737 on Wed May 27 20:21:37 MDT 2020)
* Project:        myproject_prj
* Solution:       solution1
* Product family: virtexuplus
* Target device:  xcvu9p-flga2104-2L-e


================================================================
== Performance Estimates
================================================================
+ Timing: 
    * Summary: 
    +--------+---------+----------+------------+
    |  Clock |  Target | Estimated| Uncertainty|
    +--------+---------+----------+------------+
    |ap_clk  | 4.17 ns | 3.400 ns |   0.52 ns  |
    +--------+---------+----------+------------+

+ Latency: 
    * Summary: 
    +---------+---------+----------+----------+-----+-----+----------+
    |  Latency (cycles) |  Latency (absolute) |  Interval | Pipeline |
    |   min   |   max   |    min   |    max   | min | max |   Type   |
    +---------+---------+----------+----------+-----+-----+----------+
    |        1|        1| 4.167 ns | 4.167 ns |    1|    1| function |
    +---------+---------+----------+----------+-----+-----+----------+

    + Detail: 
        * Instance: 
        N/A

        * Loop: 
        N/A



================================================================
== Utilization Estimates
================================================================
* Summary: 
+---------------------+---------+-------+---------+---------+-----+
|         Name        | BRAM_18K| DSP48E|    FF   |   LUT   | URAM|
+---------------------+---------+-------+---------+---------+-----+
|DSP                  |        -|      -|        -|        -|    -|
|Expression           |        -|     12|        0|     4156|    -|
|FIFO                 |        -|      -|        -|        -|    -|
|Instance             |        -|      -|        -|        -|    -|
|Memory               |        -|      -|        -|        -|    -|
|Multiplexer          |        -|      -|        -|      126|    -|
|Register             |        -|      -|      559|        -|    -|
+---------------------+---------+-------+---------+---------+-----+
|Total                |        0|     12|      559|     4282|    0|
+---------------------+---------+-------+---------+---------+-----+
|Available SLR        |     1440|   2280|   788160|   394080|  320|
+---------------------+---------+-------+---------+---------+-----+
|Utilization SLR (%)  |        0|   ~0  |    ~0   |        1|    0|
+---------------------+---------+-------+---------+---------+-----+
|Available            |     4320|   6840|  2364480|  1182240|  960|
+---------------------+---------+-------+---------+---------+-----+
|Utilization (%)      |        0|   ~0  |    ~0   |    ~0   |    0|
+---------------------+---------+-------+---------+---------+-----+

+ Detail: 
    * Instance: 
    N/A

    * DSP48E: 
    N/A

    * Memory: 
    N/A

    * FIFO: 
    N/A

    * Expression: 
    +---------------------------+----------+-------+---+----+------------+------------+
    |       Variable Name       | Operation| DSP48E| FF| LUT| Bitwidth P0| Bitwidth P1|
    +---------------------------+----------+-------+---+----+------------+------------+
    |mul_ln1118_10_fu_284_p2    |     *    |      1|  0|   5|           6|          16|
    |mul_ln1118_11_fu_335_p2    |     *    |      1|  0|   5|           6|          16|
    |mul_ln1118_12_fu_341_p2    |     *    |      1|  0|   5|           5|          16|
    |mul_ln1118_13_fu_325_p2    |     *    |      1|  0|   5|           6|          16|
    |mul_ln1118_14_fu_320_p2    |     *    |      0|  0|   5|           4|          16|
    |mul_ln1118_15_fu_315_p2    |     *    |      1|  0|   5|           5|          16|
    |mul_ln1118_3_fu_290_p2     |     *    |      1|  0|   5|           6|          16|
    |mul_ln1118_4_fu_314_p2     |     *    |      1|  0|   5|           5|          16|
    |mul_ln1118_5_fu_309_p2     |     *    |      1|  0|   5|           5|          16|
    |mul_ln1118_6_fu_274_p2     |     *    |      0|  0|   5|           4|          16|
    |mul_ln1118_7_fu_299_p2     |     *    |      1|  0|   5|           7|          16|
    |mul_ln1118_8_fu_362_p2     |     *    |      1|  0|   5|           7|          16|
    |mul_ln1118_9_fu_289_p2     |     *    |      1|  0|   5|           5|          16|
    |mul_ln1118_fu_297_p2       |     *    |      1|  0|   5|           6|          16|
    |acc_15_V_fu_10976_p2       |     +    |      0|  0|  19|          16|          16|
    |acc_16_V_fu_10346_p2       |     +    |      0|  0|  19|          16|          16|
    |acc_20_V_fu_10989_p2       |     +    |      0|  0|  19|          16|          16|
    |acc_32_V_fu_10510_p2       |     +    |      0|  0|  19|          16|          16|
    |acc_3_V_fu_10959_p2        |     +    |      0|  0|  19|          16|          16|
    |acc_40_V_fu_10594_p2       |     +    |      0|  0|  23|          16|          16|
    |acc_43_V_fu_10656_p2       |     +    |      0|  0|  19|          16|          16|
    |acc_45_V_fu_10736_p2       |     +    |      0|  0|  19|          16|          16|
    |acc_47_V_fu_10748_p2       |     +    |      0|  0|  19|          14|          14|
    |acc_48_V_fu_11009_p2       |     +    |      0|  0|  19|          16|          16|
    |acc_53_V_fu_10896_p2       |     +    |      0|  0|  19|          16|          16|
    |acc_58_V_fu_10938_p2       |     +    |      0|  0|  19|          16|          16|
    |acc_7_V_fu_10188_p2        |     +    |      0|  0|  19|          16|          16|
    |add_ln1118_1_fu_7711_p2    |     +    |      0|  0|  26|          19|          19|
    |add_ln1118_2_fu_7858_p2    |     +    |      0|  0|  27|          20|          20|
    |add_ln1118_3_fu_8004_p2    |     +    |      0|  0|  26|          19|          19|
    |add_ln1118_4_fu_8649_p2    |     +    |      0|  0|  28|          21|          21|
    |add_ln1118_5_fu_8815_p2    |     +    |      0|  0|  27|          20|          20|
    |add_ln1118_6_fu_9444_p2    |     +    |      0|  0|  27|          20|          20|
    |add_ln1118_7_fu_9672_p2    |     +    |      0|  0|  26|          19|          19|
    |add_ln1118_fu_7451_p2      |     +    |      0|  0|  29|          22|          22|
    |add_ln703_100_fu_10672_p2  |     +    |      0|  0|  19|          14|          14|
    |add_ln703_101_fu_10678_p2  |     +    |      0|  0|  19|          14|          14|
    |add_ln703_102_fu_10688_p2  |     +    |      0|  0|  19|          16|          16|
    |add_ln703_103_fu_10694_p2  |     +    |      0|  0|  21|          14|          14|
    |add_ln703_104_fu_10704_p2  |     +    |      0|  0|  19|          16|          16|
    |add_ln703_105_fu_10710_p2  |     +    |      0|  0|  17|           8|          10|
    |add_ln703_106_fu_10720_p2  |     +    |      0|  0|  18|          11|          11|
    |add_ln703_107_fu_10730_p2  |     +    |      0|  0|  19|          16|          16|
    |add_ln703_109_fu_10742_p2  |     +    |      0|  0|  19|           6|          14|
    |add_ln703_111_fu_10754_p2  |     +    |      0|  0|  19|          15|          15|
    |add_ln703_112_fu_10760_p2  |     +    |      0|  0|  19|          15|          15|
    |add_ln703_113_fu_10766_p2  |     +    |      0|  0|  19|          16|          16|
    |add_ln703_114_fu_10772_p2  |     +    |      0|  0|  19|          16|          16|
    |add_ln703_115_fu_11001_p2  |     +    |      0|  0|  19|          16|          16|
    |add_ln703_116_fu_10778_p2  |     +    |      0|  0|  19|          13|          13|
    |add_ln703_117_fu_10784_p2  |     +    |      0|  0|  19|          13|          13|
    |add_ln703_118_fu_10794_p2  |     +    |      0|  0|  19|          12|          12|
    |add_ln703_119_fu_10808_p2  |     +    |      0|  0|  20|          13|          13|
    |add_ln703_120_fu_10818_p2  |     +    |      0|  0|  21|          14|          14|
    |add_ln703_122_fu_10824_p2  |     +    |      0|  0|  21|          14|          14|
    |add_ln703_123_fu_10834_p2  |     +    |      0|  0|  20|          13|          13|
    |add_ln703_124_fu_10844_p2  |     +    |      0|  0|  23|          16|          16|
    |add_ln703_125_fu_10850_p2  |     +    |      0|  0|  19|          16|          16|
    |add_ln703_126_fu_10856_p2  |     +    |      0|  0|  18|          11|          11|
    |add_ln703_127_fu_10866_p2  |     +    |      0|  0|  17|           7|          10|
    |add_ln703_128_fu_10876_p2  |     +    |      0|  0|  18|          11|          11|
    |add_ln703_129_fu_10886_p2  |     +    |      0|  0|  19|          12|          12|
    |add_ln703_131_fu_10902_p2  |     +    |      0|  0|  20|          13|          13|
    |add_ln703_132_fu_10912_p2  |     +    |      0|  0|  19|          16|          16|
    |add_ln703_133_fu_10918_p2  |     +    |      0|  0|  17|           6|          10|
    |add_ln703_134_fu_10928_p2  |     +    |      0|  0|  18|          11|          11|
    |add_ln703_15_fu_10022_p2   |     +    |      0|  0|  23|          16|          16|
    |add_ln703_16_fu_10028_p2   |     +    |      0|  0|  19|          16|          16|
    |add_ln703_17_fu_10034_p2   |     +    |      0|  0|  19|          12|          12|
    |add_ln703_18_fu_10044_p2   |     +    |      0|  0|  17|           8|          10|
    |add_ln703_19_fu_10054_p2   |     +    |      0|  0|  18|          11|          11|
    |add_ln703_20_fu_10064_p2   |     +    |      0|  0|  20|          13|          13|
    |add_ln703_21_fu_10074_p2   |     +    |      0|  0|  19|          16|          16|
    |add_ln703_22_fu_10080_p2   |     +    |      0|  0|  19|          12|          12|
    |add_ln703_23_fu_10086_p2   |     +    |      0|  0|  22|          15|          15|
    |add_ln703_24_fu_10950_p2   |     +    |      0|  0|  19|          16|          16|
    |add_ln703_25_fu_10092_p2   |     +    |      0|  0|  21|          14|          14|
    |add_ln703_26_fu_10102_p2   |     +    |      0|  0|  18|           8|          11|
    |add_ln703_27_fu_10112_p2   |     +    |      0|  0|  21|          14|          14|
    |add_ln703_28_fu_10122_p2   |     +    |      0|  0|  22|          15|          15|
    |add_ln703_30_fu_10128_p2   |     +    |      0|  0|  23|          16|          16|
    |add_ln703_31_fu_10134_p2   |     +    |      0|  0|  19|          16|          16|
    |add_ln703_32_fu_10140_p2   |     +    |      0|  0|  19|          16|          16|
    |add_ln703_33_fu_10146_p2   |     +    |      0|  0|  19|          16|          16|
    |add_ln703_34_fu_10152_p2   |     +    |      0|  0|  19|          14|          14|
    |add_ln703_35_fu_10158_p2   |     +    |      0|  0|  17|           5|          10|
    |add_ln703_36_fu_10168_p2   |     +    |      0|  0|  18|          11|          11|
    |add_ln703_37_fu_10178_p2   |     +    |      0|  0|  19|          14|          14|
    |add_ln703_39_fu_10194_p2   |     +    |      0|  0|  22|          15|          15|
    |add_ln703_40_fu_10204_p2   |     +    |      0|  0|  23|          16|          16|
    |add_ln703_41_fu_10210_p2   |     +    |      0|  0|  20|          13|          13|
    |add_ln703_42_fu_10220_p2   |     +    |      0|  0|  21|          14|          14|
    |add_ln703_43_fu_10968_p2   |     +    |      0|  0|  19|          16|          16|
    |add_ln703_44_fu_10226_p2   |     +    |      0|  0|  18|          11|          11|
    |add_ln703_45_fu_10236_p2   |     +    |      0|  0|  19|          14|          14|
    |add_ln703_46_fu_10242_p2   |     +    |      0|  0|  17|           7|          10|
    |add_ln703_47_fu_10252_p2   |     +    |      0|  0|  18|          11|          11|
    |add_ln703_48_fu_10262_p2   |     +    |      0|  0|  19|          14|          14|
    |add_ln703_50_fu_10268_p2   |     +    |      0|  0|  21|          14|          14|
    |add_ln703_51_fu_10278_p2   |     +    |      0|  0|  19|          16|          16|
    |add_ln703_52_fu_10284_p2   |     +    |      0|  0|  19|          16|          16|
    |add_ln703_53_fu_10290_p2   |     +    |      0|  0|  19|          16|          16|
    |add_ln703_54_fu_10296_p2   |     +    |      0|  0|  19|          12|          12|
    |add_ln703_55_fu_10306_p2   |     +    |      0|  0|  20|          13|          13|
    |add_ln703_56_fu_10316_p2   |     +    |      0|  0|  17|           8|          10|
    |add_ln703_57_fu_10326_p2   |     +    |      0|  0|  18|          11|          11|
    |add_ln703_58_fu_10336_p2   |     +    |      0|  0|  21|          14|          14|
    |add_ln703_60_fu_10352_p2   |     +    |      0|  0|  21|          14|          14|
    |add_ln703_61_fu_10362_p2   |     +    |      0|  0|  23|          16|          16|
    |add_ln703_62_fu_10368_p2   |     +    |      0|  0|  22|          15|          15|
    |add_ln703_63_fu_10378_p2   |     +    |      0|  0|  19|          16|          16|
    |add_ln703_64_fu_10384_p2   |     +    |      0|  0|  19|          16|          16|
    |add_ln703_65_fu_10982_p2   |     +    |      0|  0|  19|          16|          16|
    |add_ln703_66_fu_10390_p2   |     +    |      0|  0|  18|          11|          11|
    |add_ln703_67_fu_10400_p2   |     +    |      0|  0|  19|          12|          12|
    |add_ln703_68_fu_10410_p2   |     +    |      0|  0|  18|          11|          11|
    |add_ln703_69_fu_10420_p2   |     +    |      0|  0|  17|           8|          10|
    |add_ln703_70_fu_10430_p2   |     +    |      0|  0|  19|          12|          12|
    |add_ln703_71_fu_10440_p2   |     +    |      0|  0|  20|          13|          13|
    |add_ln703_73_fu_10446_p2   |     +    |      0|  0|  23|          16|          16|
    |add_ln703_74_fu_10452_p2   |     +    |      0|  0|  21|          14|          14|
    |add_ln703_75_fu_10462_p2   |     +    |      0|  0|  23|          16|          16|
    |add_ln703_76_fu_10468_p2   |     +    |      0|  0|  19|          16|          16|
    |add_ln703_77_fu_10474_p2   |     +    |      0|  0|  19|          14|          14|
    |add_ln703_78_fu_10480_p2   |     +    |      0|  0|  17|           6|          10|
    |add_ln703_79_fu_10490_p2   |     +    |      0|  0|  18|          11|          11|
    |add_ln703_80_fu_10500_p2   |     +    |      0|  0|  19|          14|          14|
    |add_ln703_82_fu_10516_p2   |     +    |      0|  0|  21|          14|          14|
    |add_ln703_83_fu_10526_p2   |     +    |      0|  0|  22|          15|          15|
    |add_ln703_84_fu_10532_p2   |     +    |      0|  0|  19|          15|          15|
    |add_ln703_85_fu_10538_p2   |     +    |      0|  0|  19|          15|          15|
    |add_ln703_86_fu_10548_p2   |     +    |      0|  0|  20|          13|          13|
    |add_ln703_87_fu_10558_p2   |     +    |      0|  0|  19|          14|          14|
    |add_ln703_88_fu_10564_p2   |     +    |      0|  0|  17|           8|          10|
    |add_ln703_89_fu_10574_p2   |     +    |      0|  0|  18|          11|          11|
    |add_ln703_90_fu_10584_p2   |     +    |      0|  0|  19|          14|          14|
    |add_ln703_92_fu_10600_p2   |     +    |      0|  0|  22|          15|          15|
    |add_ln703_93_fu_10610_p2   |     +    |      0|  0|  22|          15|          15|
    |add_ln703_94_fu_10620_p2   |     +    |      0|  0|  19|          16|          16|
    |add_ln703_95_fu_10626_p2   |     +    |      0|  0|  20|          13|          13|
    |add_ln703_96_fu_10636_p2   |     +    |      0|  0|  17|           8|          10|
    |add_ln703_97_fu_10646_p2   |     +    |      0|  0|  21|          14|          14|
    |add_ln703_99_fu_10662_p2   |     +    |      0|  0|  22|          15|          15|
    |add_ln703_fu_10016_p2      |     +    |      0|  0|  23|          16|          16|
    |sub_ln1118_10_fu_9876_p2   |     -    |      0|  0|  24|           1|          17|
    |sub_ln1118_11_fu_9914_p2   |     -    |      0|  0|  24|           1|          17|
    |sub_ln1118_12_fu_7407_p2   |     -    |      0|  0|  25|           1|          18|
    |sub_ln1118_13_fu_7511_p2   |     -    |      0|  0|  27|           1|          20|
    |sub_ln1118_14_fu_7567_p2   |     -    |      0|  0|  28|          21|          21|
    |sub_ln1118_15_fu_7617_p2   |     -    |      0|  0|  26|          19|          19|
    |sub_ln1118_16_fu_7691_p2   |     -    |      0|  0|  27|           1|          20|
    |sub_ln1118_17_fu_7743_p2   |     -    |      0|  0|  25|           1|          18|
    |sub_ln1118_18_fu_7822_p2   |     -    |      0|  0|  27|           1|          20|
    |sub_ln1118_19_fu_7902_p2   |     -    |      0|  0|  27|          20|          20|
    |sub_ln1118_1_fu_7878_p2    |     -    |      0|  0|  24|           1|          17|
    |sub_ln1118_20_fu_7936_p2   |     -    |      0|  0|  25|           1|          18|
    |sub_ln1118_21_fu_7984_p2   |     -    |      0|  0|  28|          21|          21|
    |sub_ln1118_22_fu_8105_p2   |     -    |      0|  0|  25|           1|          18|
    |sub_ln1118_23_fu_8225_p2   |     -    |      0|  0|  19|           1|          21|
    |sub_ln1118_24_fu_8243_p2   |     -    |      0|  0|  19|          21|          21|
    |sub_ln1118_25_fu_8378_p2   |     -    |      0|  0|  28|          21|          21|
    |sub_ln1118_26_fu_8410_p2   |     -    |      0|  0|  27|          20|          20|
    |sub_ln1118_27_fu_8541_p2   |     -    |      0|  0|  19|           1|          21|
    |sub_ln1118_28_fu_8559_p2   |     -    |      0|  0|  19|          21|          21|
    |sub_ln1118_29_fu_8591_p2   |     -    |      0|  0|  26|          19|          19|
    |sub_ln1118_2_fu_8157_p2    |     -    |      0|  0|  24|           1|          17|
    |sub_ln1118_30_fu_8669_p2   |     -    |      0|  0|  19|           1|          21|
    |sub_ln1118_31_fu_8675_p2   |     -    |      0|  0|  19|          21|          21|
    |sub_ln1118_32_fu_8777_p2   |     -    |      0|  0|  26|           1|          19|
    |sub_ln1118_33_fu_8783_p2   |     -    |      0|  0|  26|          19|          19|
    |sub_ln1118_34_fu_8855_p2   |     -    |      0|  0|  27|          20|          20|
    |sub_ln1118_35_fu_8887_p2   |     -    |      0|  0|  19|           1|          21|
    |sub_ln1118_36_fu_8893_p2   |     -    |      0|  0|  19|          21|          21|
    |sub_ln1118_37_fu_8973_p2   |     -    |      0|  0|  29|          22|          22|
    |sub_ln1118_38_fu_9029_p2   |     -    |      0|  0|  26|          19|          19|
    |sub_ln1118_39_fu_9164_p2   |     -    |      0|  0|  19|           1|          20|
    |sub_ln1118_3_fu_8346_p2    |     -    |      0|  0|  24|           1|          17|
    |sub_ln1118_40_fu_9182_p2   |     -    |      0|  0|  19|          20|          20|
    |sub_ln1118_41_fu_9228_p2   |     -    |      0|  0|  26|           1|          19|
    |sub_ln1118_42_fu_9234_p2   |     -    |      0|  0|  26|          19|          19|
    |sub_ln1118_43_fu_9274_p2   |     -    |      0|  0|  27|          20|          20|
    |sub_ln1118_44_fu_9362_p2   |     -    |      0|  0|  25|           1|          18|
    |sub_ln1118_45_fu_9398_p2   |     -    |      0|  0|  19|           1|          20|
    |sub_ln1118_46_fu_9404_p2   |     -    |      0|  0|  19|          20|          20|
    |sub_ln1118_47_fu_9424_p2   |     -    |      0|  0|  27|          20|          20|
    |sub_ln1118_48_fu_9504_p2   |     -    |      0|  0|  27|           1|          20|
    |sub_ln1118_49_fu_9524_p2   |     -    |      0|  0|  27|          20|          20|
    |sub_ln1118_4_fu_8481_p2    |     -    |      0|  0|  24|           1|          17|
    |sub_ln1118_50_fu_9556_p2   |     -    |      0|  0|  26|           1|          19|
    |sub_ln1118_51_fu_9632_p2   |     -    |      0|  0|  26|          19|          19|
    |sub_ln1118_52_fu_9792_p2   |     -    |      0|  0|  27|          20|          20|
    |sub_ln1118_53_fu_9946_p2   |     -    |      0|  0|  26|          19|          19|
    |sub_ln1118_54_fu_9978_p2   |     -    |      0|  0|  25|           1|          18|
    |sub_ln1118_55_fu_7531_p2   |     -    |      0|  0|  27|          20|          20|
    |sub_ln1118_56_fu_7763_p2   |     -    |      0|  0|  26|          19|          19|
    |sub_ln1118_57_fu_8137_p2   |     -    |      0|  0|  26|          19|          19|
    |sub_ln1118_58_fu_8326_p2   |     -    |      0|  0|  28|          21|          21|
    |sub_ln1118_59_fu_9652_p2   |     -    |      0|  0|  26|          19|          19|
    |sub_ln1118_5_fu_8709_p2    |     -    |      0|  0|  24|           1|          17|
    |sub_ln1118_60_fu_9856_p2   |     -    |      0|  0|  26|          19|          19|
    |sub_ln1118_6_fu_8927_p2    |     -    |      0|  0|  24|           1|          17|
    |sub_ln1118_7_fu_9095_p2    |     -    |      0|  0|  24|           1|          17|
    |sub_ln1118_8_fu_9254_p2    |     -    |      0|  0|  24|           1|          17|
    |sub_ln1118_9_fu_9724_p2    |     -    |      0|  0|  24|           1|          17|
    |sub_ln1118_fu_7637_p2      |     -    |      0|  0|  24|           1|          17|
    +---------------------------+----------+-------+---+----+------------+------------+
    |Total                      |          |     12|  0|4156|        2520|        3251|
    +---------------------------+----------+-------+---+----+------------+------------+

    * Multiplexer: 
    +--------------+----+-----------+-----+-----------+
    |     Name     | LUT| Input Size| Bits| Total Bits|
    +--------------+----+-----------+-----+-----------+
    |ap_return_0   |   9|          2|   16|         32|
    |ap_return_1   |   9|          2|   16|         32|
    |ap_return_10  |   9|          2|   16|         32|
    |ap_return_11  |   9|          2|   16|         32|
    |ap_return_12  |   9|          2|   16|         32|
    |ap_return_13  |   9|          2|   16|         32|
    |ap_return_2   |   9|          2|   16|         32|
    |ap_return_3   |   9|          2|   16|         32|
    |ap_return_4   |   9|          2|   16|         32|
    |ap_return_5   |   9|          2|   16|         32|
    |ap_return_6   |   9|          2|   16|         32|
    |ap_return_7   |   9|          2|   16|         32|
    |ap_return_8   |   9|          2|   16|         32|
    |ap_return_9   |   9|          2|   16|         32|
    +--------------+----+-----------+-----+-----------+
    |Total         | 126|         28|  224|        448|
    +--------------+----+-----------+-----+-----------+

    * Register: 
    +-------------------------+----+----+-----+-----------+
    |           Name          | FF | LUT| Bits| Const Bits|
    +-------------------------+----+----+-----+-----------+
    |acc_16_V_reg_11130       |  16|   0|   16|          0|
    |acc_32_V_reg_11150       |  16|   0|   16|          0|
    |acc_40_V_reg_11155       |  16|   0|   16|          0|
    |acc_43_V_reg_11160       |  16|   0|   16|          0|
    |acc_45_V_reg_11165       |  16|   0|   16|          0|
    |acc_47_V_reg_11170       |  14|   0|   14|          0|
    |acc_53_V_reg_11190       |  16|   0|   16|          0|
    |acc_58_V_reg_11195       |  16|   0|   16|          0|
    |acc_7_V_reg_11110        |  16|   0|   16|          0|
    |add_ln703_112_reg_11175  |  15|   0|   15|          0|
    |add_ln703_114_reg_11180  |  16|   0|   16|          0|
    |add_ln703_120_reg_11185  |  14|   0|   14|          0|
    |add_ln703_21_reg_11090   |  16|   0|   16|          0|
    |add_ln703_22_reg_11095   |  12|   0|   12|          0|
    |add_ln703_23_reg_11100   |  15|   0|   15|          0|
    |add_ln703_28_reg_11105   |  15|   0|   15|          0|
    |add_ln703_40_reg_11115   |  16|   0|   16|          0|
    |add_ln703_42_reg_11120   |  14|   0|   14|          0|
    |add_ln703_48_reg_11125   |  14|   0|   14|          0|
    |add_ln703_61_reg_11135   |  16|   0|   16|          0|
    |add_ln703_64_reg_11140   |  16|   0|   16|          0|
    |add_ln703_71_reg_11145   |  13|   0|   13|          0|
    |ap_ce_reg                |   1|   0|    1|          0|
    |ap_return_0_int_reg      |  16|   0|   16|          0|
    |ap_return_10_int_reg     |  16|   0|   16|          0|
    |ap_return_11_int_reg     |  16|   0|   16|          0|
    |ap_return_12_int_reg     |  16|   0|   16|          0|
    |ap_return_13_int_reg     |  16|   0|   16|          0|
    |ap_return_1_int_reg      |  16|   0|   16|          0|
    |ap_return_2_int_reg      |  16|   0|   16|          0|
    |ap_return_3_int_reg      |  16|   0|   16|          0|
    |ap_return_4_int_reg      |  16|   0|   16|          0|
    |ap_return_5_int_reg      |  16|   0|   16|          0|
    |ap_return_6_int_reg      |  16|   0|   16|          0|
    |ap_return_7_int_reg      |  16|   0|   16|          0|
    |ap_return_8_int_reg      |  16|   0|   16|          0|
    |ap_return_9_int_reg      |  16|   0|   16|          0|
    +-------------------------+----+----+-----+-----------+
    |Total                    | 559|   0|  559|          0|
    +-------------------------+----+----+-----+-----------+



================================================================
== Interface
================================================================
* Summary: 
+--------------+-----+-----+------------+--------------------------------------------------------------+--------------+
|   RTL Ports  | Dir | Bits|  Protocol  |                         Source Object                        |    C Type    |
+--------------+-----+-----+------------+--------------------------------------------------------------+--------------+
|ap_clk        |  in |    1| ap_ctrl_hs | dense_latency.0.0.0.0.0.0.0.0.0.0.0.0.0.0.0.0.0.0.0.0.0.0.0. | return value |
|ap_rst        |  in |    1| ap_ctrl_hs | dense_latency.0.0.0.0.0.0.0.0.0.0.0.0.0.0.0.0.0.0.0.0.0.0.0. | return value |
|ap_return_0   | out |   16| ap_ctrl_hs | dense_latency.0.0.0.0.0.0.0.0.0.0.0.0.0.0.0.0.0.0.0.0.0.0.0. | return value |
|ap_return_1   | out |   16| ap_ctrl_hs | dense_latency.0.0.0.0.0.0.0.0.0.0.0.0.0.0.0.0.0.0.0.0.0.0.0. | return value |
|ap_return_2   | out |   16| ap_ctrl_hs | dense_latency.0.0.0.0.0.0.0.0.0.0.0.0.0.0.0.0.0.0.0.0.0.0.0. | return value |
|ap_return_3   | out |   16| ap_ctrl_hs | dense_latency.0.0.0.0.0.0.0.0.0.0.0.0.0.0.0.0.0.0.0.0.0.0.0. | return value |
|ap_return_4   | out |   16| ap_ctrl_hs | dense_latency.0.0.0.0.0.0.0.0.0.0.0.0.0.0.0.0.0.0.0.0.0.0.0. | return value |
|ap_return_5   | out |   16| ap_ctrl_hs | dense_latency.0.0.0.0.0.0.0.0.0.0.0.0.0.0.0.0.0.0.0.0.0.0.0. | return value |
|ap_return_6   | out |   16| ap_ctrl_hs | dense_latency.0.0.0.0.0.0.0.0.0.0.0.0.0.0.0.0.0.0.0.0.0.0.0. | return value |
|ap_return_7   | out |   16| ap_ctrl_hs | dense_latency.0.0.0.0.0.0.0.0.0.0.0.0.0.0.0.0.0.0.0.0.0.0.0. | return value |
|ap_return_8   | out |   16| ap_ctrl_hs | dense_latency.0.0.0.0.0.0.0.0.0.0.0.0.0.0.0.0.0.0.0.0.0.0.0. | return value |
|ap_return_9   | out |   16| ap_ctrl_hs | dense_latency.0.0.0.0.0.0.0.0.0.0.0.0.0.0.0.0.0.0.0.0.0.0.0. | return value |
|ap_return_10  | out |   16| ap_ctrl_hs | dense_latency.0.0.0.0.0.0.0.0.0.0.0.0.0.0.0.0.0.0.0.0.0.0.0. | return value |
|ap_return_11  | out |   16| ap_ctrl_hs | dense_latency.0.0.0.0.0.0.0.0.0.0.0.0.0.0.0.0.0.0.0.0.0.0.0. | return value |
|ap_return_12  | out |   16| ap_ctrl_hs | dense_latency.0.0.0.0.0.0.0.0.0.0.0.0.0.0.0.0.0.0.0.0.0.0.0. | return value |
|ap_return_13  | out |   16| ap_ctrl_hs | dense_latency.0.0.0.0.0.0.0.0.0.0.0.0.0.0.0.0.0.0.0.0.0.0.0. | return value |
|ap_ce         |  in |    1| ap_ctrl_hs | dense_latency.0.0.0.0.0.0.0.0.0.0.0.0.0.0.0.0.0.0.0.0.0.0.0. | return value |
|data_V_read   |  in |  272|   ap_none  |                          data_V_read                         |    scalar    |
+--------------+-----+-----+------------+--------------------------------------------------------------+--------------+

