

================================================================
== Vivado HLS Report for 'sigmoid_ap_fixed_ap_ufixed_8_0_0_0_0_sigmoid_config7_s'
================================================================
* Date:           Fri Jun 10 13:56:01 2022

* Version:        2020.1 (Build 2897737 on Wed May 27 20:21:37 MDT 2020)
* Project:        myproject_prj
* Solution:       solution1
* Product family: virtexuplus
* Target device:  xcvu9p-flga2104-2L-e


================================================================
== Performance Estimates
================================================================
+ Timing: 
    * Summary: 
    +--------+---------+----------+------------+
    |  Clock |  Target | Estimated| Uncertainty|
    +--------+---------+----------+------------+
    |ap_clk  | 4.17 ns | 3.165 ns |   0.52 ns  |
    +--------+---------+----------+------------+

+ Latency: 
    * Summary: 
    +---------+---------+----------+----------+-----+-----+----------+
    |  Latency (cycles) |  Latency (absolute) |  Interval | Pipeline |
    |   min   |   max   |    min   |    max   | min | max |   Type   |
    +---------+---------+----------+----------+-----+-----+----------+
    |        2|        2| 8.334 ns | 8.334 ns |    1|    1| function |
    +---------+---------+----------+----------+-----+-----+----------+

    + Detail: 
        * Instance: 
        N/A

        * Loop: 
        N/A



================================================================
== Utilization Estimates
================================================================
* Summary: 
+---------------------+---------+-------+---------+---------+-----+
|         Name        | BRAM_18K| DSP48E|    FF   |   LUT   | URAM|
+---------------------+---------+-------+---------+---------+-----+
|DSP                  |        -|      -|        -|        -|    -|
|Expression           |        -|      -|        0|      158|    -|
|FIFO                 |        -|      -|        -|        -|    -|
|Instance             |        -|      -|        -|        -|    -|
|Memory               |        1|      -|        0|        0|    -|
|Multiplexer          |        -|      -|        -|        -|    -|
|Register             |        -|      -|       12|        -|    -|
+---------------------+---------+-------+---------+---------+-----+
|Total                |        1|      0|       12|      158|    0|
+---------------------+---------+-------+---------+---------+-----+
|Available SLR        |     1440|   2280|   788160|   394080|  320|
+---------------------+---------+-------+---------+---------+-----+
|Utilization SLR (%)  |    ~0   |      0|    ~0   |    ~0   |    0|
+---------------------+---------+-------+---------+---------+-----+
|Available            |     4320|   6840|  2364480|  1182240|  960|
+---------------------+---------+-------+---------+---------+-----+
|Utilization (%)      |    ~0   |      0|    ~0   |    ~0   |    0|
+---------------------+---------+-------+---------+---------+-----+

+ Detail: 
    * Instance: 
    N/A

    * DSP48E: 
    N/A

    * Memory: 
    +------------------+--------------------------------------------------------------+---------+---+----+-----+------+-----+------+-------------+
    |      Memory      |                            Module                            | BRAM_18K| FF| LUT| URAM| Words| Bits| Banks| W*Bits*Banks|
    +------------------+--------------------------------------------------------------+---------+---+----+-----+------+-----+------+-------------+
    |sigmoid_table1_U  |sigmoid_ap_fixed_ap_ufixed_8_0_0_0_0_sigmoid_config7_s_sibkb  |        1|  0|   0|    0|   512|    8|     1|         4096|
    +------------------+--------------------------------------------------------------+---------+---+----+-----+------+-----+------+-------------+
    |Total             |                                                              |        1|  0|   0|    0|   512|    8|     1|         4096|
    +------------------+--------------------------------------------------------------+---------+---+----+-----+------+-----+------+-------------+

    * FIFO: 
    N/A

    * Expression: 
    +-----------------------------+----------+-------+---+----+------------+------------+
    |        Variable Name        | Operation| DSP48E| FF| LUT| Bitwidth P0| Bitwidth P1|
    +-----------------------------+----------+-------+---+----+------------+------------+
    |add_ln167_1_fu_161_p2        |     +    |      0|  0|  20|           9|          13|
    |index_fu_155_p2              |     +    |      0|  0|  21|           9|          14|
    |ret_V_fu_129_p2              |     +    |      0|  0|  21|           1|          14|
    |ap_block_pp0_stage0_11001    |    and   |      0|  0|   2|           1|           1|
    |icmp_ln169_fu_197_p2         |   icmp   |      0|  0|   9|           4|           1|
    |icmp_ln851_fu_123_p2         |   icmp   |      0|  0|  11|           8|           1|
    |p_Result_s_fu_105_p2         |   icmp   |      0|  0|  20|          25|           5|
    |ap_block_pp0_stage0_subdone  |    or    |      0|  0|   2|           1|           1|
    |select_ln168_fu_175_p3       |  select  |      0|  0|  13|           1|           1|
    |select_ln169_fu_203_p3       |  select  |      0|  0|   9|           1|           2|
    |select_ln850_fu_143_p3       |  select  |      0|  0|  14|           1|          14|
    |select_ln851_fu_135_p3       |  select  |      0|  0|  14|           1|          14|
    |ap_enable_pp0                |    xor   |      0|  0|   2|           1|           2|
    +-----------------------------+----------+-------+---+----+------------+------------+
    |Total                        |          |      0|  0| 158|          63|          83|
    +-----------------------------+----------+-------+---+----+------------+------------+

    * Multiplexer: 
    N/A

    * Register: 
    +-------------------------+---+----+-----+-----------+
    |           Name          | FF| LUT| Bits| Const Bits|
    +-------------------------+---+----+-----+-----------+
    |ap_CS_fsm                |  1|   0|    1|          0|
    |ap_enable_reg_pp0_iter1  |  1|   0|    1|          0|
    |ap_enable_reg_pp0_iter2  |  1|   0|    1|          0|
    |select_ln169_reg_215     |  9|   0|    9|          0|
    +-------------------------+---+----+-----+-----------+
    |Total                    | 12|   0|   12|          0|
    +-------------------------+---+----+-----+-----------+



================================================================
== Interface
================================================================
* Summary: 
+-------------+-----+-----+------------+--------------------------------------------------------+--------------+
|  RTL Ports  | Dir | Bits|  Protocol  |                      Source Object                     |    C Type    |
+-------------+-----+-----+------------+--------------------------------------------------------+--------------+
|ap_clk       |  in |    1| ap_ctrl_hs | sigmoid<ap_fixed,ap_ufixed<8,0,0,0,0>,sigmoid_config7> | return value |
|ap_rst       |  in |    1| ap_ctrl_hs | sigmoid<ap_fixed,ap_ufixed<8,0,0,0,0>,sigmoid_config7> | return value |
|ap_start     |  in |    1| ap_ctrl_hs | sigmoid<ap_fixed,ap_ufixed<8,0,0,0,0>,sigmoid_config7> | return value |
|ap_done      | out |    1| ap_ctrl_hs | sigmoid<ap_fixed,ap_ufixed<8,0,0,0,0>,sigmoid_config7> | return value |
|ap_idle      | out |    1| ap_ctrl_hs | sigmoid<ap_fixed,ap_ufixed<8,0,0,0,0>,sigmoid_config7> | return value |
|ap_ready     | out |    1| ap_ctrl_hs | sigmoid<ap_fixed,ap_ufixed<8,0,0,0,0>,sigmoid_config7> | return value |
|ap_ce        |  in |    1| ap_ctrl_hs | sigmoid<ap_fixed,ap_ufixed<8,0,0,0,0>,sigmoid_config7> | return value |
|ap_return    | out |    8| ap_ctrl_hs | sigmoid<ap_fixed,ap_ufixed<8,0,0,0,0>,sigmoid_config7> | return value |
|data_V_read  |  in |   16|   ap_none  |                       data_V_read                      |    scalar    |
+-------------+-----+-----+------------+--------------------------------------------------------+--------------+

