

================================================================
== Vivado HLS Report for 'dense_latency_ap_ufixed_ap_fixed_config8_0_0'
================================================================
* Date:           Fri Jun 10 13:53:48 2022

* Version:        2020.1 (Build 2897737 on Wed May 27 20:21:37 MDT 2020)
* Project:        myproject_prj
* Solution:       solution1
* Product family: virtexuplus
* Target device:  xcvu9p-flga2104-2L-e


================================================================
== Performance Estimates
================================================================
+ Timing: 
    * Summary: 
    +--------+---------+----------+------------+
    |  Clock |  Target | Estimated| Uncertainty|
    +--------+---------+----------+------------+
    |ap_clk  | 4.17 ns | 3.104 ns |   0.52 ns  |
    +--------+---------+----------+------------+

+ Latency: 
    * Summary: 
    +---------+---------+----------+----------+-----+-----+----------+
    |  Latency (cycles) |  Latency (absolute) |  Interval | Pipeline |
    |   min   |   max   |    min   |    max   | min | max |   Type   |
    +---------+---------+----------+----------+-----+-----+----------+
    |        1|        1| 4.167 ns | 4.167 ns |    1|    1| function |
    +---------+---------+----------+----------+-----+-----+----------+

    + Detail: 
        * Instance: 
        N/A

        * Loop: 
        N/A



================================================================
== Utilization Estimates
================================================================
* Summary: 
+---------------------+---------+-------+---------+---------+-----+
|         Name        | BRAM_18K| DSP48E|    FF   |   LUT   | URAM|
+---------------------+---------+-------+---------+---------+-----+
|DSP                  |        -|      -|        -|        -|    -|
|Expression           |        -|      0|        0|      406|    -|
|FIFO                 |        -|      -|        -|        -|    -|
|Instance             |        -|      -|        -|        -|    -|
|Memory               |        -|      -|        -|        -|    -|
|Multiplexer          |        -|      -|        -|        9|    -|
|Register             |        -|      -|       35|        -|    -|
+---------------------+---------+-------+---------+---------+-----+
|Total                |        0|      0|       35|      415|    0|
+---------------------+---------+-------+---------+---------+-----+
|Available SLR        |     1440|   2280|   788160|   394080|  320|
+---------------------+---------+-------+---------+---------+-----+
|Utilization SLR (%)  |        0|      0|    ~0   |    ~0   |    0|
+---------------------+---------+-------+---------+---------+-----+
|Available            |     4320|   6840|  2364480|  1182240|  960|
+---------------------+---------+-------+---------+---------+-----+
|Utilization (%)      |        0|      0|    ~0   |    ~0   |    0|
+---------------------+---------+-------+---------+---------+-----+

+ Detail: 
    * Instance: 
    N/A

    * DSP48E: 
    N/A

    * Memory: 
    N/A

    * FIFO: 
    N/A

    * Expression: 
    +------------------------+----------+-------+---+----+------------+------------+
    |      Variable Name     | Operation| DSP48E| FF| LUT| Bitwidth P0| Bitwidth P1|
    +------------------------+----------+-------+---+----+------------+------------+
    |mul_ln1118_1_fu_119_p2  |     *    |      0|  0|  23|           3|           6|
    |mul_ln1118_fu_123_p2    |     *    |      0|  0|  33|           3|           7|
    |mul_ln728_1_fu_120_p2   |     *    |      0|  0|  33|           3|           7|
    |mul_ln728_2_fu_125_p2   |     *    |      0|  0|  33|           3|           7|
    |mul_ln728_fu_122_p2     |     *    |      0|  0|  33|           3|           7|
    |add_ln703_1_fu_507_p2   |     +    |      0|  0|  18|          11|          11|
    |add_ln703_2_fu_517_p2   |     +    |      0|  0|  19|          12|          12|
    |add_ln703_3_fu_523_p2   |     +    |      0|  0|  20|          12|          12|
    |add_ln703_4_fu_529_p2   |     +    |      0|  0|  20|          10|           5|
    |add_ln703_5_fu_535_p2   |     +    |      0|  0|  20|          10|          10|
    |add_ln703_6_fu_545_p2   |     +    |      0|  0|  20|          12|          12|
    |add_ln703_7_fu_557_p2   |     +    |      0|  0|  20|          13|          13|
    |add_ln703_fu_497_p2     |     +    |      0|  0|  18|          11|          11|
    |sub_ln1118_1_fu_387_p2  |     -    |      0|  0|  20|           9|           9|
    |sub_ln1118_2_fu_426_p2  |     -    |      0|  0|  20|           1|           9|
    |sub_ln1118_3_fu_444_p2  |     -    |      0|  0|  20|           9|           9|
    |sub_ln1118_4_fu_347_p2  |     -    |      0|  0|  16|           9|           9|
    |sub_ln1118_fu_381_p2    |     -    |      0|  0|  20|           1|           9|
    +------------------------+----------+-------+---+----+------------+------------+
    |Total                   |          |      0|  0| 406|         135|         165|
    +------------------------+----------+-------+---+----+------------+------------+

    * Multiplexer: 
    +-----------+----+-----------+-----+-----------+
    |    Name   | LUT| Input Size| Bits| Total Bits|
    +-----------+----+-----------+-----+-----------+
    |ap_return  |   9|          2|   12|         24|
    +-----------+----+-----------+-----+-----------+
    |Total      |   9|          2|   12|         24|
    +-----------+----+-----------+-----+-----------+

    * Register: 
    +---------------------+----+----+-----+-----------+
    |         Name        | FF | LUT| Bits| Const Bits|
    +---------------------+----+----+-----+-----------+
    |add_ln703_2_reg_563  |  11|   0|   12|          1|
    |add_ln703_6_reg_568  |  11|   0|   12|          1|
    |ap_ce_reg            |   1|   0|    1|          0|
    |ap_return_int_reg    |  12|   0|   13|          1|
    +---------------------+----+----+-----+-----------+
    |Total                |  35|   0|   38|          3|
    +---------------------+----+----+-----+-----------+



================================================================
== Interface
================================================================
* Summary: 
+----------------+-----+-----+------------+-----------------------------------------------+--------------+
|    RTL Ports   | Dir | Bits|  Protocol  |                 Source Object                 |    C Type    |
+----------------+-----+-----+------------+-----------------------------------------------+--------------+
|ap_clk          |  in |    1| ap_ctrl_hs | dense_latency<ap_ufixed,ap_fixed,config8>.0.0 | return value |
|ap_rst          |  in |    1| ap_ctrl_hs | dense_latency<ap_ufixed,ap_fixed,config8>.0.0 | return value |
|ap_return       | out |   13| ap_ctrl_hs | dense_latency<ap_ufixed,ap_fixed,config8>.0.0 | return value |
|ap_ce           |  in |    1| ap_ctrl_hs | dense_latency<ap_ufixed,ap_fixed,config8>.0.0 | return value |
|data_1_V_read   |  in |    3|   ap_none  |                 data_1_V_read                 |    scalar    |
|data_12_V_read  |  in |    3|   ap_none  |                 data_12_V_read                |    scalar    |
|data_13_V_read  |  in |    3|   ap_none  |                 data_13_V_read                |    scalar    |
|data_16_V_read  |  in |    3|   ap_none  |                 data_16_V_read                |    scalar    |
|data_19_V_read  |  in |    3|   ap_none  |                 data_19_V_read                |    scalar    |
|data_21_V_read  |  in |    3|   ap_none  |                 data_21_V_read                |    scalar    |
|data_23_V_read  |  in |    3|   ap_none  |                 data_23_V_read                |    scalar    |
|data_27_V_read  |  in |    3|   ap_none  |                 data_27_V_read                |    scalar    |
+----------------+-----+-----+------------+-----------------------------------------------+--------------+

