

================================================================
== Vivado HLS Report for 'linear_ap_fixed_ap_fixed_16_8_0_0_0_linear_config6_s'
================================================================
* Date:           Fri Jun 10 13:53:48 2022

* Version:        2020.1 (Build 2897737 on Wed May 27 20:21:37 MDT 2020)
* Project:        myproject_prj
* Solution:       solution1
* Product family: virtexuplus
* Target device:  xcvu9p-flga2104-2L-e


================================================================
== Performance Estimates
================================================================
+ Timing: 
    * Summary: 
    +--------+---------+----------+------------+
    |  Clock |  Target | Estimated| Uncertainty|
    +--------+---------+----------+------------+
    |ap_clk  | 4.17 ns |   0 ns   |   0.52 ns  |
    +--------+---------+----------+------------+

+ Latency: 
    * Summary: 
    +---------+---------+----------+----------+-----+-----+----------+
    |  Latency (cycles) |  Latency (absolute) |  Interval | Pipeline |
    |   min   |   max   |    min   |    max   | min | max |   Type   |
    +---------+---------+----------+----------+-----+-----+----------+
    |        0|        0|   0 ns   |   0 ns   |    1|    1| function |
    +---------+---------+----------+----------+-----+-----+----------+

    + Detail: 
        * Instance: 
        N/A

        * Loop: 
        N/A



================================================================
== Utilization Estimates
================================================================
* Summary: 
+---------------------+---------+-------+---------+---------+-----+
|         Name        | BRAM_18K| DSP48E|    FF   |   LUT   | URAM|
+---------------------+---------+-------+---------+---------+-----+
|DSP                  |        -|      -|        -|        -|    -|
|Expression           |        -|      -|        -|        -|    -|
|FIFO                 |        -|      -|        -|        -|    -|
|Instance             |        -|      -|        -|        -|    -|
|Memory               |        -|      -|        -|        -|    -|
|Multiplexer          |        -|      -|        -|        -|    -|
|Register             |        -|      -|        -|        -|    -|
+---------------------+---------+-------+---------+---------+-----+
|Total                |        0|      0|        0|        0|    0|
+---------------------+---------+-------+---------+---------+-----+
|Available SLR        |     1440|   2280|   788160|   394080|  320|
+---------------------+---------+-------+---------+---------+-----+
|Utilization SLR (%)  |        0|      0|        0|        0|    0|
+---------------------+---------+-------+---------+---------+-----+
|Available            |     4320|   6840|  2364480|  1182240|  960|
+---------------------+---------+-------+---------+---------+-----+
|Utilization (%)      |        0|      0|        0|        0|    0|
+---------------------+---------+-------+---------+---------+-----+

+ Detail: 
    * Instance: 
    N/A

    * DSP48E: 
    N/A

    * Memory: 
    N/A

    * FIFO: 
    N/A

    * Expression: 
    N/A

    * Multiplexer: 
    N/A

    * Register: 
    N/A



================================================================
== Interface
================================================================
* Summary: 
+----------------+-----+-----+------------+------------------------------------------------------+--------------+
|    RTL Ports   | Dir | Bits|  Protocol  |                     Source Object                    |    C Type    |
+----------------+-----+-----+------------+------------------------------------------------------+--------------+
|ap_ready        | out |    1| ap_ctrl_hs | linear<ap_fixed,ap_fixed<16,8,0,0,0>,linear_config6> | return value |
|ap_return_0     | out |   16| ap_ctrl_hs | linear<ap_fixed,ap_fixed<16,8,0,0,0>,linear_config6> | return value |
|ap_return_1     | out |   16| ap_ctrl_hs | linear<ap_fixed,ap_fixed<16,8,0,0,0>,linear_config6> | return value |
|ap_return_2     | out |   16| ap_ctrl_hs | linear<ap_fixed,ap_fixed<16,8,0,0,0>,linear_config6> | return value |
|ap_return_3     | out |   16| ap_ctrl_hs | linear<ap_fixed,ap_fixed<16,8,0,0,0>,linear_config6> | return value |
|ap_return_4     | out |   16| ap_ctrl_hs | linear<ap_fixed,ap_fixed<16,8,0,0,0>,linear_config6> | return value |
|ap_return_5     | out |   16| ap_ctrl_hs | linear<ap_fixed,ap_fixed<16,8,0,0,0>,linear_config6> | return value |
|ap_return_6     | out |   16| ap_ctrl_hs | linear<ap_fixed,ap_fixed<16,8,0,0,0>,linear_config6> | return value |
|ap_return_7     | out |   16| ap_ctrl_hs | linear<ap_fixed,ap_fixed<16,8,0,0,0>,linear_config6> | return value |
|data_1_V_read   |  in |   16|   ap_none  |                     data_1_V_read                    |    scalar    |
|data_12_V_read  |  in |   16|   ap_none  |                    data_12_V_read                    |    scalar    |
|data_13_V_read  |  in |   16|   ap_none  |                    data_13_V_read                    |    scalar    |
|data_16_V_read  |  in |   16|   ap_none  |                    data_16_V_read                    |    scalar    |
|data_19_V_read  |  in |   16|   ap_none  |                    data_19_V_read                    |    scalar    |
|data_21_V_read  |  in |   16|   ap_none  |                    data_21_V_read                    |    scalar    |
|data_23_V_read  |  in |   16|   ap_none  |                    data_23_V_read                    |    scalar    |
|data_27_V_read  |  in |   16|   ap_none  |                    data_27_V_read                    |    scalar    |
+----------------+-----+-----+------------+------------------------------------------------------+--------------+

