# ==============================================================
# Vivado(TM) HLS - High-Level Synthesis from C, C++ and SystemC v2020.1 (64-bit)
# Copyright 1986-2020 Xilinx, Inc. All Rights Reserved.
# ==============================================================

Family       : virtexuplus
Device       : xcvu9p
Package      : -flga2104
Speed Grade  : -2L-e
Clock Period : 1.923 ns
