

================================================================
== Vivado HLS Report for 'dense_latency_0_0_0_0_0_0_0_0_0_0_0_0_0_0_0_0_0_0_0_0_0_0_0_1'
================================================================
* Date:           Tue May 31 16:41:34 2022

* Version:        2020.1 (Build 2897737 on Wed May 27 20:21:37 MDT 2020)
* Project:        myproject_prj
* Solution:       solution1
* Product family: virtexuplus
* Target device:  xcvu9p-flga2104-2L-e


================================================================
== Performance Estimates
================================================================
+ Timing: 
    * Summary: 
    +--------+---------+----------+------------+
    |  Clock |  Target | Estimated| Uncertainty|
    +--------+---------+----------+------------+
    |ap_clk  | 1.92 ns | 1.540 ns |   0.24 ns  |
    +--------+---------+----------+------------+

+ Latency: 
    * Summary: 
    +---------+---------+----------+----------+-----+-----+----------+
    |  Latency (cycles) |  Latency (absolute) |  Interval | Pipeline |
    |   min   |   max   |    min   |    max   | min | max |   Type   |
    +---------+---------+----------+----------+-----+-----+----------+
    |        2|        2| 3.846 ns | 3.846 ns |    1|    1| function |
    +---------+---------+----------+----------+-----+-----+----------+

    + Detail: 
        * Instance: 
        N/A

        * Loop: 
        N/A



================================================================
== Utilization Estimates
================================================================
* Summary: 
+---------------------+---------+-------+---------+---------+-----+
|         Name        | BRAM_18K| DSP48E|    FF   |   LUT   | URAM|
+---------------------+---------+-------+---------+---------+-----+
|DSP                  |        -|      -|        -|        -|    -|
|Expression           |        -|      0|        0|     1200|    -|
|FIFO                 |        -|      -|        -|        -|    -|
|Instance             |        -|      -|        -|        -|    -|
|Memory               |        -|      -|        -|        -|    -|
|Multiplexer          |        -|      -|        -|       45|    -|
|Register             |        -|      -|      341|        -|    -|
+---------------------+---------+-------+---------+---------+-----+
|Total                |        0|      0|      341|     1245|    0|
+---------------------+---------+-------+---------+---------+-----+
|Available SLR        |     1440|   2280|   788160|   394080|  320|
+---------------------+---------+-------+---------+---------+-----+
|Utilization SLR (%)  |        0|      0|    ~0   |    ~0   |    0|
+---------------------+---------+-------+---------+---------+-----+
|Available            |     4320|   6840|  2364480|  1182240|  960|
+---------------------+---------+-------+---------+---------+-----+
|Utilization (%)      |        0|      0|    ~0   |    ~0   |    0|
+---------------------+---------+-------+---------+---------+-----+

+ Detail: 
    * Instance: 
    N/A

    * DSP48E: 
    N/A

    * Memory: 
    N/A

    * FIFO: 
    N/A

    * Expression: 
    +--------------------------+----------+-------+---+----+------------+------------+
    |       Variable Name      | Operation| DSP48E| FF| LUT| Bitwidth P0| Bitwidth P1|
    +--------------------------+----------+-------+---+----+------------+------------+
    |mul_ln728_fu_215_p2       |     *    |      0|  0|  11|           3|           4|
    |acc_11_V_fu_1671_p2       |     +    |      0|  0|  23|          16|          16|
    |acc_14_V_fu_1701_p2       |     +    |      0|  0|  21|          15|          15|
    |acc_24_V_fu_1727_p2       |     +    |      0|  0|  23|          16|          16|
    |acc_26_V_fu_1733_p2       |     +    |      0|  0|  21|          14|           7|
    |acc_9_V_fu_1624_p2        |     +    |      0|  0|  21|          16|          16|
    |add_ln1118_2_fu_793_p2    |     +    |      0|  0|  15|           7|           7|
    |add_ln1118_3_fu_553_p2    |     +    |      0|  0|  15|           7|           7|
    |add_ln1118_fu_754_p2      |     +    |      0|  0|  15|           7|           7|
    |add_ln703_11_fu_1398_p2   |     +    |      0|  0|  17|          10|          10|
    |add_ln703_12_fu_1404_p2   |     +    |      0|  0|  18|          11|          11|
    |add_ln703_13_fu_1596_p2   |     +    |      0|  0|  21|          12|          12|
    |add_ln703_14_fu_1602_p2   |     +    |      0|  0|  21|          12|          12|
    |add_ln703_15_fu_1410_p2   |     +    |      0|  0|  21|          14|          14|
    |add_ln703_16_fu_1420_p2   |     +    |      0|  0|  22|          15|          15|
    |add_ln703_17_fu_1426_p2   |     +    |      0|  0|  21|          11|          11|
    |add_ln703_18_fu_1432_p2   |     +    |      0|  0|  17|          10|           7|
    |add_ln703_19_fu_1442_p2   |     +    |      0|  0|  21|          11|          11|
    |add_ln703_20_fu_1618_p2   |     +    |      0|  0|  21|          16|          16|
    |add_ln703_22_fu_1448_p2   |     +    |      0|  0|  21|          14|          14|
    |add_ln703_23_fu_1645_p2   |     +    |      0|  0|  22|          15|          15|
    |add_ln703_24_fu_1454_p2   |     +    |      0|  0|  16|           9|           9|
    |add_ln703_25_fu_1460_p2   |     +    |      0|  0|  21|          14|           7|
    |add_ln703_26_fu_1661_p2   |     +    |      0|  0|  22|          15|          15|
    |add_ln703_28_fu_1466_p2   |     +    |      0|  0|  21|          11|          11|
    |add_ln703_29_fu_1472_p2   |     +    |      0|  0|  21|          11|          11|
    |add_ln703_30_fu_1478_p2   |     +    |      0|  0|  21|          14|          14|
    |add_ln703_31_fu_1484_p2   |     +    |      0|  0|  18|          11|          11|
    |add_ln703_32_fu_1686_p2   |     +    |      0|  0|  22|          15|          15|
    |add_ln703_33_fu_1692_p2   |     +    |      0|  0|  21|          15|          15|
    |add_ln703_34_fu_639_p2    |     +    |      0|  0|  18|          11|          11|
    |add_ln703_35_fu_1493_p2   |     +    |      0|  0|  19|          12|          12|
    |add_ln703_36_fu_645_p2    |     +    |      0|  0|  18|          11|          11|
    |add_ln703_37_fu_651_p2    |     +    |      0|  0|  17|          10|           7|
    |add_ln703_38_fu_1509_p2   |     +    |      0|  0|  19|          12|          12|
    |add_ln703_39_fu_1519_p2   |     +    |      0|  0|  20|          13|          13|
    |add_ln703_41_fu_1525_p2   |     +    |      0|  0|  21|          14|          14|
    |add_ln703_42_fu_1714_p2   |     +    |      0|  0|  22|          15|          15|
    |add_ln703_43_fu_1531_p2   |     +    |      0|  0|  21|          11|          11|
    |add_ln703_44_fu_1537_p2   |     +    |      0|  0|  17|          10|          10|
    |add_ln703_45_fu_1547_p2   |     +    |      0|  0|  21|          11|          11|
    |add_ln703_fu_1388_p2      |     +    |      0|  0|  15|           8|           8|
    |sub_ln1118_10_fu_1070_p2  |     -    |      0|  0|  15|           8|           8|
    |sub_ln1118_11_fu_1084_p2  |     -    |      0|  0|  15|           8|           8|
    |sub_ln1118_12_fu_1112_p2  |     -    |      0|  0|  15|           8|           8|
    |sub_ln1118_13_fu_1172_p2  |     -    |      0|  0|  15|           7|           7|
    |sub_ln1118_14_fu_465_p2   |     -    |      0|  0|  21|           1|           7|
    |sub_ln1118_15_fu_471_p2   |     -    |      0|  0|  21|           7|           7|
    |sub_ln1118_16_fu_1227_p2  |     -    |      0|  0|  15|           1|           5|
    |sub_ln1118_17_fu_505_p2   |     -    |      0|  0|  15|           7|           7|
    |sub_ln1118_18_fu_511_p2   |     -    |      0|  0|  15|           1|           7|
    |sub_ln1118_19_fu_1277_p2  |     -    |      0|  0|  15|           8|           8|
    |sub_ln1118_1_fu_398_p2    |     -    |      0|  0|  12|           1|           4|
    |sub_ln1118_20_fu_595_p2   |     -    |      0|  0|  15|           8|           8|
    |sub_ln1118_21_fu_1366_p2  |     -    |      0|  0|  15|           8|           8|
    |sub_ln1118_39_fu_674_p2   |     -    |      0|  0|  15|           6|           6|
    |sub_ln1118_40_fu_703_p2   |     -    |      0|  0|  15|           8|           8|
    |sub_ln1118_41_fu_443_p2   |     -    |      0|  0|  15|           6|           6|
    |sub_ln1118_42_fu_1302_p2  |     -    |      0|  0|  15|           6|           6|
    |sub_ln1118_43_fu_625_p2   |     -    |      0|  0|  15|           7|           7|
    |sub_ln1118_4_fu_848_p2    |     -    |      0|  0|  15|           7|           7|
    |sub_ln1118_5_fu_416_p2    |     -    |      0|  0|  15|           1|           7|
    |sub_ln1118_6_fu_884_p2    |     -    |      0|  0|  15|           8|           8|
    |sub_ln1118_7_fu_924_p2    |     -    |      0|  0|  15|           7|           7|
    |sub_ln1118_8_fu_968_p2    |     -    |      0|  0|  15|           8|           8|
    |sub_ln1118_9_fu_1037_p2   |     -    |      0|  0|  15|           7|           7|
    |sub_ln1118_fu_388_p2      |     -    |      0|  0|  12|           1|           4|
    +--------------------------+----------+-------+---+----+------------+------------+
    |Total                     |          |      0|  0|1200|         650|         659|
    +--------------------------+----------+-------+---+----+------------+------------+

    * Multiplexer: 
    +-------------+----+-----------+-----+-----------+
    |     Name    | LUT| Input Size| Bits| Total Bits|
    +-------------+----+-----------+-----+-----------+
    |ap_return_0  |   9|          2|   13|         26|
    |ap_return_1  |   9|          2|   13|         26|
    |ap_return_2  |   9|          2|   13|         26|
    |ap_return_3  |   9|          2|   13|         26|
    |ap_return_4  |   9|          2|   13|         26|
    +-------------+----+-----------+-----+-----------+
    |Total        |  45|         10|   65|        130|
    +-------------+----+-----------+-----+-----------+

    * Register: 
    +-----------------------------------------+----+----+-----+-----------+
    |                   Name                  | FF | LUT| Bits| Const Bits|
    +-----------------------------------------+----+----+-----+-----------+
    |add_ln1118_reg_1918                      |   6|   0|    7|          1|
    |add_ln703_11_reg_1928                    |   7|   0|   10|          3|
    |add_ln703_12_reg_1933                    |   7|   0|   11|          4|
    |add_ln703_16_reg_1938                    |  12|   0|   15|          3|
    |add_ln703_19_reg_1943                    |   7|   0|   11|          4|
    |add_ln703_22_reg_1948                    |  11|   0|   14|          3|
    |add_ln703_24_reg_1953                    |   6|   0|    9|          3|
    |add_ln703_25_reg_1958                    |   9|   0|   14|          5|
    |add_ln703_29_reg_1963                    |   8|   0|   11|          3|
    |add_ln703_30_reg_1968                    |  10|   0|   14|          4|
    |add_ln703_31_reg_1973                    |   8|   0|   11|          3|
    |add_ln703_34_reg_1903                    |   8|   0|   11|          3|
    |add_ln703_36_reg_1908                    |   7|   0|   11|          4|
    |add_ln703_37_reg_1913                    |   7|   0|   10|          3|
    |add_ln703_39_reg_1978                    |  10|   0|   13|          3|
    |add_ln703_41_reg_1983                    |  11|   0|   14|          3|
    |add_ln703_45_reg_1988                    |   8|   0|   11|          3|
    |ap_ce_reg                                |   1|   0|    1|          0|
    |ap_return_0_int_reg                      |  13|   0|   16|          3|
    |ap_return_1_int_reg                      |  13|   0|   16|          3|
    |ap_return_2_int_reg                      |  13|   0|   16|          3|
    |ap_return_3_int_reg                      |  13|   0|   16|          3|
    |ap_return_4_int_reg                      |  13|   0|   16|          3|
    |data_11_V_read_8_reg_1852                |   3|   0|    3|          0|
    |data_11_V_read_int_reg                   |   3|   0|    3|          0|
    |data_12_V_read_6_reg_1846                |   3|   0|    3|          0|
    |data_12_V_read_int_reg                   |   3|   0|    3|          0|
    |data_16_V_read11_reg_1838                |   3|   0|    3|          0|
    |data_16_V_read_int_reg                   |   3|   0|    3|          0|
    |data_19_V_read12_reg_1832                |   3|   0|    3|          0|
    |data_19_V_read12_reg_1832_pp0_iter1_reg  |   3|   0|    3|          0|
    |data_19_V_read_int_reg                   |   3|   0|    3|          0|
    |data_23_V_read_3_reg_1824                |   3|   0|    3|          0|
    |data_23_V_read_int_reg                   |   3|   0|    3|          0|
    |data_33_V_read_3_reg_1814                |   3|   0|    3|          0|
    |data_33_V_read_int_reg                   |   3|   0|    3|          0|
    |data_37_V_read_3_reg_1806                |   3|   0|    3|          0|
    |data_37_V_read_int_reg                   |   3|   0|    3|          0|
    |data_40_V_read_3_reg_1799                |   3|   0|    3|          0|
    |data_40_V_read_3_reg_1799_pp0_iter1_reg  |   3|   0|    3|          0|
    |data_40_V_read_int_reg                   |   3|   0|    3|          0|
    |data_43_V_read_3_reg_1792                |   3|   0|    3|          0|
    |data_43_V_read_3_reg_1792_pp0_iter1_reg  |   3|   0|    3|          0|
    |data_43_V_read_int_reg                   |   3|   0|    3|          0|
    |data_48_V_read_int_reg                   |   3|   0|    3|          0|
    |data_50_V_read_2_reg_1785                |   3|   0|    3|          0|
    |data_50_V_read_int_reg                   |   3|   0|    3|          0|
    |data_51_V_read_3_reg_1780                |   3|   0|    3|          0|
    |data_51_V_read_int_reg                   |   3|   0|    3|          0|
    |data_56_V_read21_reg_1773                |   3|   0|    3|          0|
    |data_56_V_read_int_reg                   |   3|   0|    3|          0|
    |mul_ln728_reg_379                        |   7|   0|    7|          0|
    |mult_1624_V_reg_1893                     |   3|   0|    6|          3|
    |mult_1643_V_reg_1898                     |   3|   0|    7|          4|
    |shl_ln1118_32_reg_1888                   |   3|   0|    4|          1|
    |sub_ln1118_11_reg_1923                   |   8|   0|    8|          0|
    |sub_ln1118_17_reg_1883                   |   7|   0|    7|          0|
    |sub_ln1118_1_reg_1868                    |   4|   0|    4|          0|
    |sub_ln1118_41_reg_1878                   |   6|   0|    6|          0|
    |sub_ln1118_5_reg_1873                    |   4|   0|    7|          3|
    |sub_ln1118_reg_1863                      |   4|   0|    4|          0|
    +-----------------------------------------+----+----+-----+-----------+
    |Total                                    | 341|   0|  422|         81|
    +-----------------------------------------+----+----+-----+-----------+



================================================================
== Interface
================================================================
* Summary: 
+----------------+-----+-----+------------+----------------------------------------------------------------+--------------+
|    RTL Ports   | Dir | Bits|  Protocol  |                          Source Object                         |    C Type    |
+----------------+-----+-----+------------+----------------------------------------------------------------+--------------+
|ap_clk          |  in |    1| ap_ctrl_hs | dense_latency.0.0.0.0.0.0.0.0.0.0.0.0.0.0.0.0.0.0.0.0.0.0.0..1 | return value |
|ap_rst          |  in |    1| ap_ctrl_hs | dense_latency.0.0.0.0.0.0.0.0.0.0.0.0.0.0.0.0.0.0.0.0.0.0.0..1 | return value |
|ap_return_0     | out |   16| ap_ctrl_hs | dense_latency.0.0.0.0.0.0.0.0.0.0.0.0.0.0.0.0.0.0.0.0.0.0.0..1 | return value |
|ap_return_1     | out |   16| ap_ctrl_hs | dense_latency.0.0.0.0.0.0.0.0.0.0.0.0.0.0.0.0.0.0.0.0.0.0.0..1 | return value |
|ap_return_2     | out |   16| ap_ctrl_hs | dense_latency.0.0.0.0.0.0.0.0.0.0.0.0.0.0.0.0.0.0.0.0.0.0.0..1 | return value |
|ap_return_3     | out |   16| ap_ctrl_hs | dense_latency.0.0.0.0.0.0.0.0.0.0.0.0.0.0.0.0.0.0.0.0.0.0.0..1 | return value |
|ap_return_4     | out |   16| ap_ctrl_hs | dense_latency.0.0.0.0.0.0.0.0.0.0.0.0.0.0.0.0.0.0.0.0.0.0.0..1 | return value |
|ap_ce           |  in |    1| ap_ctrl_hs | dense_latency.0.0.0.0.0.0.0.0.0.0.0.0.0.0.0.0.0.0.0.0.0.0.0..1 | return value |
|data_11_V_read  |  in |    3|   ap_none  |                         data_11_V_read                         |    scalar    |
|data_12_V_read  |  in |    3|   ap_none  |                         data_12_V_read                         |    scalar    |
|data_16_V_read  |  in |    3|   ap_none  |                         data_16_V_read                         |    scalar    |
|data_19_V_read  |  in |    3|   ap_none  |                         data_19_V_read                         |    scalar    |
|data_23_V_read  |  in |    3|   ap_none  |                         data_23_V_read                         |    scalar    |
|data_33_V_read  |  in |    3|   ap_none  |                         data_33_V_read                         |    scalar    |
|data_37_V_read  |  in |    3|   ap_none  |                         data_37_V_read                         |    scalar    |
|data_40_V_read  |  in |    3|   ap_none  |                         data_40_V_read                         |    scalar    |
|data_43_V_read  |  in |    3|   ap_none  |                         data_43_V_read                         |    scalar    |
|data_48_V_read  |  in |    3|   ap_none  |                         data_48_V_read                         |    scalar    |
|data_50_V_read  |  in |    3|   ap_none  |                         data_50_V_read                         |    scalar    |
|data_51_V_read  |  in |    3|   ap_none  |                         data_51_V_read                         |    scalar    |
|data_56_V_read  |  in |    3|   ap_none  |                         data_56_V_read                         |    scalar    |
+----------------+-----+-----+------------+----------------------------------------------------------------+--------------+

