

================================================================
== Vivado HLS Report for 'dense_latency_ap_ufixed_ap_fixed_config11_0_0'
================================================================
* Date:           Tue May 31 16:41:35 2022

* Version:        2020.1 (Build 2897737 on Wed May 27 20:21:37 MDT 2020)
* Project:        myproject_prj
* Solution:       solution1
* Product family: virtexuplus
* Target device:  xcvu9p-flga2104-2L-e


================================================================
== Performance Estimates
================================================================
+ Timing: 
    * Summary: 
    +--------+---------+----------+------------+
    |  Clock |  Target | Estimated| Uncertainty|
    +--------+---------+----------+------------+
    |ap_clk  | 1.92 ns | 1.540 ns |   0.24 ns  |
    +--------+---------+----------+------------+

+ Latency: 
    * Summary: 
    +---------+---------+----------+----------+-----+-----+----------+
    |  Latency (cycles) |  Latency (absolute) |  Interval | Pipeline |
    |   min   |   max   |    min   |    max   | min | max |   Type   |
    +---------+---------+----------+----------+-----+-----+----------+
    |        2|        2| 3.846 ns | 3.846 ns |    1|    1| function |
    +---------+---------+----------+----------+-----+-----+----------+

    + Detail: 
        * Instance: 
        N/A

        * Loop: 
        N/A



================================================================
== Utilization Estimates
================================================================
* Summary: 
+---------------------+---------+-------+---------+---------+-----+
|         Name        | BRAM_18K| DSP48E|    FF   |   LUT   | URAM|
+---------------------+---------+-------+---------+---------+-----+
|DSP                  |        -|      -|        -|        -|    -|
|Expression           |        -|      -|        0|      267|    -|
|FIFO                 |        -|      -|        -|        -|    -|
|Instance             |        -|      -|        -|        -|    -|
|Memory               |        -|      -|        -|        -|    -|
|Multiplexer          |        -|      -|        -|        9|    -|
|Register             |        -|      -|       89|        -|    -|
+---------------------+---------+-------+---------+---------+-----+
|Total                |        0|      0|       89|      276|    0|
+---------------------+---------+-------+---------+---------+-----+
|Available SLR        |     1440|   2280|   788160|   394080|  320|
+---------------------+---------+-------+---------+---------+-----+
|Utilization SLR (%)  |        0|      0|    ~0   |    ~0   |    0|
+---------------------+---------+-------+---------+---------+-----+
|Available            |     4320|   6840|  2364480|  1182240|  960|
+---------------------+---------+-------+---------+---------+-----+
|Utilization (%)      |        0|      0|    ~0   |    ~0   |    0|
+---------------------+---------+-------+---------+---------+-----+

+ Detail: 
    * Instance: 
    N/A

    * DSP48E: 
    N/A

    * Memory: 
    N/A

    * FIFO: 
    N/A

    * Expression: 
    +------------------------+----------+-------+---+----+------------+------------+
    |      Variable Name     | Operation| DSP48E| FF| LUT| Bitwidth P0| Bitwidth P1|
    +------------------------+----------+-------+---+----+------------+------------+
    |add_ln703_1_fu_324_p2   |     +    |      0|  0|  20|          13|          13|
    |add_ln703_2_fu_334_p2   |     +    |      0|  0|  21|          14|          14|
    |add_ln703_3_fu_340_p2   |     +    |      0|  0|  21|          14|          14|
    |add_ln703_4_fu_346_p2   |     +    |      0|  0|  20|          13|          10|
    |add_ln703_5_fu_356_p2   |     +    |      0|  0|  21|          14|          14|
    |add_ln703_6_fu_371_p2   |     +    |      0|  0|  22|          15|          15|
    |add_ln703_7_fu_381_p2   |     +    |      0|  0|  23|          16|          16|
    |add_ln703_fu_314_p2     |     +    |      0|  0|  20|          13|          13|
    |sub_ln1118_1_fu_126_p2  |     -    |      0|  0|  15|           6|           6|
    |sub_ln1118_2_fu_225_p2  |     -    |      0|  0|  12|           1|           4|
    |sub_ln1118_3_fu_158_p2  |     -    |      0|  0|  15|           6|           6|
    |sub_ln1118_4_fu_257_p2  |     -    |      0|  0|  15|           6|           6|
    |sub_ln1118_5_fu_289_p2  |     -    |      0|  0|  15|           6|           6|
    |sub_ln1118_6_fu_180_p2  |     -    |      0|  0|  15|           6|           6|
    |sub_ln1118_fu_136_p2    |     -    |      0|  0|  12|           1|           4|
    +------------------------+----------+-------+---+----+------------+------------+
    |Total                   |          |      0|  0| 267|         144|         147|
    +------------------------+----------+-------+---+----+------------+------------+

    * Multiplexer: 
    +-----------+----+-----------+-----+-----------+
    |    Name   | LUT| Input Size| Bits| Total Bits|
    +-----------+----+-----------+-----+-----------+
    |ap_return  |   9|          2|    9|         18|
    +-----------+----+-----------+-----+-----------+
    |Total      |   9|          2|    9|         18|
    +-----------+----+-----------+-----+-----------+

    * Register: 
    +--------------------------+---+----+-----+-----------+
    |           Name           | FF| LUT| Bits| Const Bits|
    +--------------------------+---+----+-----+-----------+
    |add_ln703_2_reg_429       |  7|   0|   14|          7|
    |add_ln703_3_reg_434       |  7|   0|   14|          7|
    |add_ln703_5_reg_439       |  7|   0|   14|          7|
    |ap_ce_reg                 |  1|   0|    1|          0|
    |ap_return_int_reg         |  9|   0|   16|          7|
    |data_11_V_read_int_reg    |  3|   0|    3|          0|
    |data_12_V_read_int_reg    |  3|   0|    3|          0|
    |data_13_V_read_3_reg_404  |  3|   0|    3|          0|
    |data_13_V_read_int_reg    |  3|   0|    3|          0|
    |data_17_V_read_int_reg    |  3|   0|    3|          0|
    |data_20_V_read_3_reg_399  |  3|   0|    3|          0|
    |data_20_V_read_int_reg    |  3|   0|    3|          0|
    |data_21_V_read_3_reg_393  |  3|   0|    3|          0|
    |data_21_V_read_int_reg    |  3|   0|    3|          0|
    |data_26_V_read11_reg_387  |  3|   0|    3|          0|
    |data_26_V_read_int_reg    |  3|   0|    3|          0|
    |data_30_V_read_int_reg    |  3|   0|    3|          0|
    |sub_ln1118_1_reg_409      |  6|   0|    6|          0|
    |sub_ln1118_3_reg_419      |  6|   0|    6|          0|
    |sub_ln1118_6_reg_424      |  6|   0|    6|          0|
    |sub_ln1118_reg_414        |  4|   0|    4|          0|
    +--------------------------+---+----+-----+-----------+
    |Total                     | 89|   0|  117|         28|
    +--------------------------+---+----+-----+-----------+



================================================================
== Interface
================================================================
* Summary: 
+----------------+-----+-----+------------+------------------------------------------------+--------------+
|    RTL Ports   | Dir | Bits|  Protocol  |                  Source Object                 |    C Type    |
+----------------+-----+-----+------------+------------------------------------------------+--------------+
|ap_clk          |  in |    1| ap_ctrl_hs | dense_latency<ap_ufixed,ap_fixed,config11>.0.0 | return value |
|ap_rst          |  in |    1| ap_ctrl_hs | dense_latency<ap_ufixed,ap_fixed,config11>.0.0 | return value |
|ap_return       | out |   16| ap_ctrl_hs | dense_latency<ap_ufixed,ap_fixed,config11>.0.0 | return value |
|ap_ce           |  in |    1| ap_ctrl_hs | dense_latency<ap_ufixed,ap_fixed,config11>.0.0 | return value |
|data_11_V_read  |  in |    3|   ap_none  |                 data_11_V_read                 |    scalar    |
|data_12_V_read  |  in |    3|   ap_none  |                 data_12_V_read                 |    scalar    |
|data_13_V_read  |  in |    3|   ap_none  |                 data_13_V_read                 |    scalar    |
|data_17_V_read  |  in |    3|   ap_none  |                 data_17_V_read                 |    scalar    |
|data_20_V_read  |  in |    3|   ap_none  |                 data_20_V_read                 |    scalar    |
|data_21_V_read  |  in |    3|   ap_none  |                 data_21_V_read                 |    scalar    |
|data_26_V_read  |  in |    3|   ap_none  |                 data_26_V_read                 |    scalar    |
|data_30_V_read  |  in |    3|   ap_none  |                 data_30_V_read                 |    scalar    |
+----------------+-----+-----+------------+------------------------------------------------+--------------+

