

================================================================
== Vivado HLS Report for 'dense_latency_ap_ufixed_ap_fixed_config8_0_0'
================================================================
* Date:           Tue May 31 16:46:30 2022

* Version:        2020.1 (Build 2897737 on Wed May 27 20:21:37 MDT 2020)
* Project:        myproject_prj
* Solution:       solution1
* Product family: virtexuplus
* Target device:  xcvu9p-flga2104-2L-e


================================================================
== Performance Estimates
================================================================
+ Timing: 
    * Summary: 
    +--------+---------+----------+------------+
    |  Clock |  Target | Estimated| Uncertainty|
    +--------+---------+----------+------------+
    |ap_clk  | 1.92 ns | 1.563 ns |   0.24 ns  |
    +--------+---------+----------+------------+

+ Latency: 
    * Summary: 
    +---------+---------+----------+----------+-----+-----+----------+
    |  Latency (cycles) |  Latency (absolute) |  Interval | Pipeline |
    |   min   |   max   |    min   |    max   | min | max |   Type   |
    +---------+---------+----------+----------+-----+-----+----------+
    |        2|        2| 3.846 ns | 3.846 ns |    1|    1| function |
    +---------+---------+----------+----------+-----+-----+----------+

    + Detail: 
        * Instance: 
        N/A

        * Loop: 
        N/A



================================================================
== Utilization Estimates
================================================================
* Summary: 
+---------------------+---------+-------+---------+---------+-----+
|         Name        | BRAM_18K| DSP48E|    FF   |   LUT   | URAM|
+---------------------+---------+-------+---------+---------+-----+
|DSP                  |        -|      -|        -|        -|    -|
|Expression           |        -|      0|        0|      368|    -|
|FIFO                 |        -|      -|        -|        -|    -|
|Instance             |        -|      -|        -|        -|    -|
|Memory               |        -|      -|        -|        -|    -|
|Multiplexer          |        -|      -|        -|        9|    -|
|Register             |        -|      -|      120|        -|    -|
+---------------------+---------+-------+---------+---------+-----+
|Total                |        0|      0|      120|      377|    0|
+---------------------+---------+-------+---------+---------+-----+
|Available SLR        |     1440|   2280|   788160|   394080|  320|
+---------------------+---------+-------+---------+---------+-----+
|Utilization SLR (%)  |        0|      0|    ~0   |    ~0   |    0|
+---------------------+---------+-------+---------+---------+-----+
|Available            |     4320|   6840|  2364480|  1182240|  960|
+---------------------+---------+-------+---------+---------+-----+
|Utilization (%)      |        0|      0|    ~0   |    ~0   |    0|
+---------------------+---------+-------+---------+---------+-----+

+ Detail: 
    * Instance: 
    N/A

    * DSP48E: 
    N/A

    * Memory: 
    N/A

    * FIFO: 
    N/A

    * Expression: 
    +------------------------+----------+-------+---+----+------------+------------+
    |      Variable Name     | Operation| DSP48E| FF| LUT| Bitwidth P0| Bitwidth P1|
    +------------------------+----------+-------+---+----+------------+------------+
    |mul_ln1118_1_fu_121_p2  |     *    |      0|  0|  23|           3|           6|
    |mul_ln1118_fu_125_p2    |     *    |      0|  0|  33|           3|           7|
    |mul_ln728_1_fu_122_p2   |     *    |      0|  0|  23|           3|           6|
    |mul_ln728_2_fu_127_p2   |     *    |      0|  0|  23|           3|           6|
    |mul_ln728_fu_124_p2     |     *    |      0|  0|  23|           3|           6|
    |add_ln703_1_fu_528_p2   |     +    |      0|  0|  20|          13|          13|
    |add_ln703_2_fu_568_p2   |     +    |      0|  0|  21|          14|          14|
    |add_ln703_3_fu_534_p2   |     +    |      0|  0|  18|          14|          14|
    |add_ln703_4_fu_540_p2   |     +    |      0|  0|  18|          12|           7|
    |add_ln703_5_fu_546_p2   |     +    |      0|  0|  18|          12|          12|
    |add_ln703_6_fu_556_p2   |     +    |      0|  0|  18|          14|          14|
    |add_ln703_7_fu_581_p2   |     +    |      0|  0|  22|          15|          15|
    |add_ln703_fu_522_p2     |     +    |      0|  0|  20|          13|          13|
    |sub_ln1118_1_fu_418_p2  |     -    |      0|  0|  18|           9|           9|
    |sub_ln1118_2_fu_459_p2  |     -    |      0|  0|  18|           1|           9|
    |sub_ln1118_3_fu_476_p2  |     -    |      0|  0|  18|           9|           9|
    |sub_ln1118_4_fu_380_p2  |     -    |      0|  0|  16|           9|           9|
    |sub_ln1118_fu_412_p2    |     -    |      0|  0|  18|           1|           9|
    +------------------------+----------+-------+---+----+------------+------------+
    |Total                   |          |      0|  0| 368|         151|         178|
    +------------------------+----------+-------+---+----+------------+------------+

    * Multiplexer: 
    +-----------+----+-----------+-----+-----------+
    |    Name   | LUT| Input Size| Bits| Total Bits|
    +-----------+----+-----------+-----+-----------+
    |ap_return  |   9|          2|   12|         24|
    +-----------+----+-----------+-----+-----------+
    |Total      |   9|          2|   12|         24|
    +-----------+----+-----------+-----+-----------+

    * Register: 
    +--------------------------+----+----+-----+-----------+
    |           Name           | FF | LUT| Bits| Const Bits|
    +--------------------------+----+----+-----+-----------+
    |add_ln703_1_reg_610       |  10|   0|   13|          3|
    |add_ln703_6_reg_615       |  11|   0|   14|          3|
    |add_ln703_reg_605         |  10|   0|   13|          3|
    |ap_ce_reg                 |   1|   0|    1|          0|
    |ap_return_int_reg         |  12|   0|   15|          3|
    |data_12_V_read_5_reg_599  |   3|   0|    3|          0|
    |data_12_V_read_int_reg    |   3|   0|    3|          0|
    |data_13_V_read_3_reg_593  |   3|   0|    3|          0|
    |data_13_V_read_int_reg    |   3|   0|    3|          0|
    |data_16_V_read_int_reg    |   3|   0|    3|          0|
    |data_19_V_read_5_reg_587  |   3|   0|    3|          0|
    |data_19_V_read_int_reg    |   3|   0|    3|          0|
    |data_1_V_read_int_reg     |   3|   0|    3|          0|
    |data_21_V_read_int_reg    |   3|   0|    3|          0|
    |data_23_V_read_int_reg    |   3|   0|    3|          0|
    |data_27_V_read_int_reg    |   3|   0|    3|          0|
    |mul_ln1118_1_reg_320      |   9|   0|    9|          0|
    |mul_ln1118_reg_316        |   8|   0|   10|          2|
    |mul_ln728_1_reg_312       |   9|   0|    9|          0|
    |mul_ln728_2_reg_324       |   9|   0|    9|          0|
    |mul_ln728_reg_308         |   8|   0|    9|          1|
    +--------------------------+----+----+-----+-----------+
    |Total                     | 120|   0|  135|         15|
    +--------------------------+----+----+-----+-----------+



================================================================
== Interface
================================================================
* Summary: 
+----------------+-----+-----+------------+-----------------------------------------------+--------------+
|    RTL Ports   | Dir | Bits|  Protocol  |                 Source Object                 |    C Type    |
+----------------+-----+-----+------------+-----------------------------------------------+--------------+
|ap_clk          |  in |    1| ap_ctrl_hs | dense_latency<ap_ufixed,ap_fixed,config8>.0.0 | return value |
|ap_rst          |  in |    1| ap_ctrl_hs | dense_latency<ap_ufixed,ap_fixed,config8>.0.0 | return value |
|ap_return       | out |   15| ap_ctrl_hs | dense_latency<ap_ufixed,ap_fixed,config8>.0.0 | return value |
|ap_ce           |  in |    1| ap_ctrl_hs | dense_latency<ap_ufixed,ap_fixed,config8>.0.0 | return value |
|data_1_V_read   |  in |    3|   ap_none  |                 data_1_V_read                 |    scalar    |
|data_12_V_read  |  in |    3|   ap_none  |                 data_12_V_read                |    scalar    |
|data_13_V_read  |  in |    3|   ap_none  |                 data_13_V_read                |    scalar    |
|data_16_V_read  |  in |    3|   ap_none  |                 data_16_V_read                |    scalar    |
|data_19_V_read  |  in |    3|   ap_none  |                 data_19_V_read                |    scalar    |
|data_21_V_read  |  in |    3|   ap_none  |                 data_21_V_read                |    scalar    |
|data_23_V_read  |  in |    3|   ap_none  |                 data_23_V_read                |    scalar    |
|data_27_V_read  |  in |    3|   ap_none  |                 data_27_V_read                |    scalar    |
+----------------+-----+-----+------------+-----------------------------------------------+--------------+

