

================================================================
== Vivado HLS Report for 'myproject'
================================================================
* Date:           Tue May 31 16:46:31 2022

* Version:        2020.1 (Build 2897737 on Wed May 27 20:21:37 MDT 2020)
* Project:        myproject_prj
* Solution:       solution1
* Product family: virtexuplus
* Target device:  xcvu9p-flga2104-2L-e


================================================================
== Performance Estimates
================================================================
+ Timing: 
    * Summary: 
    +--------+---------+----------+------------+
    |  Clock |  Target | Estimated| Uncertainty|
    +--------+---------+----------+------------+
    |ap_clk  | 1.92 ns | 1.645 ns |   0.24 ns  |
    +--------+---------+----------+------------+

+ Latency: 
    * Summary: 
    +---------+---------+-----------+-----------+-----+-----+----------+
    |  Latency (cycles) |   Latency (absolute)  |  Interval | Pipeline |
    |   min   |   max   |    min    |    max    | min | max |   Type   |
    +---------+---------+-----------+-----------+-----+-----+----------+
    |       14|       14| 26.922 ns | 26.922 ns |    1|    1| function |
    +---------+---------+-----------+-----------+-----+-----+----------+

    + Detail: 
        * Instance: 
        +----------------------------------------------------------------------------+---------------------------------------------------------------+---------+---------+----------+----------+-----+-----+----------+
        |                                                                            |                                                               |  Latency (cycles) |  Latency (absolute) |  Interval | Pipeline |
        |                                  Instance                                  |                             Module                            |   min   |   max   |    min   |    max   | min | max |   Type   |
        +----------------------------------------------------------------------------+---------------------------------------------------------------+---------+---------+----------+----------+-----+-----+----------+
        |grp_dense_latency_0_0_0_0_0_0_0_0_0_0_0_0_0_0_0_0_0_0_0_0_0_0_0_1_fu_87     |dense_latency_0_0_0_0_0_0_0_0_0_0_0_0_0_0_0_0_0_0_0_0_0_0_0_1  |        2|        2| 3.846 ns | 3.846 ns |    1|    1| function |
        |grp_dense_latency_0_0_0_0_0_0_0_0_0_0_0_0_0_0_0_0_0_0_0_0_0_0_0_s_fu_93     |dense_latency_0_0_0_0_0_0_0_0_0_0_0_0_0_0_0_0_0_0_0_0_0_0_0_s  |        1|        1| 1.923 ns | 1.923 ns |    1|    1| function |
        |call_ret2_relu_ap_fixed_ap_ufixed_3_1_0_0_0_relu_config4_s_fu_109           |relu_ap_fixed_ap_ufixed_3_1_0_0_0_relu_config4_s               |        0|        0|   0 ns   |   0 ns   |    1|    1| function |
        |call_ret5_relu_ap_fixed_ap_ufixed_3_1_0_0_0_relu_config7_s_fu_125           |relu_ap_fixed_ap_ufixed_3_1_0_0_0_relu_config7_s               |        0|        0|   0 ns   |   0 ns   |    1|    1| function |
        |grp_dense_latency_ap_ufixed_ap_fixed_config8_0_0_fu_137                     |dense_latency_ap_ufixed_ap_fixed_config8_0_0                   |        2|        2| 3.846 ns | 3.846 ns |    1|    1| function |
        |grp_sigmoid_ap_fixed_ap_ufixed_sigmoid_config10_s_fu_149                    |sigmoid_ap_fixed_ap_ufixed_sigmoid_config10_s                  |        3|        3| 5.769 ns | 5.769 ns |    1|    1| function |
        |call_ret1_linear_ap_fixed_ap_fixed_16_6_0_0_0_linear_config3_s_fu_157       |linear_ap_fixed_ap_fixed_16_6_0_0_0_linear_config3_s           |        0|        0|   0 ns   |   0 ns   |    1|    1| function |
        |call_ret4_linear_ap_fixed_ap_fixed_16_6_0_0_0_linear_config6_s_fu_173       |linear_ap_fixed_ap_fixed_16_6_0_0_0_linear_config6_s           |        0|        0|   0 ns   |   0 ns   |    1|    1| function |
        |layer9_out_0_V_linear_ap_fixed_ap_fixed_16_6_0_0_0_linear_config9_s_fu_185  |linear_ap_fixed_ap_fixed_16_6_0_0_0_linear_config9_s           |        0|        0|   0 ns   |   0 ns   |    1|    1| function |
        +----------------------------------------------------------------------------+---------------------------------------------------------------+---------+---------+----------+----------+-----+-----+----------+

        * Loop: 
        N/A



================================================================
== Utilization Estimates
================================================================
* Summary: 
+---------------------+---------+-------+---------+---------+-----+
|         Name        | BRAM_18K| DSP48E|    FF   |   LUT   | URAM|
+---------------------+---------+-------+---------+---------+-----+
|DSP                  |        -|      -|        -|        -|    -|
|Expression           |        -|      -|        0|        6|    -|
|FIFO                 |        -|      -|        -|        -|    -|
|Instance             |        1|      0|     1755|     5447|    -|
|Memory               |        -|      -|        -|        -|    -|
|Multiplexer          |        -|      -|        -|       36|    -|
|Register             |        -|      -|      492|        -|    -|
+---------------------+---------+-------+---------+---------+-----+
|Total                |        1|      0|     2247|     5489|    0|
+---------------------+---------+-------+---------+---------+-----+
|Available SLR        |     1440|   2280|   788160|   394080|  320|
+---------------------+---------+-------+---------+---------+-----+
|Utilization SLR (%)  |    ~0   |      0|    ~0   |        1|    0|
+---------------------+---------+-------+---------+---------+-----+
|Available            |     4320|   6840|  2364480|  1182240|  960|
+---------------------+---------+-------+---------+---------+-----+
|Utilization (%)      |    ~0   |      0|    ~0   |    ~0   |    0|
+---------------------+---------+-------+---------+---------+-----+

+ Detail: 
    * Instance: 
    +----------------------------------------------------------------------------+---------------------------------------------------------------+---------+-------+------+------+-----+
    |                                  Instance                                  |                             Module                            | BRAM_18K| DSP48E|  FF  |  LUT | URAM|
    +----------------------------------------------------------------------------+---------------------------------------------------------------+---------+-------+------+------+-----+
    |grp_dense_latency_0_0_0_0_0_0_0_0_0_0_0_0_0_0_0_0_0_0_0_0_0_0_0_1_fu_87     |dense_latency_0_0_0_0_0_0_0_0_0_0_0_0_0_0_0_0_0_0_0_0_0_0_0_1  |        0|      0|  1343|  2560|    0|
    |grp_dense_latency_0_0_0_0_0_0_0_0_0_0_0_0_0_0_0_0_0_0_0_0_0_0_0_s_fu_93     |dense_latency_0_0_0_0_0_0_0_0_0_0_0_0_0_0_0_0_0_0_0_0_0_0_0_s  |        0|      0|   255|  1203|    0|
    |grp_dense_latency_ap_ufixed_ap_fixed_config8_0_0_fu_137                     |dense_latency_ap_ufixed_ap_fixed_config8_0_0                   |        0|      0|   120|   377|    0|
    |call_ret1_linear_ap_fixed_ap_fixed_16_6_0_0_0_linear_config3_s_fu_157       |linear_ap_fixed_ap_fixed_16_6_0_0_0_linear_config3_s           |        0|      0|     0|     0|    0|
    |call_ret4_linear_ap_fixed_ap_fixed_16_6_0_0_0_linear_config6_s_fu_173       |linear_ap_fixed_ap_fixed_16_6_0_0_0_linear_config6_s           |        0|      0|     0|     0|    0|
    |layer9_out_0_V_linear_ap_fixed_ap_fixed_16_6_0_0_0_linear_config9_s_fu_185  |linear_ap_fixed_ap_fixed_16_6_0_0_0_linear_config9_s           |        0|      0|     0|     0|    0|
    |call_ret2_relu_ap_fixed_ap_ufixed_3_1_0_0_0_relu_config4_s_fu_109           |relu_ap_fixed_ap_ufixed_3_1_0_0_0_relu_config4_s               |        0|      0|     0|   696|    0|
    |call_ret5_relu_ap_fixed_ap_ufixed_3_1_0_0_0_relu_config7_s_fu_125           |relu_ap_fixed_ap_ufixed_3_1_0_0_0_relu_config7_s               |        0|      0|     0|   464|    0|
    |grp_sigmoid_ap_fixed_ap_ufixed_sigmoid_config10_s_fu_149                    |sigmoid_ap_fixed_ap_ufixed_sigmoid_config10_s                  |        1|      0|    37|   147|    0|
    +----------------------------------------------------------------------------+---------------------------------------------------------------+---------+-------+------+------+-----+
    |Total                                                                       |                                                               |        1|      0|  1755|  5447|    0|
    +----------------------------------------------------------------------------+---------------------------------------------------------------+---------+-------+------+------+-----+

    * DSP48E: 
    N/A

    * Memory: 
    N/A

    * FIFO: 
    N/A

    * Expression: 
    +----------------------------------+----------+-------+---+----+------------+------------+
    |           Variable Name          | Operation| DSP48E| FF| LUT| Bitwidth P0| Bitwidth P1|
    +----------------------------------+----------+-------+---+----+------------+------------+
    |ap_block_pp0_stage0_01001         |    and   |      0|  0|   2|           1|           1|
    |ap_block_state1_pp0_stage0_iter0  |    or    |      0|  0|   2|           1|           1|
    |ap_enable_pp0                     |    xor   |      0|  0|   2|           1|           2|
    +----------------------------------+----------+-------+---+----+------------+------------+
    |Total                             |          |      0|  0|   6|           3|           4|
    +----------------------------------+----------+-------+---+----+------------+------------+

    * Multiplexer: 
    +----------------------------+----+-----------+-----+-----------+
    |            Name            | LUT| Input Size| Bits| Total Bits|
    +----------------------------+----+-----------+-----+-----------+
    |qfc1_input_V_ap_vld_in_sig  |   9|          2|    1|          2|
    |qfc1_input_V_ap_vld_preg    |   9|          2|    1|          2|
    |qfc1_input_V_blk_n          |   9|          2|    1|          2|
    |qfc1_input_V_in_sig         |   9|          2|  272|        544|
    +----------------------------+----+-----------+-----+-----------+
    |Total                       |  36|          8|  275|        550|
    +----------------------------+----+-----------+-----+-----------+

    * Register: 
    +-----------------------------------------------------------------------+-----+----+-----+-----------+
    |                                  Name                                 |  FF | LUT| Bits| Const Bits|
    +-----------------------------------------------------------------------+-----+----+-----+-----------+
    |ap_CS_fsm                                                              |    1|   0|    1|          0|
    |ap_enable_reg_pp0_iter1                                                |    1|   0|    1|          0|
    |ap_enable_reg_pp0_iter10                                               |    1|   0|    1|          0|
    |ap_enable_reg_pp0_iter11                                               |    1|   0|    1|          0|
    |ap_enable_reg_pp0_iter12                                               |    1|   0|    1|          0|
    |ap_enable_reg_pp0_iter13                                               |    1|   0|    1|          0|
    |ap_enable_reg_pp0_iter14                                               |    1|   0|    1|          0|
    |ap_enable_reg_pp0_iter2                                                |    1|   0|    1|          0|
    |ap_enable_reg_pp0_iter3                                                |    1|   0|    1|          0|
    |ap_enable_reg_pp0_iter4                                                |    1|   0|    1|          0|
    |ap_enable_reg_pp0_iter5                                                |    1|   0|    1|          0|
    |ap_enable_reg_pp0_iter6                                                |    1|   0|    1|          0|
    |ap_enable_reg_pp0_iter7                                                |    1|   0|    1|          0|
    |ap_enable_reg_pp0_iter8                                                |    1|   0|    1|          0|
    |ap_enable_reg_pp0_iter9                                                |    1|   0|    1|          0|
    |grp_sigmoid_ap_fixed_ap_ufixed_sigmoid_config10_s_fu_149_ap_start_reg  |    1|   0|    1|          0|
    |layer4_out_12_V_reg_472                                                |    3|   0|    3|          0|
    |layer4_out_15_V_reg_477                                                |    3|   0|    3|          0|
    |layer4_out_19_V_reg_482                                                |    3|   0|    3|          0|
    |layer4_out_27_V_reg_487                                                |    3|   0|    3|          0|
    |layer4_out_32_V_reg_492                                                |    3|   0|    3|          0|
    |layer4_out_34_V_reg_497                                                |    3|   0|    3|          0|
    |layer4_out_41_V_reg_502                                                |    3|   0|    3|          0|
    |layer4_out_42_V_reg_507                                                |    3|   0|    3|          0|
    |layer4_out_48_V_reg_512                                                |    3|   0|    3|          0|
    |layer4_out_52_V_reg_517                                                |    3|   0|    3|          0|
    |layer4_out_57_V_reg_522                                                |    3|   0|    3|          0|
    |layer4_out_61_V_reg_527                                                |    3|   0|    3|          0|
    |layer5_out_12_V_reg_537                                                |   16|   0|   16|          0|
    |layer5_out_13_V_reg_542                                                |   16|   0|   16|          0|
    |layer5_out_16_V_reg_547                                                |   16|   0|   16|          0|
    |layer5_out_19_V_reg_552                                                |   16|   0|   16|          0|
    |layer5_out_1_V_reg_532                                                 |   16|   0|   16|          0|
    |layer5_out_21_V_reg_557                                                |   16|   0|   16|          0|
    |layer5_out_23_V_reg_562                                                |   16|   0|   16|          0|
    |layer5_out_27_V_reg_567                                                |   16|   0|   16|          0|
    |layer7_out_12_V_reg_577                                                |    3|   0|    3|          0|
    |layer7_out_13_V_reg_582                                                |    3|   0|    3|          0|
    |layer7_out_16_V_reg_587                                                |    3|   0|    3|          0|
    |layer7_out_19_V_reg_592                                                |    3|   0|    3|          0|
    |layer7_out_1_V_reg_572                                                 |    3|   0|    3|          0|
    |layer7_out_21_V_reg_597                                                |    3|   0|    3|          0|
    |layer7_out_23_V_reg_602                                                |    3|   0|    3|          0|
    |layer7_out_27_V_reg_607                                                |    3|   0|    3|          0|
    |layer8_out_0_V_reg_612                                                 |   15|   0|   15|          0|
    |qfc1_input_V_ap_vld_preg                                               |    1|   0|    1|          0|
    |qfc1_input_V_preg                                                      |  272|   0|  272|          0|
    +-----------------------------------------------------------------------+-----+----+-----+-----------+
    |Total                                                                  |  492|   0|  492|          0|
    +-----------------------------------------------------------------------+-----+----+-----+-----------+



================================================================
== Interface
================================================================
* Summary: 
+-------------------------+-----+-----+------------+------------------+--------------+
|        RTL Ports        | Dir | Bits|  Protocol  |   Source Object  |    C Type    |
+-------------------------+-----+-----+------------+------------------+--------------+
|ap_clk                   |  in |    1| ap_ctrl_hs |     myproject    | return value |
|ap_rst                   |  in |    1| ap_ctrl_hs |     myproject    | return value |
|ap_start                 |  in |    1| ap_ctrl_hs |     myproject    | return value |
|ap_done                  | out |    1| ap_ctrl_hs |     myproject    | return value |
|ap_idle                  | out |    1| ap_ctrl_hs |     myproject    | return value |
|ap_ready                 | out |    1| ap_ctrl_hs |     myproject    | return value |
|qfc1_input_V_ap_vld      |  in |    1|   ap_vld   |   qfc1_input_V   |    pointer   |
|qfc1_input_V             |  in |  272|   ap_vld   |   qfc1_input_V   |    pointer   |
|layer10_out_0_V          | out |    8|   ap_vld   |  layer10_out_0_V |    pointer   |
|layer10_out_0_V_ap_vld   | out |    1|   ap_vld   |  layer10_out_0_V |    pointer   |
|const_size_in_1          | out |   16|   ap_vld   |  const_size_in_1 |    pointer   |
|const_size_in_1_ap_vld   | out |    1|   ap_vld   |  const_size_in_1 |    pointer   |
|const_size_out_1         | out |   16|   ap_vld   | const_size_out_1 |    pointer   |
|const_size_out_1_ap_vld  | out |    1|   ap_vld   | const_size_out_1 |    pointer   |
+-------------------------+-----+-----+------------+------------------+--------------+

