

================================================================
== Vivado HLS Report for 'relu_ap_fixed_ap_ufixed_3_1_0_0_0_relu_config4_s'
================================================================
* Date:           Tue May 31 16:46:28 2022

* Version:        2020.1 (Build 2897737 on Wed May 27 20:21:37 MDT 2020)
* Project:        myproject_prj
* Solution:       solution1
* Product family: virtexuplus
* Target device:  xcvu9p-flga2104-2L-e


================================================================
== Performance Estimates
================================================================
+ Timing: 
    * Summary: 
    +--------+---------+----------+------------+
    |  Clock |  Target | Estimated| Uncertainty|
    +--------+---------+----------+------------+
    |ap_clk  | 1.92 ns | 0.954 ns |   0.24 ns  |
    +--------+---------+----------+------------+

+ Latency: 
    * Summary: 
    +---------+---------+----------+----------+-----+-----+----------+
    |  Latency (cycles) |  Latency (absolute) |  Interval | Pipeline |
    |   min   |   max   |    min   |    max   | min | max |   Type   |
    +---------+---------+----------+----------+-----+-----+----------+
    |        0|        0|   0 ns   |   0 ns   |    1|    1| function |
    +---------+---------+----------+----------+-----+-----+----------+

    + Detail: 
        * Instance: 
        N/A

        * Loop: 
        N/A



================================================================
== Utilization Estimates
================================================================
* Summary: 
+---------------------+---------+-------+---------+---------+-----+
|         Name        | BRAM_18K| DSP48E|    FF   |   LUT   | URAM|
+---------------------+---------+-------+---------+---------+-----+
|DSP                  |        -|      -|        -|        -|    -|
|Expression           |        -|      -|        0|      696|    -|
|FIFO                 |        -|      -|        -|        -|    -|
|Instance             |        -|      -|        -|        -|    -|
|Memory               |        -|      -|        -|        -|    -|
|Multiplexer          |        -|      -|        -|        -|    -|
|Register             |        -|      -|        -|        -|    -|
+---------------------+---------+-------+---------+---------+-----+
|Total                |        0|      0|        0|      696|    0|
+---------------------+---------+-------+---------+---------+-----+
|Available SLR        |     1440|   2280|   788160|   394080|  320|
+---------------------+---------+-------+---------+---------+-----+
|Utilization SLR (%)  |        0|      0|        0|    ~0   |    0|
+---------------------+---------+-------+---------+---------+-----+
|Available            |     4320|   6840|  2364480|  1182240|  960|
+---------------------+---------+-------+---------+---------+-----+
|Utilization (%)      |        0|      0|        0|    ~0   |    0|
+---------------------+---------+-------+---------+---------+-----+

+ Detail: 
    * Instance: 
    N/A

    * DSP48E: 
    N/A

    * Memory: 
    N/A

    * FIFO: 
    N/A

    * Expression: 
    +-----------------------------+----------+-------+---+----+------------+------------+
    |        Variable Name        | Operation| DSP48E| FF| LUT| Bitwidth P0| Bitwidth P1|
    +-----------------------------+----------+-------+---+----+------------+------------+
    |add_ln415_10_fu_508_p2       |     +    |      0|  0|  11|           3|           3|
    |add_ln415_11_fu_616_p2       |     +    |      0|  0|  11|           3|           3|
    |add_ln415_12_fu_724_p2       |     +    |      0|  0|  11|           3|           3|
    |add_ln415_13_fu_832_p2       |     +    |      0|  0|  11|           3|           3|
    |add_ln415_14_fu_940_p2       |     +    |      0|  0|  11|           3|           3|
    |add_ln415_15_fu_1048_p2      |     +    |      0|  0|  11|           3|           3|
    |add_ln415_16_fu_1156_p2      |     +    |      0|  0|  11|           3|           3|
    |add_ln415_17_fu_1264_p2      |     +    |      0|  0|  11|           3|           3|
    |add_ln415_18_fu_1372_p2      |     +    |      0|  0|  11|           3|           3|
    |add_ln415_8_fu_292_p2        |     +    |      0|  0|  11|           3|           3|
    |add_ln415_9_fu_400_p2        |     +    |      0|  0|  11|           3|           3|
    |add_ln415_fu_184_p2          |     +    |      0|  0|  11|           3|           3|
    |and_ln416_10_fu_528_p2       |    and   |      0|  0|   2|           1|           1|
    |and_ln416_11_fu_636_p2       |    and   |      0|  0|   2|           1|           1|
    |and_ln416_12_fu_744_p2       |    and   |      0|  0|   2|           1|           1|
    |and_ln416_13_fu_852_p2       |    and   |      0|  0|   2|           1|           1|
    |and_ln416_14_fu_960_p2       |    and   |      0|  0|   2|           1|           1|
    |and_ln416_15_fu_1068_p2      |    and   |      0|  0|   2|           1|           1|
    |and_ln416_16_fu_1176_p2      |    and   |      0|  0|   2|           1|           1|
    |and_ln416_17_fu_1284_p2      |    and   |      0|  0|   2|           1|           1|
    |and_ln416_18_fu_1392_p2      |    and   |      0|  0|   2|           1|           1|
    |and_ln416_8_fu_312_p2        |    and   |      0|  0|   2|           1|           1|
    |and_ln416_9_fu_420_p2        |    and   |      0|  0|   2|           1|           1|
    |and_ln416_fu_204_p2          |    and   |      0|  0|   2|           1|           1|
    |icmp_ln1494_10_fu_472_p2     |   icmp   |      0|  0|  13|          16|           1|
    |icmp_ln1494_11_fu_580_p2     |   icmp   |      0|  0|  13|          16|           1|
    |icmp_ln1494_12_fu_688_p2     |   icmp   |      0|  0|  13|          16|           1|
    |icmp_ln1494_13_fu_796_p2     |   icmp   |      0|  0|  13|          16|           1|
    |icmp_ln1494_14_fu_904_p2     |   icmp   |      0|  0|  13|          16|           1|
    |icmp_ln1494_15_fu_1012_p2    |   icmp   |      0|  0|  13|          16|           1|
    |icmp_ln1494_16_fu_1120_p2    |   icmp   |      0|  0|  13|          16|           1|
    |icmp_ln1494_17_fu_1228_p2    |   icmp   |      0|  0|  13|          16|           1|
    |icmp_ln1494_18_fu_1336_p2    |   icmp   |      0|  0|  13|          16|           1|
    |icmp_ln1494_8_fu_256_p2      |   icmp   |      0|  0|  13|          16|           1|
    |icmp_ln1494_9_fu_364_p2      |   icmp   |      0|  0|  13|          16|           1|
    |icmp_ln1494_fu_148_p2        |   icmp   |      0|  0|  13|          16|           1|
    |icmp_ln768_10_fu_550_p2      |   icmp   |      0|  0|  11|           5|           1|
    |icmp_ln768_11_fu_658_p2      |   icmp   |      0|  0|  11|           5|           1|
    |icmp_ln768_12_fu_766_p2      |   icmp   |      0|  0|  11|           5|           1|
    |icmp_ln768_13_fu_874_p2      |   icmp   |      0|  0|  11|           5|           1|
    |icmp_ln768_14_fu_982_p2      |   icmp   |      0|  0|  11|           5|           1|
    |icmp_ln768_15_fu_1090_p2     |   icmp   |      0|  0|  11|           5|           1|
    |icmp_ln768_16_fu_1198_p2     |   icmp   |      0|  0|  11|           5|           1|
    |icmp_ln768_17_fu_1306_p2     |   icmp   |      0|  0|  11|           5|           1|
    |icmp_ln768_18_fu_1414_p2     |   icmp   |      0|  0|  11|           5|           1|
    |icmp_ln768_8_fu_334_p2       |   icmp   |      0|  0|  11|           5|           1|
    |icmp_ln768_9_fu_442_p2       |   icmp   |      0|  0|  11|           5|           1|
    |icmp_ln768_fu_226_p2         |   icmp   |      0|  0|  11|           5|           1|
    |icmp_ln879_10_fu_544_p2      |   icmp   |      0|  0|  11|           5|           2|
    |icmp_ln879_11_fu_652_p2      |   icmp   |      0|  0|  11|           5|           2|
    |icmp_ln879_12_fu_760_p2      |   icmp   |      0|  0|  11|           5|           2|
    |icmp_ln879_13_fu_868_p2      |   icmp   |      0|  0|  11|           5|           2|
    |icmp_ln879_14_fu_976_p2      |   icmp   |      0|  0|  11|           5|           2|
    |icmp_ln879_15_fu_1084_p2     |   icmp   |      0|  0|  11|           5|           2|
    |icmp_ln879_16_fu_1192_p2     |   icmp   |      0|  0|  11|           5|           2|
    |icmp_ln879_17_fu_1300_p2     |   icmp   |      0|  0|  11|           5|           2|
    |icmp_ln879_18_fu_1408_p2     |   icmp   |      0|  0|  11|           5|           2|
    |icmp_ln879_8_fu_328_p2       |   icmp   |      0|  0|  11|           5|           2|
    |icmp_ln879_9_fu_436_p2       |   icmp   |      0|  0|  11|           5|           2|
    |icmp_ln879_fu_220_p2         |   icmp   |      0|  0|  11|           5|           2|
    |select_ln1494_10_fu_572_p3   |  select  |      0|  0|   3|           1|           3|
    |select_ln1494_11_fu_680_p3   |  select  |      0|  0|   3|           1|           3|
    |select_ln1494_12_fu_788_p3   |  select  |      0|  0|   3|           1|           3|
    |select_ln1494_13_fu_896_p3   |  select  |      0|  0|   3|           1|           3|
    |select_ln1494_14_fu_1004_p3  |  select  |      0|  0|   3|           1|           3|
    |select_ln1494_15_fu_1112_p3  |  select  |      0|  0|   3|           1|           3|
    |select_ln1494_16_fu_1220_p3  |  select  |      0|  0|   3|           1|           3|
    |select_ln1494_17_fu_1328_p3  |  select  |      0|  0|   3|           1|           3|
    |select_ln1494_18_fu_1436_p3  |  select  |      0|  0|   3|           1|           3|
    |select_ln1494_8_fu_356_p3    |  select  |      0|  0|   3|           1|           3|
    |select_ln1494_9_fu_464_p3    |  select  |      0|  0|   3|           1|           3|
    |select_ln1494_fu_248_p3      |  select  |      0|  0|   3|           1|           3|
    |select_ln340_10_fu_564_p3    |  select  |      0|  0|   3|           1|           3|
    |select_ln340_11_fu_672_p3    |  select  |      0|  0|   3|           1|           3|
    |select_ln340_12_fu_780_p3    |  select  |      0|  0|   3|           1|           3|
    |select_ln340_13_fu_888_p3    |  select  |      0|  0|   3|           1|           3|
    |select_ln340_14_fu_996_p3    |  select  |      0|  0|   3|           1|           3|
    |select_ln340_15_fu_1104_p3   |  select  |      0|  0|   3|           1|           3|
    |select_ln340_16_fu_1212_p3   |  select  |      0|  0|   3|           1|           3|
    |select_ln340_17_fu_1320_p3   |  select  |      0|  0|   3|           1|           3|
    |select_ln340_18_fu_1428_p3   |  select  |      0|  0|   3|           1|           3|
    |select_ln340_8_fu_348_p3     |  select  |      0|  0|   3|           1|           3|
    |select_ln340_9_fu_456_p3     |  select  |      0|  0|   3|           1|           3|
    |select_ln340_fu_240_p3       |  select  |      0|  0|   3|           1|           3|
    |select_ln777_10_fu_556_p3    |  select  |      0|  0|   2|           1|           1|
    |select_ln777_11_fu_664_p3    |  select  |      0|  0|   2|           1|           1|
    |select_ln777_12_fu_772_p3    |  select  |      0|  0|   2|           1|           1|
    |select_ln777_13_fu_880_p3    |  select  |      0|  0|   2|           1|           1|
    |select_ln777_14_fu_988_p3    |  select  |      0|  0|   2|           1|           1|
    |select_ln777_15_fu_1096_p3   |  select  |      0|  0|   2|           1|           1|
    |select_ln777_16_fu_1204_p3   |  select  |      0|  0|   2|           1|           1|
    |select_ln777_17_fu_1312_p3   |  select  |      0|  0|   2|           1|           1|
    |select_ln777_18_fu_1420_p3   |  select  |      0|  0|   2|           1|           1|
    |select_ln777_8_fu_340_p3     |  select  |      0|  0|   2|           1|           1|
    |select_ln777_9_fu_448_p3     |  select  |      0|  0|   2|           1|           1|
    |select_ln777_fu_232_p3       |  select  |      0|  0|   2|           1|           1|
    |xor_ln416_10_fu_522_p2       |    xor   |      0|  0|   2|           1|           2|
    |xor_ln416_11_fu_630_p2       |    xor   |      0|  0|   2|           1|           2|
    |xor_ln416_12_fu_738_p2       |    xor   |      0|  0|   2|           1|           2|
    |xor_ln416_13_fu_846_p2       |    xor   |      0|  0|   2|           1|           2|
    |xor_ln416_14_fu_954_p2       |    xor   |      0|  0|   2|           1|           2|
    |xor_ln416_15_fu_1062_p2      |    xor   |      0|  0|   2|           1|           2|
    |xor_ln416_16_fu_1170_p2      |    xor   |      0|  0|   2|           1|           2|
    |xor_ln416_17_fu_1278_p2      |    xor   |      0|  0|   2|           1|           2|
    |xor_ln416_18_fu_1386_p2      |    xor   |      0|  0|   2|           1|           2|
    |xor_ln416_8_fu_306_p2        |    xor   |      0|  0|   2|           1|           2|
    |xor_ln416_9_fu_414_p2        |    xor   |      0|  0|   2|           1|           2|
    |xor_ln416_fu_198_p2          |    xor   |      0|  0|   2|           1|           2|
    +-----------------------------+----------+-------+---+----+------------+------------+
    |Total                        |          |      0|  0| 696|         408|         204|
    +-----------------------------+----------+-------+---+----+------------+------------+

    * Multiplexer: 
    N/A

    * Register: 
    N/A



================================================================
== Interface
================================================================
* Summary: 
+----------------+-----+-----+------------+--------------------------------------------------+--------------+
|    RTL Ports   | Dir | Bits|  Protocol  |                   Source Object                  |    C Type    |
+----------------+-----+-----+------------+--------------------------------------------------+--------------+
|ap_ready        | out |    1| ap_ctrl_hs | relu<ap_fixed,ap_ufixed<3,1,0,0,0>,relu_config4> | return value |
|ap_return_0     | out |    3| ap_ctrl_hs | relu<ap_fixed,ap_ufixed<3,1,0,0,0>,relu_config4> | return value |
|ap_return_1     | out |    3| ap_ctrl_hs | relu<ap_fixed,ap_ufixed<3,1,0,0,0>,relu_config4> | return value |
|ap_return_2     | out |    3| ap_ctrl_hs | relu<ap_fixed,ap_ufixed<3,1,0,0,0>,relu_config4> | return value |
|ap_return_3     | out |    3| ap_ctrl_hs | relu<ap_fixed,ap_ufixed<3,1,0,0,0>,relu_config4> | return value |
|ap_return_4     | out |    3| ap_ctrl_hs | relu<ap_fixed,ap_ufixed<3,1,0,0,0>,relu_config4> | return value |
|ap_return_5     | out |    3| ap_ctrl_hs | relu<ap_fixed,ap_ufixed<3,1,0,0,0>,relu_config4> | return value |
|ap_return_6     | out |    3| ap_ctrl_hs | relu<ap_fixed,ap_ufixed<3,1,0,0,0>,relu_config4> | return value |
|ap_return_7     | out |    3| ap_ctrl_hs | relu<ap_fixed,ap_ufixed<3,1,0,0,0>,relu_config4> | return value |
|ap_return_8     | out |    3| ap_ctrl_hs | relu<ap_fixed,ap_ufixed<3,1,0,0,0>,relu_config4> | return value |
|ap_return_9     | out |    3| ap_ctrl_hs | relu<ap_fixed,ap_ufixed<3,1,0,0,0>,relu_config4> | return value |
|ap_return_10    | out |    3| ap_ctrl_hs | relu<ap_fixed,ap_ufixed<3,1,0,0,0>,relu_config4> | return value |
|ap_return_11    | out |    3| ap_ctrl_hs | relu<ap_fixed,ap_ufixed<3,1,0,0,0>,relu_config4> | return value |
|data_12_V_read  |  in |   16|   ap_none  |                  data_12_V_read                  |    scalar    |
|data_15_V_read  |  in |   16|   ap_none  |                  data_15_V_read                  |    scalar    |
|data_19_V_read  |  in |   16|   ap_none  |                  data_19_V_read                  |    scalar    |
|data_27_V_read  |  in |   16|   ap_none  |                  data_27_V_read                  |    scalar    |
|data_32_V_read  |  in |   16|   ap_none  |                  data_32_V_read                  |    scalar    |
|data_34_V_read  |  in |   16|   ap_none  |                  data_34_V_read                  |    scalar    |
|data_41_V_read  |  in |   16|   ap_none  |                  data_41_V_read                  |    scalar    |
|data_42_V_read  |  in |   16|   ap_none  |                  data_42_V_read                  |    scalar    |
|data_48_V_read  |  in |   16|   ap_none  |                  data_48_V_read                  |    scalar    |
|data_52_V_read  |  in |   16|   ap_none  |                  data_52_V_read                  |    scalar    |
|data_57_V_read  |  in |   16|   ap_none  |                  data_57_V_read                  |    scalar    |
|data_61_V_read  |  in |   16|   ap_none  |                  data_61_V_read                  |    scalar    |
+----------------+-----+-----+------------+--------------------------------------------------+--------------+

